{
  "treatment": {
    "index-name": "ankle-foot-orthotics",
    "label-name": "Ankle-foot Orthotics",
    "treatment-type": "other"
  },
  "body-system": {
    "index-name": "ankle-and-foot-disorders",
    "label-name": "Ankle and Foot Disorders"
  },
  "version": {
    "mtus": "04/18/19",
    "odg": "",
    "policy-doc": "01/27/23",
    "created-by": "Cade",
    "comments": ""
  },
  "policies": [
    {
      "source": "mtus",
      "diagnosis": {
        "index-name": "foot-drop",
        "label-name": "Foot Drop"
      },
      "recommendation": "approve",
      "questions": [],
      "mtus-text": "Recommended. Orthotics, especially ankle-foot orthotics (AFOs) are recommended for the treatment of foot drop.\n\nStrength of Evidence – Recommended, Insufficient Evidence (I)\n\nLevel of Confidence – Moderate\n\nRationale: Although there are no quality trials, ankle-foot orthotics for foot drop have been used successfully for many years and thus they are recommended since they facilitate walking ability. Evaluation for orthotics should include evaluation of the footwear that is to be worn by the patient, including the nature of the fore-soles. Fronts of shoes and boots can catch on carpets and low-lying irregular surfaces, and modifications of shoes and boots may mitigate slip, trip, and fall risks posed by footwear."
    }
  ],
  "references": {
    "mtus-link": "https://app.mdguidelines.com/acoem-section/acoem%2Fdisorders%2Fankle-and-foot-disorders%2Fdiagnostic-and-treatment-recommendations%2Ffoot-drop",
    "odg-link": ""
  }
}