{
  "treatment": {
    "index-name": "apoprotinin-injections",
    "label-name": "Apoprotinin Injections",
    "treatment-type": "other"
  },
  "body-system": {
    "index-name": "ankle-and-foot-disorders",
    "label-name": "Ankle and Foot Disorders"
  },
  "version": {
    "mtus": "04/18/19",
    "odg": "",
    "policy-doc": "01/21/23",
    "created-by": "Cade",
    "comments": ""
  },
  "policies": [
    {
      "source": "mtus",
      "diagnosis": {
        "index-name": "acute-achilles-tendinopathy",
        "label-name": "Acute Achilles Tendinopathy"
      },
      "recommendation": "deny",
      "questions": [],
      "mtus-text": "Not Recommended. Apoprotinin injection is not recommended for treatment of acute, subacute, or chronic Achilles tendinopathy.\n\nStrength of Evidence (Chronic) – Not Recommended, Evidence (C)\n\nStrength of Evidence (Acute, subacute) – Not Recommended, Insufficient Evidence (I)\n\n Level of Confidence – Low\n\nRationale: There is one moderate-quality placebo-controlled trial comparing apoprotinin to placebo for the treatment of chronic mid-portion Achilles tendinopathy.(77) A series of 3 weekly injections did not demonstrate any improvement of pain in the intervention group compared to placebo. However, this study allowed multiple co-interventions, including eccentric exercises in both groups, such that the impact of the intervention may be confounded. Regardless, as there was no improvement difference between the groups despite the co-interventions, it is unlikely that this intervention was effective as a treatment. It is invasive, has a small but serious risk for anaphylactic reaction as it is bovine in origin, and is likely moderate to high cost requiring multiple injections over several office visits. Therefore, apoprotinin injection is not recommended."
    },
    {
      "source": "mtus",
      "diagnosis": {
        "index-name": "subacute-achilles-tendinopathy",
        "label-name": "Subacute Achilles Tendinopathy"
      },
      "recommendation": "deny",
      "questions": [],
      "mtus-text": "Not Recommended. Apoprotinin injection is not recommended for treatment of acute, subacute, or chronic Achilles tendinopathy.\n\nStrength of Evidence (Chronic) – Not Recommended, Evidence (C)\n\nStrength of Evidence (Acute, subacute) – Not Recommended, Insufficient Evidence (I)\n\n Level of Confidence – Low\n\nRationale: There is one moderate-quality placebo-controlled trial comparing apoprotinin to placebo for the treatment of chronic mid-portion Achilles tendinopathy.(77) A series of 3 weekly injections did not demonstrate any improvement of pain in the intervention group compared to placebo. However, this study allowed multiple co-interventions, including eccentric exercises in both groups, such that the impact of the intervention may be confounded. Regardless, as there was no improvement difference between the groups despite the co-interventions, it is unlikely that this intervention was effective as a treatment. It is invasive, has a small but serious risk for anaphylactic reaction as it is bovine in origin, and is likely moderate to high cost requiring multiple injections over several office visits. Therefore, apoprotinin injection is not recommended."
    },
    {
      "source": "mtus",
      "diagnosis": {
        "index-name": "chronic-achilles-tendinopathy",
        "label-name": "Chronic Achilles Tendinopathy"
      },
      "recommendation": "deny",
      "questions": [],
      "mtus-text": "Not Recommended. Apoprotinin injection is not recommended for treatment of acute, subacute, or chronic Achilles tendinopathy.\n\nStrength of Evidence (Chronic) – Not Recommended, Evidence (C)\n\nStrength of Evidence (Acute, subacute) – Not Recommended, Insufficient Evidence (I)\n\n Level of Confidence – Low\n\nRationale: There is one moderate-quality placebo-controlled trial comparing apoprotinin to placebo for the treatment of chronic mid-portion Achilles tendinopathy.(77) A series of 3 weekly injections did not demonstrate any improvement of pain in the intervention group compared to placebo. However, this study allowed multiple co-interventions, including eccentric exercises in both groups, such that the impact of the intervention may be confounded. Regardless, as there was no improvement difference between the groups despite the co-interventions, it is unlikely that this intervention was effective as a treatment. It is invasive, has a small but serious risk for anaphylactic reaction as it is bovine in origin, and is likely moderate to high cost requiring multiple injections over several office visits. Therefore, apoprotinin injection is not recommended."
    }
  ],
  "references": {
    "mtus-link": "https://app.mdguidelines.com/acoem-section/acoem%2Fdisorders%2Fankle-and-foot-disorders%2Fdiagnostic-and-treatment-recommendations%2Fachilles-tendinopathy%2Ftreatment-recommendations%2Finjection-therapies",
    "odg-link": ""
  }
}