{
  "treatment": {
    "index-name": "autologous-derived-growth-factors",
    "label-name": "Autologous-derived Growth Factors",
    "treatment-type": "other"
  },
  "body-system": {
    "index-name": "ankle-and-foot-disorders",
    "label-name": "Ankle and Foot Disorders"
  },
  "version": {
    "mtus": "04/18/19",
    "odg": "",
    "policy-doc": "01/22/23",
    "created-by": "Cade",
    "comments": ""
  },
  "policies": [
    {
      "source": "mtus",
      "diagnosis": {
        "index-name": "non-healing-diabetic-ulceration",
        "label-name": "Non-healing Diabetic Ulceration"
      },
      "recommendation": "1",
      "questions": [
        {
          "#": "1",
          "question": "Does the patient have a non-healing diabetic neuropathic ulceration of at least 4 weeks duration unresponsive to moist gauze treatment?",
          "option-list": [
            {
              "option": "yes",
              "action": "2"
            },
            {
              "option": "no",
              "action": "deny"
            }
          ]
        },
        {
          "#": "2",
          "question": "Does the patient's ulceration extend at least into the subcutaneous tissue and have adequate blood supply?",
          "option-list": [
            {
              "option": "yes",
              "action": "3"
            },
            {
              "option": "no",
              "action": "deny"
            }
          ]
        },
        {
          "#": "3",
          "question": "Will this treatment be be used in addition to a dressing of collagen and oxidized regenerated cellulose, debridement, pressure relief, and infection control?",
          "option-list": [
            {
              "option": "yes",
              "action": "approve"
            },
            {
              "option": "no",
              "action": "deny"
            }
          ]
        }
      ],
      "mtus-text": "Recommended. Autologous-derived growth factors are recommended as adjuvant therapy to wound care with collagen and oxidized regenerated cellulose for select non-healing diabetic ulcers.\n\nStrength of Evidence – Recommended, Evidence (C)\n\nLevel of Confidence – Low\n\nIndications: Non-healing diabetic neuropathic ulcers of at least 4 weeks duration unresponsive to moist gauze treatment that extend at least into the subcutaneous tissue, have adequate blood supply. (Kakagia 07) Should only be used in addition to a dressing of collagen and oxidized regenerated cellulose, debridement, pressure relief, and infection control."
    }
  ],
  "references": {
    "mtus-link": "https://app.mdguidelines.com/acoem-section/acoem%2Fdisorders%2Fankle-and-foot-disorders%2Fdiagnostic-and-treatment-recommendations%2Ffoot-ulceration%2Ftreatment-recommendations%2Fmedications",
    "odg-link": ""
  }
}