{
  "treatment": {
    "index-name": "botulinum-injections",
    "label-name": "Botulinum Injections",
    "treatment-type": "other"
  },
  "body-system": {
    "index-name": "ankle-and-foot-disorders",
    "label-name": "Ankle and Foot Disorders"
  },
  "version": {
    "mtus": "04/18/19",
    "odg": "",
    "policy-doc": "01/22/23",
    "created-by": "Cade",
    "comments": ""
  },
  "policies": [
    {
      "source": "mtus",
      "diagnosis": {
        "index-name": "tarsal-tunnel-syndrome-(tts)",
        "label-name": "Tarsal Tunnel Syndrome (TTS)"
      },
      "recommendation": "deny",
      "questions": [],
      "mtus-text": "Not Recommended. Botulinum injections are not recommended for the treatment of TTS.\n\nStrength of Evidence – Not Recommended, Insufficient Evidence (I)\n\nLevel of Confidence – High\n\nRationale: There is no quality evidence for the use of botulinum injections in TTS patients. However, there is one quality study which included CTS patients that does not show clear benefit, but did show weakness in two patients lasting a few weeks.(372) Botulinum injections are invasive, have adverse effects that include fatalities,(300) and are costly. These injections are not recommended for the management of TTS."
    }
  ],
  "references": {
    "mtus-link": "https://app.mdguidelines.com/acoem-section/acoem%2Fdisorders%2Fankle-and-foot-disorders%2Fdiagnostic-and-treatment-recommendations%2Ftts%2Ftreatment-recommendations%2Finjection-therapies",
    "odg-link": ""
  }
}