{
  "treatment": {
    "index-name": "changes-in-shoewear",
    "label-name": "Changes in Shoewear",
    "treatment-type": "other"
  },
  "body-system": {
    "index-name": "ankle-and-foot-disorders",
    "label-name": "Ankle and Foot Disorders"
  },
  "version": {
    "mtus": "04/18/19",
    "odg": "",
    "policy-doc": "01/21/23",
    "created-by": "Cade",
    "comments": ""
  },
  "policies": [
    {
      "source": "mtus",
      "diagnosis": {
        "index-name": "morton’s-neuroma",
        "label-name": "Morton’s Neuroma"
      },
      "recommendation": "approve",
      "questions": [],
      "mtus-text": "Recommended. Shoewear changes are recommended for treatment of Morton’s Neuroma.\n\nStrength of Evidence – Recommended, Insufficient Evidence (I)\n\nLevel of Confidence – Low\n\nIndications: Essentially all patients should be advised to wear stiff-soled, wide toe box shoes with a low heel and soft insert.\n\nRationale: There are no quality studies showing demonstrable success, however, changes in shoe wear have long been used, are non-invasive and appear to have some clinical efficacy, thus, an attempt at changing shoewear is recommended."
    }
  ],
  "references": {
    "mtus-link": "https://app.mdguidelines.com/acoem-section/acoem%2Fdisorders%2Fankle-and-foot-disorders%2Fdiagnostic-and-treatment-recommendations%2Ffoot-neuroma%2Ftreatment-recommendations%2Fdevices",
    "odg-link": ""
  }
}