{
  "treatment": {
    "index-name": "comfrey-extract",
    "label-name": "Comfrey Extract",
    "treatment-type": "other"
  },
  "body-system": {
    "index-name": "ankle-and-foot-disorders",
    "label-name": "Ankle and Foot Disorders"
  },
  "version": {
    "mtus": "04/18/19",
    "odg": "",
    "policy-doc": "01/22/23",
    "created-by": "Cade",
    "comments": ""
  },
  "policies": [
    {
      "source": "mtus",
      "diagnosis": {
        "index-name": "ankle-sprain",
        "label-name": "Ankle Sprain"
      },
      "recommendation": "no_recommendation",
      "questions": [],
      "mtus-text": "No Recommendation. There is no recommendation for or against the use of topical comfrey extract for the treatment of ankle sprains.\n\nStrength of Evidence – No Recommendation, Insuffcient Evidence (I)\n\nLevel of Confidence – Low\n\nRationale: There is one placebo-controlled moderate-quality study that suggested efficacy in improved analgesia and reduced swelling.(474) There is one moderate-quality trial with two reports that demonstrated equivalency of comfrey gel to topical diclofenac gel in resting and active motion pain relief after 7 days of treatment.(473, 475) As there is no ability to control the dose of nutraceutical and similar products, there is no recommendation for or against the use of comfrey to treat acute ankle sprain."
    }
  ],
  "references": {
    "mtus-link": "https://app.mdguidelines.com/acoem-section/acoem%2Fdisorders%2Fankle-and-foot-disorders%2Fdiagnostic-and-treatment-recommendations%2Fankle-sprain%2Ftreatment-recommendations%2Fmedications",
    "odg-link": ""
  }
}