{
  "treatment": {
    "index-name": "computerized-tomography-(ct)",
    "label-name": "Computerized Tomography (CT)",
    "treatment-type": "other"
  },
  "body-system": {
    "index-name": "ankle-and-foot-disorders",
    "label-name": "Ankle and Foot Disorders"
  },
  "version": {
    "mtus": "04/18/19",
    "odg": "",
    "policy-doc": "01/19/23",
    "created-by": "Cade",
    "comments": ""
  },
  "policies": [
    {
      "source": "mtus",
      "diagnosis": {
        "index-name": "assessing-acute-ankle-sprain",
        "label-name": "Assessing Acute Ankle Sprain"
      },
      "recommendation": "no_recommendation",
      "questions": [],
      "mtus-text": "No Recommendation. There is no recommendation for or against the use of CT for assessment of patients with acute ankle sprain.\n\nStrength of Evidence – No Recommendation, Insufficient Evidence (I)\n\n Level of Confidence – Low\n\nRationale: There are no quality trials for use of CT in evaluating ankle sprain. A prospective study demonstrated CT with an accuracy of 91% compared with arthroscopic findings, but only localized the injury to the same location as arthroscopy 63% of the time.(430) There is insufficient evidence for recommending MRI over CT or visa versa, and the study should be selected based on objective of clinical suspicion."
    },
    {
      "source": "mtus",
      "diagnosis": {
        "index-name": "assessing-subacute-ankle-sprain",
        "label-name": "Assessing Subacute Ankle Sprain"
      },
      "recommendation": "1",
      "questions": [
        {
          "#": "1",
          "question": "Does the patient have no limited improvement with non-operative therapy after 4 to 6 weeks, persistent pain with weight bearing, or chronic feeling of instability?",
          "option-list": [
            {
              "option": "yes",
              "action": "approve"
            },
            {
              "option": "no",
              "action": "2"
            }
          ]
        },
        {
          "#": "2",
          "question": "Does the patient have ankle injuries that involve crepitus, catching or locking? (These symptoms may be associated with a displaced osteochondral fragment).",
          "option-list": [
            {
              "option": "yes",
              "action": "approve"
            },
            {
              "option": "no",
              "action": "deny"
            }
          ]
        }
      ],
      "mtus-text": "Recommended. CT is recommended for the assessment of select patients with subacute or chronic ankle sprain.\n\nStrength of Evidence – Recommended, Insufficient Evidence (I)\n\n Level of Confidence – High\n\nIndications: Patients who have no limited improvement with non-operative therapy after 4 to 6 weeks, persistent pain with weight bearing, or chronic feeling of instability; ankle injuries that involve crepitus, catching or locking, as these symptoms may be associated with a displaced osteochondral fragment."
    },
    {
      "source": "mtus",
      "diagnosis": {
        "index-name": "assessing-chronic-ankle-sprain",
        "label-name": "Assessing Chronic Ankle Sprain"
      },
      "recommendation": "1",
      "questions": [
        {
          "#": "1",
          "question": "Does the patient have no limited improvement with non-operative therapy after 4 to 6 weeks, persistent pain with weight bearing, or chronic feeling of instability?",
          "option-list": [
            {
              "option": "yes",
              "action": "approve"
            },
            {
              "option": "no",
              "action": "2"
            }
          ]
        },
        {
          "#": "2",
          "question": "Does the patient have ankle injuries that involve crepitus, catching or locking? (These symptoms may be associated with a displaced osteochondral fragment).",
          "option-list": [
            {
              "option": "yes",
              "action": "approve"
            },
            {
              "option": "no",
              "action": "deny"
            }
          ]
        }
      ],
      "mtus-text": "Recommended. CT is recommended for the assessment of select patients with subacute or chronic ankle sprain.\n\nStrength of Evidence – Recommended, Insufficient Evidence (I)\n\n Level of Confidence – High\n\nIndications: Patients who have no limited improvement with non-operative therapy after 4 to 6 weeks, persistent pain with weight bearing, or chronic feeling of instability; ankle injuries that involve crepitus, catching or locking, as these symptoms may be associated with a displaced osteochondral fragment."
    }
  ],
  "references": {
    "mtus-link": "https://app.mdguidelines.com/acoem-section/acoem%2Fdisorders%2Fankle-and-foot-disorders%2Fdiagnostic-and-treatment-recommendations%2Fankle-sprain%2Fdiagnostic-recommendations",
    "odg-link": ""
  }
}