{
  "treatment": {
    "index-name": "fluoroscopy-guidance-for-shockwave-therapy",
    "label-name": "Fluoroscopy Guidance for Shockwave Therapy",
    "treatment-type": "other"
  },
  "body-system": {
    "index-name": "ankle-and-foot-disorders",
    "label-name": "Ankle and Foot Disorders"
  },
  "version": {
    "mtus": "04/18/19",
    "odg": "",
    "policy-doc": "01/22/23",
    "created-by": "Cade",
    "comments": ""
  },
  "policies": [
    {
      "source": "mtus",
      "diagnosis": {
        "index-name": "acute-plantar-fasciitis",
        "label-name": "Acute Plantar Fasciitis"
      },
      "recommendation": "deny",
      "questions": [],
      "mtus-text": "Not Recommended.\n\nElectrical Therapies\n\nUltrasound or fluoroscopic guidance is not recommended over application of energy at the point of maximal tenderness for treatment of plantar fasciitis.\n\nStrength of Evidence – Not Recommended, Insufficient Evidence (I)\n\nLevel of Confidence – Low"
    },
    {
      "source": "mtus",
      "diagnosis": {
        "index-name": "subacute-plantar-fasciitis",
        "label-name": "Subacute Plantar Fasciitis"
      },
      "recommendation": "deny",
      "questions": [],
      "mtus-text": "Not Recommended.\n\nElectrical Therapies\n\nUltrasound or fluoroscopic guidance is not recommended over application of energy at the point of maximal tenderness for treatment of plantar fasciitis.\n\nStrength of Evidence – Not Recommended, Insufficient Evidence (I)\n\nLevel of Confidence – Low"
    },
    {
      "source": "mtus",
      "diagnosis": {
        "index-name": "chronic-plantar-fasciitis",
        "label-name": "Chronic Plantar Fasciitis"
      },
      "recommendation": "deny",
      "questions": [],
      "mtus-text": "Not Recommended.\n\nElectrical Therapies\n\nUltrasound or fluoroscopic guidance is not recommended over application of energy at the point of maximal tenderness for treatment of plantar fasciitis.\n\nStrength of Evidence – Not Recommended, Insufficient Evidence (I)\n\nLevel of Confidence – Low"
    }
  ],
  "references": {
    "mtus-link": "https://app.mdguidelines.com/acoem-section/acoem%2Fdisorders%2Fankle-and-foot-disorders%2Fdiagnostic-and-treatment-recommendations%2Fplantar-heel-pain%2Ftreatment-recommendations%2Felectrical-therapies",
    "odg-link": ""
  }
}