{
  "treatment": {
    "index-name": "foot-waffle-support-brace",
    "label-name": "Foot Waffle Support Brace",
    "treatment-type": "other"
  },
  "body-system": {
    "index-name": "ankle-and-foot-disorders",
    "label-name": "Ankle and Foot Disorders"
  },
  "version": {
    "mtus": "04/18/19",
    "odg": "",
    "policy-doc": "01/19/23",
    "created-by": "Cade",
    "comments": ""
  },
  "policies": [
    {
      "source": "mtus",
      "diagnosis": {
        "index-name": "foot-ulceration",
        "label-name": "Foot Ulceration"
      },
      "recommendation": "deny",
      "questions": [],
      "mtus-text": "Foot Waffle Support Brace is not recommended for select patients with foot ulcers.\n\nStrength of Evidence – Not Recommended, Insufficient Evidence (I)\n\nLevel of Confidence – Low\n\nRationale for Recommendation\n\nThere is one low-quality RCT suggesting worse results with a foot waffle support brace compared with pillow support (Tymec 97) to attempt to reduce localized pressure. Foot waffle support braces are low cost, not invasive, but also do not appear effective and thus are not recommended."
    }
  ],
  "references": {
    "mtus-link": "https://app.mdguidelines.com/acoem-section/acoem%2Fdisorders%2Fankle-and-foot-disorders%2Fdiagnostic-and-treatment-recommendations%2Ffoot-ulceration%2Ftreatment-recommendations%2Fphysical-modalities-and-devices",
    "odg-link": ""
  }
}