{
  "treatment": {
    "index-name": "hypnosis",
    "label-name": "Hypnosis",
    "treatment-type": "other"
  },
  "body-system": {
    "index-name": "ankle-and-foot-disorders",
    "label-name": "Ankle and Foot Disorders"
  },
  "version": {
    "mtus": "04/18/19",
    "odg": "",
    "policy-doc": "01/21/23",
    "created-by": "Cade",
    "comments": ""
  },
  "policies": [
    {
      "source": "mtus",
      "diagnosis": {
        "index-name": "ankle-fracture",
        "label-name": "Ankle Fracture"
      },
      "recommendation": "no_recommendation",
      "questions": [],
      "mtus-text": "No Recommendation. There is no recommendation for or against the use of hypnosis for the management ankle or foot fractures.\n\nStrength of Evidence – No Recommendation, Insufficient Evidence (I)\n\nLevel of Confidence – Low\n\nRationale: There is one moderate-quality trial of hypnosis for promotion of fracture healing compared to a no-hypnosis group that demonstrated no significant differences as it was underpowered.(789) (Ginandes 99) Hypnosis is non-invasive, has low adverse effects, but is costly with multiple therapist visits. There is insufficient evidence for recommending hypnosis."
    },
    {
      "source": "mtus",
      "diagnosis": {
        "index-name": "foot-fracture",
        "label-name": "Foot Fracture"
      },
      "recommendation": "no_recommendation",
      "questions": [],
      "mtus-text": "No Recommendation. There is no recommendation for or against the use of hypnosis for the management ankle or foot fractures.\n\nStrength of Evidence – No Recommendation, Insufficient Evidence (I)\n\nLevel of Confidence – Low\n\nRationale: There is one moderate-quality trial of hypnosis for promotion of fracture healing compared to a no-hypnosis group that demonstrated no significant differences as it was underpowered.(789) (Ginandes 99) Hypnosis is non-invasive, has low adverse effects, but is costly with multiple therapist visits. There is insufficient evidence for recommending hypnosis."
    }
  ],
  "references": {
    "mtus-link": "https://app.mdguidelines.com/acoem-section/acoem%2Fdisorders%2Fankle-and-foot-disorders%2Fdiagnostic-and-treatment-recommendations%2Fankle-and-foot-fractures%2Ftreatment-recommendations%2Fallied-health-interventions",
    "odg-link": ""
  }
}