{
  "treatment": {
    "index-name": "iontophoresis-with-glucocorticosteroid",
    "label-name": "Iontophoresis with Glucocorticosteroid",
    "treatment-type": "other"
  },
  "body-system": {
    "index-name": "ankle-and-foot-disorders",
    "label-name": "Ankle and Foot Disorders"
  },
  "version": {
    "mtus": "04/18/19",
    "odg": "",
    "policy-doc": "01/22/23",
    "created-by": "Cade",
    "comments": ""
  },
  "policies": [
    {
      "source": "mtus",
      "diagnosis": {
        "index-name": "acute-achilles-tendinopathy",
        "label-name": "Acute Achilles Tendinopathy"
      },
      "recommendation": "approve",
      "questions": [],
      "mtus-text": "Recommended. Iontophoresis with glucocorticosteroid is recommended for treatment of acute, subacute, or chronic Achilles tendinopathy.\n\nStrength of Evidence – Recommended, Insufficient Evidence (I)\n\nLevel of Confidence – Moderate\n\nIndications: Acute, subacute, or chronic Achilles tendinopathy.\n\nFrequency/Dose/Duration: Four treatments over 2 weeks with dexamethasone(65) or other glucocorticoid. Therapy should include a concurrent eccentric exercise program.\n\nIndications for Discontinuation: Resolution, adverse effects, intolerance, non-compliance."
    },
    {
      "source": "mtus",
      "diagnosis": {
        "index-name": "subacute-achilles-tendinopathy",
        "label-name": "Subacute Achilles Tendinopathy"
      },
      "recommendation": "approve",
      "questions": [],
      "mtus-text": "Recommended. Iontophoresis with glucocorticosteroid is recommended for treatment of acute, subacute, or chronic Achilles tendinopathy.\n\nStrength of Evidence – Recommended, Insufficient Evidence (I)\n\nLevel of Confidence – Moderate\n\nIndications: Acute, subacute, or chronic Achilles tendinopathy.\n\nFrequency/Dose/Duration: Four treatments over 2 weeks with dexamethasone(65) or other glucocorticoid. Therapy should include a concurrent eccentric exercise program.\n\nIndications for Discontinuation: Resolution, adverse effects, intolerance, non-compliance."
    },
    {
      "source": "mtus",
      "diagnosis": {
        "index-name": "chronic-achilles-tendinopathy",
        "label-name": "Chronic Achilles Tendinopathy"
      },
      "recommendation": "approve",
      "questions": [],
      "mtus-text": "Recommended. Iontophoresis with glucocorticosteroid is recommended for treatment of acute, subacute, or chronic Achilles tendinopathy.\n\nStrength of Evidence – Recommended, Insufficient Evidence (I)\n\nLevel of Confidence – Moderate\n\nIndications: Acute, subacute, or chronic Achilles tendinopathy.\n\nFrequency/Dose/Duration: Four treatments over 2 weeks with dexamethasone(65) or other glucocorticoid. Therapy should include a concurrent eccentric exercise program.\n\nIndications for Discontinuation: Resolution, adverse effects, intolerance, non-compliance."
    },
    {
      "source": "mtus",
      "diagnosis": {
        "index-name": "acute-plantar-fasciitis",
        "label-name": "Acute Plantar Fasciitis"
      },
      "recommendation": "no_recommendation",
      "questions": [],
      "mtus-text": "No Recommendation. There is no recommendation for or against the use of iontophoresis with glucocorticosteroid or acetic acid for treatment of select patients with acute, subacute, or chronic plantar fasciitis. \n\nStrength of Evidence – No Recommendation, Insufficient Evidence (I)\n\nLevel of Confidence – Low"
    },
    {
      "source": "mtus",
      "diagnosis": {
        "index-name": "subacute-plantar-fasciitis",
        "label-name": "Subacute Plantar Fasciitis"
      },
      "recommendation": "no_recommendation",
      "questions": [],
      "mtus-text": "No Recommendation. There is no recommendation for or against the use of iontophoresis with glucocorticosteroid or acetic acid for treatment of select patients with acute, subacute, or chronic plantar fasciitis. \n\nStrength of Evidence – No Recommendation, Insufficient Evidence (I)\n\nLevel of Confidence – Low"
    },
    {
      "source": "mtus",
      "diagnosis": {
        "index-name": "chronic-plantar-fasciitis",
        "label-name": "Chronic Plantar Fasciitis"
      },
      "recommendation": "no_recommendation",
      "questions": [],
      "mtus-text": "No Recommendation. There is no recommendation for or against the use of iontophoresis with glucocorticosteroid or acetic acid for treatment of select patients with acute, subacute, or chronic plantar fasciitis. \n\nStrength of Evidence – No Recommendation, Insufficient Evidence (I)\n\nLevel of Confidence – Low"
    }
  ],
  "references": {
    "mtus-link": "https://app.mdguidelines.com/acoem-section/acoem%2Fdisorders%2Fankle-and-foot-disorders%2Fdiagnostic-and-treatment-recommendations%2Fachilles-tendinopathy%2Ftreatment-recommendations%2Fallied-health-interventions,https://app.mdguidelines.com/acoem-section/acoem%2Fdisorders%2Fankle-and-foot-disorders%2Fdiagnostic-and-treatment-recommendations%2Fplantar-heel-pain%2Ftreatment-recommendations%2Fallied-health-intervention",
    "odg-link": ""
  }
}