{
  "treatment": {
    "index-name": "low-dose-radiation-(radiotherapy)",
    "label-name": "Low-dose Radiation (Radiotherapy)",
    "treatment-type": "other"
  },
  "body-system": {
    "index-name": "ankle-and-foot-disorders",
    "label-name": "Ankle and Foot Disorders"
  },
  "version": {
    "mtus": "04/18/19",
    "odg": "",
    "policy-doc": "01/27/23",
    "created-by": "Cade",
    "comments": ""
  },
  "policies": [
    {
      "source": "mtus",
      "diagnosis": {
        "index-name": "chronic-plantar-heel-pain",
        "label-name": "Chronic Plantar Heel Pain"
      },
      "recommendation": "no_recommendation",
      "questions": [],
      "mtus-text": "No Recommendation. There is no recommendation for or against the use of radiation therapy for treatment of chronic plantar heel pain.\n\nStrength of Evidence – No Recommendation, Insufficient Evidence (I)\n\nLevel of Confidence – Low\n\nRationale: There are no quality placebo-controlled trials for radiation therapy. There is one moderate-quality trial comparing total radiation dose of 3.0 Gy vs. 6.0 Gy, which found no difference between the two groups.(276) (Heyd 07) The authors reported 87.7% of patients in both groups with improvement at 6 months, although nearly half had symptoms less than 6 months duration. A placebo-controlled protocol has been published with results pending until 2012 or later.(277) (Niewald 08) A prospective case series reported 77% success rates in 137 feet at 3 weeks and 24 months in patients with chronic plantar heel pain.(278) (Cavazos 09) Radiation therapy is non-invasive, has a potential adverse effect risk profile from radiation, and is moderately costly. Although potentially promising, further studies are needed, thus there is no recommendation for or against its use for treatment of chronic plantar heel pain."
    }
  ],
  "references": {
    "mtus-link": "https://app.mdguidelines.com/acoem-section/acoem%2Fdisorders%2Fankle-and-foot-disorders%2Fdiagnostic-and-treatment-recommendations%2Fplantar-heel-pain%2Ftreatment-recommendations%2Fallied-health-intervention",
    "odg-link": ""
  }
}