{
  "treatment": {
    "index-name": "manipulation-of-the-distal-lower-extremity",
    "label-name": "Manipulation of the Distal Lower Extremity",
    "treatment-type": "other"
  },
  "body-system": {
    "index-name": "ankle-and-foot-disorders",
    "label-name": "Ankle and Foot Disorders"
  },
  "version": {
    "mtus": "04/18/19",
    "odg": "",
    "policy-doc": "01/22/23",
    "created-by": "Cade",
    "comments": ""
  },
  "policies": [
    {
      "source": "mtus",
      "diagnosis": {
        "index-name": "tarsal-tunnel-syndrome-(tts)",
        "label-name": "Tarsal Tunnel Syndrome (TTS)"
      },
      "recommendation": "deny",
      "questions": [],
      "mtus-text": "Not Recommended. Manipulation and mobilization of the distal lower extremity is not recommended for the treatment of TTS.\n\nStrength of Evidence – Not Recommended, Insufficient Evidence (I)\n\nLevel of Confidence – High\n\nRationale: There are no quality studies of manipulation or mobilization of the lower extremity for the treatment of TTS. By inference from CTS, two quality studies suggested manipulation is ineffective for treatment of CTS.(366, 367) Manipulation is not invasive, is moderately costly, although it is unlikely to have adverse effects in the distal lower extremity. It is not recommended for treatment of TTS."
    },
    {
      "source": "mtus",
      "diagnosis": {
        "index-name": "morton’s-neuroma",
        "label-name": "Morton’s Neuroma"
      },
      "recommendation": "no_recommendation",
      "questions": [],
      "mtus-text": "No Recommendation. There is no recommendation for or against the use of manipulation or mobilization of the distal lower extremity for treatment of Morton’s Neuroma.\n\nStrength of Evidence – No Recommendation, Insufficient Evidence (I)\n\nLevel of Confidence – Low\n\nRationale: There are no sham-controlled, quality studies addressing efficacy of manipulation and mobilization for treatment of Morton’s neuroma and thus there is no recommendation."
    }
  ],
  "references": {
    "mtus-link": "https://app.mdguidelines.com/acoem-section/acoem%2Fdisorders%2Fankle-and-foot-disorders%2Fdiagnostic-and-treatment-recommendations%2Ftts%2Ftreatment-recommendations%2Fallied-health-interventions,https://app.mdguidelines.com/acoem-section/acoem%2Fdisorders%2Fankle-and-foot-disorders%2Fdiagnostic-and-treatment-recommendations%2Ffoot-neuroma%2Ftreatment-recommendations%2Fallied-health-interventions",
    "odg-link": ""
  }
}