{
  "treatment": {
    "index-name": "medical-treatment-(addressing-the-underlying-neuropathy)",
    "label-name": "Medical Treatment (Addressing the Underlying Neuropathy)",
    "treatment-type": "other"
  },
  "body-system": {
    "index-name": "ankle-and-foot-disorders",
    "label-name": "Ankle and Foot Disorders"
  },
  "version": {
    "mtus": "04/18/19",
    "odg": "",
    "policy-doc": "01/23/23",
    "created-by": "Cade",
    "comments": ""
  },
  "policies": [
    {
      "source": "mtus",
      "diagnosis": {
        "index-name": "charcot-joint-(neurogenic-arthropathy)",
        "label-name": "Charcot Joint (Neurogenic Arthropathy)"
      },
      "recommendation": "approve",
      "questions": [],
      "mtus-text": "Medical treatment includes addressing the underlying neuropathy to attempt to reduce systemic impacts and are Recommended (I), Level of Confidence – High."
    }
  ],
  "references": {
    "mtus-link": "https://app.mdguidelines.com/acoem-section/acoem%2Fdisorders%2Fankle-and-foot-disorders%2Fdiagnostic-and-treatment-recommendations%2Fcharcot-joint",
    "odg-link": ""
  }
}