{
  "treatment": {
    "index-name": "nsaids",
    "label-name": "NSAIDs",
    "treatment-type": "other"
  },
  "body-system": {
    "index-name": "ankle-and-foot-disorders",
    "label-name": "Ankle and Foot Disorders"
  },
  "version": {
    "mtus": "04/18/19",
    "odg": "",
    "policy-doc": "01/18/23",
    "created-by": "Cade",
    "comments": ""
  },
  "policies": [
    {
      "source": "mtus",
      "diagnosis": {
        "index-name": "acute-pain-from-achilles-tendon-rupture",
        "label-name": "Acute Pain from Achilles Tendon Rupture"
      },
      "recommendation": "approve",
      "questions": [],
      "mtus-text": "Recommended. NSAIDs are recommended for pain treatment of acute, subacute, chronic, or post-operative Achilles tendon rupture.\n\nStrength of Evidence – Recommended, Insufficient Evidence (I)\n\nLevel of Confidence – High\n\nIndications: Pain associated with acute, subacute, or chronic rupture, or for post-operative pain management.  \n\nFrequency/Dose/Duration: Frequency and dose per manufacturer’s recommendations. May be taken scheduled or as needed. There is no evidence one NSAID is superior to another for treatment of Achilles rupture.\n\nIndications for Discontinuation: Resolution, intolerance, adverse effects, lack of benefits, or failure to progress over a trial of a few weeks.\n\nRationale: There are no quality trials for treatment of these patients with NSAIDs or acetaminophen. However, these medications have evidence of efficacy for treatment of numerous musculoskeletal disorders (see, for example, ankle sprains section and Shoulder Disorders and Low Back Disorders guidelines). NSAIDs and acetaminophen are not invasive, have low adverse effects and are low cost. They are recommended for treatment of these patients (see Hip and Groin Disorders guideline for discussion of gastroprotective and cardiovascular issues)."
    },
    {
      "source": "mtus",
      "diagnosis": {
        "index-name": "subacute-pain-from-achilles-tendon-rupture",
        "label-name": "Subacute Pain from Achilles Tendon Rupture"
      },
      "recommendation": "approve",
      "questions": [],
      "mtus-text": "Recommended. NSAIDs are recommended for pain treatment of acute, subacute, chronic, or post-operative Achilles tendon rupture.\n\nStrength of Evidence – Recommended, Insufficient Evidence (I)\n\nLevel of Confidence – High\n\nIndications: Pain associated with acute, subacute, or chronic rupture, or for post-operative pain management.  \n\nFrequency/Dose/Duration: Frequency and dose per manufacturer’s recommendations. May be taken scheduled or as needed. There is no evidence one NSAID is superior to another for treatment of Achilles rupture.\n\nIndications for Discontinuation: Resolution, intolerance, adverse effects, lack of benefits, or failure to progress over a trial of a few weeks.\n\nRationale: There are no quality trials for treatment of these patients with NSAIDs or acetaminophen. However, these medications have evidence of efficacy for treatment of numerous musculoskeletal disorders (see, for example, ankle sprains section and Shoulder Disorders and Low Back Disorders guidelines). NSAIDs and acetaminophen are not invasive, have low adverse effects and are low cost. They are recommended for treatment of these patients (see Hip and Groin Disorders guideline for discussion of gastroprotective and cardiovascular issues)."
    },
    {
      "source": "mtus",
      "diagnosis": {
        "index-name": "chronic-pain-from-achilles-tendon-rupture",
        "label-name": "Chronic Pain from Achilles Tendon Rupture"
      },
      "recommendation": "approve",
      "questions": [],
      "mtus-text": "Recommended. NSAIDs are recommended for pain treatment of acute, subacute, chronic, or post-operative Achilles tendon rupture.\n\nStrength of Evidence – Recommended, Insufficient Evidence (I)\n\nLevel of Confidence – High\n\nIndications: Pain associated with acute, subacute, or chronic rupture, or for post-operative pain management.  \n\nFrequency/Dose/Duration: Frequency and dose per manufacturer’s recommendations. May be taken scheduled or as needed. There is no evidence one NSAID is superior to another for treatment of Achilles rupture.\n\nIndications for Discontinuation: Resolution, intolerance, adverse effects, lack of benefits, or failure to progress over a trial of a few weeks.\n\nRationale: There are no quality trials for treatment of these patients with NSAIDs or acetaminophen. However, these medications have evidence of efficacy for treatment of numerous musculoskeletal disorders (see, for example, ankle sprains section and Shoulder Disorders and Low Back Disorders guidelines). NSAIDs and acetaminophen are not invasive, have low adverse effects and are low cost. They are recommended for treatment of these patients (see Hip and Groin Disorders guideline for discussion of gastroprotective and cardiovascular issues)."
    },
    {
      "source": "mtus",
      "diagnosis": {
        "index-name": "acute-ankle-fracture-analgesia",
        "label-name": "Acute Ankle Fracture Analgesia"
      },
      "recommendation": "approve",
      "questions": [],
      "mtus-text": "Recommended. NSAIDs and acetaminophen are recommended for analgesia of pain associated with\n\nStrength of Evidence – Recommended, Insufficient Evidence (I)\n\nLevel of Confidence – High\n\nIndications: Pain due to ankle fracture.\n\nFrequency/Dose/Duration: Scheduled dosage rather than as needed is generally preferable.\n\nIndications for Discontinuation: Resolution of pain, lack of efficacy, development of adverse effects, particularly gastrointestinal effects.\n\nRationale: There is no quality evidence regarding the use of NSAIDs or acetaminophen to control pain associated with ankle fractures. However, these medications are thought to be effective for control of swelling and pain in the initial stages of injury, are not invasive, have low adverse effects, and are low cost, thus they are recommended. There is no quality evidence that selective COX-2 inhibiting NSAIDs have a negative effect on bone fracture union or functional recovery(703) as concerns of NSAIDs causing delayed recovery come from an early case report of indomethacin use.(704)"
    },
    {
      "source": "mtus",
      "diagnosis": {
        "index-name": "acute-achilles-tendinopathy-pain",
        "label-name": "Acute Achilles Tendinopathy Pain"
      },
      "recommendation": "1",
      "questions": [
        {
          "#": "1",
          "question": "Does the patient have pain and/or inflammation?",
          "option-list": [
            {
              "option": "yes",
              "action": "approve"
            },
            {
              "option": "no",
              "action": "deny"
            }
          ]
        }
      ],
      "mtus-text": "Recommended. NSAIDs are recommended for the treatment of acute, subacute, or chronic Achilles tendinopathy pain or post-operative pain or inflammation.\n\nStrength of Evidence (Acute) – Recommended, Evidence (C)\nStrength of Evidence (Subacute, Chronic, or Post Operative) – Recommended, Insufficient Evidence (I)\n\nLevel of Confidence – High\n\nIndications: Pain or inflammation associated with acute, subacute, or chronic Achilles tendinopathy, or post-operatively.       \n\nFrequency/Dose/Duration: Frequency and dose per manufacturer’s recommendations; may be taken scheduled or as needed. As not all NSAIDs have been shown effective for treatment of Achilles tendinopathy, if one NSAID is not effective within 10 days, consider another of a different sub-class (i.e. salicylates, indoleacetates, propionates, phenylacetates, enolates, naphthylalkanones) in its place.\n\nIndications for Discontinuation: Resolution, intolerance, adverse effects, lack of benefits, or failure to progress over a trial of 2 weeks.\n\nRationale: Acetaminophen is an analgesic and has no therapeutic effect. There is no quality evidence for or against the use of acetaminophen for the treatment of pain from acute and subacute Achilles tendinopathy. There is one low-quality study comparing the effect of paracetamol with ibuprofen for acute sports injuries, which showed ibuprofen to be superior, although the study had several methodological problems.(36) However, there is quality evidence that acetaminophen is superior to placebo for treatment of other musculoskeletal disorders, including low back pain, and has a very low adverse-effect profile. However, patients using acetaminophen should be screened for the absence of liver disease and liver-disease risk factors, advised about dosing, and warned of potential hepatotoxicity (see Chronic Pain guideline for acetaminophen use). Oral acetaminophen is recommended for short-term as it is not invasive, has a lack of adverse effects when used as directed, and is low cost.\n\nThere is one moderate-quality placebo-controlled study that showed improvement of pain and functional scores.(35, 37) This study considered multiple acute (less than 48-hours duration) soft-tissue disorders in young (mean age 20.5 years, range 19 to 25 years) military personnel. Of 212 subjects, 71 had Achilles tendinosis that was treated with piroxicam, tenoxicam, or placebo. The study duration was 10 days. The tenoxicam group, but not the piroxicam group, experienced significantly better improvement than the placebo group. As the results for six disorders, including Achilles tendinopathy, were pooled in one analysis,(37) only the analysis of the Achilles tendinopathy sub-population(35) (Jakobsen 89) applies to this section. There is one low-quality study comparing the effect of paracetamol with ibuprofen for acute sports injuries, which showed ibuprofen to be superior, although the study had several methodological problems.(36)\n\nA moderate-quality study of subacute and chronic Achilles tendinosis comparing piroxicam to placebo with both groups assigned stretching and strengthening exercises was negative.(31) (Astrom 92) In an additional study comparing indomethacin with injection of glycosaminoglycan,(38) (Sundqvist 87) the latter group fared significantly better than the former (NSAID) group; however, the study is not helpful for identification of efficacy of NSAIDs as there was no placebo control. There are no quality studies in post-operative patients; however, NSAIDs have been shown to be highly effective for several other post-operative conditions and thus are recommended (see Low Back Disorders; Hand, Wrist, and Forearm Disorders; and Hip and Groin Disorders guidelines).\n\nNSAIDs are not invasive, have low adverse effects particularly in employed populations, and are low cost, thus they are recommended. If NSAIDs are used to treat clinically evident or presumed inflammation, they should be administered on a scheduled basis. If NSAIDs are used for analgesia, they should be taken as needed."
    },
    {
      "source": "mtus",
      "diagnosis": {
        "index-name": "subacute-achilles-tendinopathy-pain",
        "label-name": "Subacute Achilles Tendinopathy Pain"
      },
      "recommendation": "1",
      "questions": [
        {
          "#": "1",
          "question": "Does the patient have pain and/or inflammation?",
          "option-list": [
            {
              "option": "yes",
              "action": "approve"
            },
            {
              "option": "no",
              "action": "deny"
            }
          ]
        }
      ],
      "mtus-text": "Recommended. NSAIDs are recommended for the treatment of acute, subacute, or chronic Achilles tendinopathy pain or post-operative pain or inflammation.\n\nStrength of Evidence (Acute) – Recommended, Evidence (C)\nStrength of Evidence (Subacute, Chronic, or Post Operative) – Recommended, Insufficient Evidence (I)\n\nLevel of Confidence – High\n\nIndications: Pain or inflammation associated with acute, subacute, or chronic Achilles tendinopathy, or post-operatively.       \n\nFrequency/Dose/Duration: Frequency and dose per manufacturer’s recommendations; may be taken scheduled or as needed. As not all NSAIDs have been shown effective for treatment of Achilles tendinopathy, if one NSAID is not effective within 10 days, consider another of a different sub-class (i.e. salicylates, indoleacetates, propionates, phenylacetates, enolates, naphthylalkanones) in its place.\n\nIndications for Discontinuation: Resolution, intolerance, adverse effects, lack of benefits, or failure to progress over a trial of 2 weeks.\n\nRationale: Acetaminophen is an analgesic and has no therapeutic effect. There is no quality evidence for or against the use of acetaminophen for the treatment of pain from acute and subacute Achilles tendinopathy. There is one low-quality study comparing the effect of paracetamol with ibuprofen for acute sports injuries, which showed ibuprofen to be superior, although the study had several methodological problems.(36) However, there is quality evidence that acetaminophen is superior to placebo for treatment of other musculoskeletal disorders, including low back pain, and has a very low adverse-effect profile. However, patients using acetaminophen should be screened for the absence of liver disease and liver-disease risk factors, advised about dosing, and warned of potential hepatotoxicity (see Chronic Pain guideline for acetaminophen use). Oral acetaminophen is recommended for short-term as it is not invasive, has a lack of adverse effects when used as directed, and is low cost.\n\nThere is one moderate-quality placebo-controlled study that showed improvement of pain and functional scores.(35, 37) This study considered multiple acute (less than 48-hours duration) soft-tissue disorders in young (mean age 20.5 years, range 19 to 25 years) military personnel. Of 212 subjects, 71 had Achilles tendinosis that was treated with piroxicam, tenoxicam, or placebo. The study duration was 10 days. The tenoxicam group, but not the piroxicam group, experienced significantly better improvement than the placebo group. As the results for six disorders, including Achilles tendinopathy, were pooled in one analysis,(37) only the analysis of the Achilles tendinopathy sub-population(35) (Jakobsen 89) applies to this section. There is one low-quality study comparing the effect of paracetamol with ibuprofen for acute sports injuries, which showed ibuprofen to be superior, although the study had several methodological problems.(36)\n\nA moderate-quality study of subacute and chronic Achilles tendinosis comparing piroxicam to placebo with both groups assigned stretching and strengthening exercises was negative.(31) (Astrom 92) In an additional study comparing indomethacin with injection of glycosaminoglycan,(38) (Sundqvist 87) the latter group fared significantly better than the former (NSAID) group; however, the study is not helpful for identification of efficacy of NSAIDs as there was no placebo control. There are no quality studies in post-operative patients; however, NSAIDs have been shown to be highly effective for several other post-operative conditions and thus are recommended (see Low Back Disorders; Hand, Wrist, and Forearm Disorders; and Hip and Groin Disorders guidelines).\n\nNSAIDs are not invasive, have low adverse effects particularly in employed populations, and are low cost, thus they are recommended. If NSAIDs are used to treat clinically evident or presumed inflammation, they should be administered on a scheduled basis. If NSAIDs are used for analgesia, they should be taken as needed."
    },
    {
      "source": "mtus",
      "diagnosis": {
        "index-name": "chronic-achilles-tendinopathy-pain",
        "label-name": "Chronic Achilles Tendinopathy Pain"
      },
      "recommendation": "1",
      "questions": [
        {
          "#": "1",
          "question": "Does the patient have pain and/or inflammation?",
          "option-list": [
            {
              "option": "yes",
              "action": "approve"
            },
            {
              "option": "no",
              "action": "deny"
            }
          ]
        }
      ],
      "mtus-text": "Recommended. NSAIDs are recommended for the treatment of acute, subacute, or chronic Achilles tendinopathy pain or post-operative pain or inflammation.\n\nStrength of Evidence (Acute) – Recommended, Evidence (C)\nStrength of Evidence (Subacute, Chronic, or Post Operative) – Recommended, Insufficient Evidence (I)\n\nLevel of Confidence – High\n\nIndications: Pain or inflammation associated with acute, subacute, or chronic Achilles tendinopathy, or post-operatively.       \n\nFrequency/Dose/Duration: Frequency and dose per manufacturer’s recommendations; may be taken scheduled or as needed. As not all NSAIDs have been shown effective for treatment of Achilles tendinopathy, if one NSAID is not effective within 10 days, consider another of a different sub-class (i.e. salicylates, indoleacetates, propionates, phenylacetates, enolates, naphthylalkanones) in its place.\n\nIndications for Discontinuation: Resolution, intolerance, adverse effects, lack of benefits, or failure to progress over a trial of 2 weeks.\n\nRationale: Acetaminophen is an analgesic and has no therapeutic effect. There is no quality evidence for or against the use of acetaminophen for the treatment of pain from acute and subacute Achilles tendinopathy. There is one low-quality study comparing the effect of paracetamol with ibuprofen for acute sports injuries, which showed ibuprofen to be superior, although the study had several methodological problems.(36) However, there is quality evidence that acetaminophen is superior to placebo for treatment of other musculoskeletal disorders, including low back pain, and has a very low adverse-effect profile. However, patients using acetaminophen should be screened for the absence of liver disease and liver-disease risk factors, advised about dosing, and warned of potential hepatotoxicity (see Chronic Pain guideline for acetaminophen use). Oral acetaminophen is recommended for short-term as it is not invasive, has a lack of adverse effects when used as directed, and is low cost.\n\nThere is one moderate-quality placebo-controlled study that showed improvement of pain and functional scores.(35, 37) This study considered multiple acute (less than 48-hours duration) soft-tissue disorders in young (mean age 20.5 years, range 19 to 25 years) military personnel. Of 212 subjects, 71 had Achilles tendinosis that was treated with piroxicam, tenoxicam, or placebo. The study duration was 10 days. The tenoxicam group, but not the piroxicam group, experienced significantly better improvement than the placebo group. As the results for six disorders, including Achilles tendinopathy, were pooled in one analysis,(37) only the analysis of the Achilles tendinopathy sub-population(35) (Jakobsen 89) applies to this section. There is one low-quality study comparing the effect of paracetamol with ibuprofen for acute sports injuries, which showed ibuprofen to be superior, although the study had several methodological problems.(36)\n\nA moderate-quality study of subacute and chronic Achilles tendinosis comparing piroxicam to placebo with both groups assigned stretching and strengthening exercises was negative.(31) (Astrom 92) In an additional study comparing indomethacin with injection of glycosaminoglycan,(38) (Sundqvist 87) the latter group fared significantly better than the former (NSAID) group; however, the study is not helpful for identification of efficacy of NSAIDs as there was no placebo control. There are no quality studies in post-operative patients; however, NSAIDs have been shown to be highly effective for several other post-operative conditions and thus are recommended (see Low Back Disorders; Hand, Wrist, and Forearm Disorders; and Hip and Groin Disorders guidelines).\n\nNSAIDs are not invasive, have low adverse effects particularly in employed populations, and are low cost, thus they are recommended. If NSAIDs are used to treat clinically evident or presumed inflammation, they should be administered on a scheduled basis. If NSAIDs are used for analgesia, they should be taken as needed."
    },
    {
      "source": "mtus",
      "diagnosis": {
        "index-name": "acute-ankle-sprain",
        "label-name": "Acute Ankle Sprain"
      },
      "recommendation": "approve",
      "questions": [],
      "mtus-text": "Recommended. NSAIDs are recommended for treatment of acute, subacute, chronic, or post-operative ankle sprain.\n\nStrength of Evidence (Acute) – Strongly Recommended, Evidence (A)\n\nStrength of Evidence (Subacute, Chronic, Post-Operative) – Recommended, Insufficient Evidence (I)\n\n Level of Confidence – High\n\nIndications: Pain associated with acute ankle sprain; also for subacute, chronic or post-operative management.\n\nFrequency/Dose/Duration: Frequency and dose according to manufacturer’s recommendations; may be taken scheduled or as needed. There is no evidence one NSAID is superior to another for treatment of ankle sprain. OTC agents may suffice and may be tried first. There is no evidence for prolonged use, as quality trials demonstrated the greatest benefit within the first 2 weeks.\n\nIndications for Discontinuation: Resolution, intolerance, adverse effects, lack of benefits, or failure to progress over a trial of a few weeks.\n\nRationale: Acetaminophen is an analgesic with no significant anti-inflammatory effect. There are no quality placebo-controlled trials that address acetaminophen for ankle sprain. There is one high-quality trial that demonstrated equal efficacy of acetaminophen with over-the-counter (OTC) strength ibuprofen,(441) and two moderate-quality trials that found paracetemol equivalent to diclofenac 75mg twice daily for acute mild and moderate ankle sprains.(442) There is quality evidence that NSAIDs are effective (see NSAIDs). There is also quality evidence that acetaminophen is superior to placebo for treatment of other musculoskeletal disorders, including low back pain, and has a low adverse effect profile (see Chronic Pain guideline for discussion of acetaminophen).\n\nThere are two high-quality(443, 444) and six moderate-quality placebo-controlled randomized trials(445-450) evaluating the use of NSAIDs in the treatment of acute ankle sprain. NSAIDs were demonstrated to improve function, pain scores with movement, and/or subjective patient global assessment over placebo in all of these studies except one,(449) which only studied the change in swelling as an outcome measure. NSAIDs demonstrated to be more effective than placebo include valdecoxib,(443) piroxicam,(444, 447) celecoxib,(445) diclofenac,(447, 450) nimesulide,(448) and ibuprofen.(445, 446, 450)\n\nFour moderate-quality trials utilized reduction in swelling as an outcome measure. Three studies did not demonstrate any reduction in swelling compared with placebo.(447-449) One study did find benefit as measured on a soft tissue swelling index for immediate versus delayed treatment with ibuprofen.(446) Thus, there is insufficient evidence to support the use of NSAIDs to treat swelling in acute ankle sprains.\n\nThere is no evidence of the superiority of one NSAID over another for any of the outcomes of analgesia, function, or swelling. There were no differences between celecoxib versus naprosyn(451) or diclofenac,(452) diclofenac versus aspirin,(453) oxyphenbutazone versus diflunisal(454) or clonixin,(455) diflunisal versus flurbiprofen,(456) sulindac versus ibuprofen,(457) or modified dosing schedule of ibuprofen.(458) There were no quality studies that compared placebo to OTC-strength NSAIDS. There are no quality studies in post-operative patients, however, NSAIDs have been shown to be highly effective for several other post-operative conditions and thus are recommended (see Low Back Disorders, Hand, Wrist, and Forearm Disorders, and Hip and Groin Disorders Guidelines). NSAIDs are not invasive, have low adverse effects particularly in employed populations, and are low cost, thus they are recommended. If NSAIDs are used to treat clinically evident or presumed inflammation, they should be administered on a scheduled basis. If NSAIDs are used for analgesia, they should be taken as needed."
    },
    {
      "source": "mtus",
      "diagnosis": {
        "index-name": "subacute-ankle-sprain",
        "label-name": "Subacute Ankle Sprain"
      },
      "recommendation": "approve",
      "questions": [],
      "mtus-text": "Recommended. NSAIDs are recommended for treatment of acute, subacute, chronic, or post-operative ankle sprain.\n\nStrength of Evidence (Acute) – Strongly Recommended, Evidence (A)\n\nStrength of Evidence (Subacute, Chronic, Post-Operative) – Recommended, Insufficient Evidence (I)\n\n Level of Confidence – High\n\nIndications: Pain associated with acute ankle sprain; also for subacute, chronic or post-operative management.\n\nFrequency/Dose/Duration: Frequency and dose according to manufacturer’s recommendations; may be taken scheduled or as needed. There is no evidence one NSAID is superior to another for treatment of ankle sprain. OTC agents may suffice and may be tried first. There is no evidence for prolonged use, as quality trials demonstrated the greatest benefit within the first 2 weeks.\n\nIndications for Discontinuation: Resolution, intolerance, adverse effects, lack of benefits, or failure to progress over a trial of a few weeks.\n\nRationale: Acetaminophen is an analgesic with no significant anti-inflammatory effect. There are no quality placebo-controlled trials that address acetaminophen for ankle sprain. There is one high-quality trial that demonstrated equal efficacy of acetaminophen with over-the-counter (OTC) strength ibuprofen,(441) and two moderate-quality trials that found paracetemol equivalent to diclofenac 75mg twice daily for acute mild and moderate ankle sprains.(442) There is quality evidence that NSAIDs are effective (see NSAIDs). There is also quality evidence that acetaminophen is superior to placebo for treatment of other musculoskeletal disorders, including low back pain, and has a low adverse effect profile (see Chronic Pain guideline for discussion of acetaminophen).\n\nThere are two high-quality(443, 444) and six moderate-quality placebo-controlled randomized trials(445-450) evaluating the use of NSAIDs in the treatment of acute ankle sprain. NSAIDs were demonstrated to improve function, pain scores with movement, and/or subjective patient global assessment over placebo in all of these studies except one,(449) which only studied the change in swelling as an outcome measure. NSAIDs demonstrated to be more effective than placebo include valdecoxib,(443) piroxicam,(444, 447) celecoxib,(445) diclofenac,(447, 450) nimesulide,(448) and ibuprofen.(445, 446, 450)\n\nFour moderate-quality trials utilized reduction in swelling as an outcome measure. Three studies did not demonstrate any reduction in swelling compared with placebo.(447-449) One study did find benefit as measured on a soft tissue swelling index for immediate versus delayed treatment with ibuprofen.(446) Thus, there is insufficient evidence to support the use of NSAIDs to treat swelling in acute ankle sprains.\n\nThere is no evidence of the superiority of one NSAID over another for any of the outcomes of analgesia, function, or swelling. There were no differences between celecoxib versus naprosyn(451) or diclofenac,(452) diclofenac versus aspirin,(453) oxyphenbutazone versus diflunisal(454) or clonixin,(455) diflunisal versus flurbiprofen,(456) sulindac versus ibuprofen,(457) or modified dosing schedule of ibuprofen.(458) There were no quality studies that compared placebo to OTC-strength NSAIDS. There are no quality studies in post-operative patients, however, NSAIDs have been shown to be highly effective for several other post-operative conditions and thus are recommended (see Low Back Disorders, Hand, Wrist, and Forearm Disorders, and Hip and Groin Disorders Guidelines). NSAIDs are not invasive, have low adverse effects particularly in employed populations, and are low cost, thus they are recommended. If NSAIDs are used to treat clinically evident or presumed inflammation, they should be administered on a scheduled basis. If NSAIDs are used for analgesia, they should be taken as needed."
    },
    {
      "source": "mtus",
      "diagnosis": {
        "index-name": "chronic-ankle-sprain",
        "label-name": "Chronic Ankle Sprain"
      },
      "recommendation": "approve",
      "questions": [],
      "mtus-text": "Recommended. NSAIDs are recommended for treatment of acute, subacute, chronic, or post-operative ankle sprain.\n\nStrength of Evidence (Acute) – Strongly Recommended, Evidence (A)\n\nStrength of Evidence (Subacute, Chronic, Post-Operative) – Recommended, Insufficient Evidence (I)\n\n Level of Confidence – High\n\nIndications: Pain associated with acute ankle sprain; also for subacute, chronic or post-operative management.\n\nFrequency/Dose/Duration: Frequency and dose according to manufacturer’s recommendations; may be taken scheduled or as needed. There is no evidence one NSAID is superior to another for treatment of ankle sprain. OTC agents may suffice and may be tried first. There is no evidence for prolonged use, as quality trials demonstrated the greatest benefit within the first 2 weeks.\n\nIndications for Discontinuation: Resolution, intolerance, adverse effects, lack of benefits, or failure to progress over a trial of a few weeks.\n\nRationale: Acetaminophen is an analgesic with no significant anti-inflammatory effect. There are no quality placebo-controlled trials that address acetaminophen for ankle sprain. There is one high-quality trial that demonstrated equal efficacy of acetaminophen with over-the-counter (OTC) strength ibuprofen,(441) and two moderate-quality trials that found paracetemol equivalent to diclofenac 75mg twice daily for acute mild and moderate ankle sprains.(442) There is quality evidence that NSAIDs are effective (see NSAIDs). There is also quality evidence that acetaminophen is superior to placebo for treatment of other musculoskeletal disorders, including low back pain, and has a low adverse effect profile (see Chronic Pain guideline for discussion of acetaminophen).\n\nThere are two high-quality(443, 444) and six moderate-quality placebo-controlled randomized trials(445-450) evaluating the use of NSAIDs in the treatment of acute ankle sprain. NSAIDs were demonstrated to improve function, pain scores with movement, and/or subjective patient global assessment over placebo in all of these studies except one,(449) which only studied the change in swelling as an outcome measure. NSAIDs demonstrated to be more effective than placebo include valdecoxib,(443) piroxicam,(444, 447) celecoxib,(445) diclofenac,(447, 450) nimesulide,(448) and ibuprofen.(445, 446, 450)\n\nFour moderate-quality trials utilized reduction in swelling as an outcome measure. Three studies did not demonstrate any reduction in swelling compared with placebo.(447-449) One study did find benefit as measured on a soft tissue swelling index for immediate versus delayed treatment with ibuprofen.(446) Thus, there is insufficient evidence to support the use of NSAIDs to treat swelling in acute ankle sprains.\n\nThere is no evidence of the superiority of one NSAID over another for any of the outcomes of analgesia, function, or swelling. There were no differences between celecoxib versus naprosyn(451) or diclofenac,(452) diclofenac versus aspirin,(453) oxyphenbutazone versus diflunisal(454) or clonixin,(455) diflunisal versus flurbiprofen,(456) sulindac versus ibuprofen,(457) or modified dosing schedule of ibuprofen.(458) There were no quality studies that compared placebo to OTC-strength NSAIDS. There are no quality studies in post-operative patients, however, NSAIDs have been shown to be highly effective for several other post-operative conditions and thus are recommended (see Low Back Disorders, Hand, Wrist, and Forearm Disorders, and Hip and Groin Disorders Guidelines). NSAIDs are not invasive, have low adverse effects particularly in employed populations, and are low cost, thus they are recommended. If NSAIDs are used to treat clinically evident or presumed inflammation, they should be administered on a scheduled basis. If NSAIDs are used for analgesia, they should be taken as needed."
    },
    {
      "source": "mtus",
      "diagnosis": {
        "index-name": "acute-plantar-fasciitis-pain",
        "label-name": "Acute Plantar Fasciitis Pain"
      },
      "recommendation": "approve",
      "questions": [],
      "mtus-text": "Recommended. NSAIDs and acetaminophen are recommended for acute, subacute, chronic, or post-operative plantar fasciitis pain.\n\nStrength of Evidence – Recommended, Insufficient Evidence (I)\n\nLevel of Confidence – High\n\nIndications: Pain associated with acute, subacute, chronic, or post-operative plantar fasciitis.\n\nFrequency/Dose/Duration: Frequency and dose per manufacturer’s recommendations; may be taken scheduled or as needed. There is no evidence one NSAID is superior to another for treatment of plantar fasciitis or for other musculoskeletal disorders.\n\nIndications for Discontinuation: Resolution, intolerance, adverse effects, lack of benefits, or failure to progress over a trial of a few weeks.\n\nRationale: Acetaminophen is an analgesic and has no substantial anti-inflammatory effect. There is no quality evidence for or against the use of acetaminophen for the treatment of acute or subacute plantar fasciitis. There is one low-quality study comparing the effect of paracetamol with ibuprofen for acute sports injuries, which showed ibuprofen to be superior, although the study had several methodological problems.(36) However, there is quality evidence that acetaminophen is modestly superior to placebo for treatment of other musculoskeletal disorders, including low back pain, and has a low adverse effect profile (see Chronic Pain guideline for discussion of acetaminophen use). Acetaminophen is not invasive, has low adverse effects, and is low cost, thus by analogy with other musculoskeletal disorders, it is recommended.\n\nThere are no quality trials of NSAID use specific for plantar fasciitis or for treatment of post-operative patients. A low-quality trial concluded Celecoxib may provide modest benefit over placebo, although the sample size was small and lacked methodological details.(201) However, NSAIDs have been shown to be highly effective for several other musculoskeletal disorders and post-operative conditions. NSAIDs are not invasive, have low adverse effects particularly in employed populations, and are low cost, thus they are recommended."
    },
    {
      "source": "mtus",
      "diagnosis": {
        "index-name": "subacute-plantar-fasciitis-pain",
        "label-name": "Subacute Plantar Fasciitis Pain"
      },
      "recommendation": "approve",
      "questions": [],
      "mtus-text": "Recommended. NSAIDs and acetaminophen are recommended for acute, subacute, chronic, or post-operative plantar fasciitis pain.\n\nStrength of Evidence – Recommended, Insufficient Evidence (I)\n\nLevel of Confidence – High\n\nIndications: Pain associated with acute, subacute, chronic, or post-operative plantar fasciitis.\n\nFrequency/Dose/Duration: Frequency and dose per manufacturer’s recommendations; may be taken scheduled or as needed. There is no evidence one NSAID is superior to another for treatment of plantar fasciitis or for other musculoskeletal disorders.\n\nIndications for Discontinuation: Resolution, intolerance, adverse effects, lack of benefits, or failure to progress over a trial of a few weeks.\n\nRationale: Acetaminophen is an analgesic and has no substantial anti-inflammatory effect. There is no quality evidence for or against the use of acetaminophen for the treatment of acute or subacute plantar fasciitis. There is one low-quality study comparing the effect of paracetamol with ibuprofen for acute sports injuries, which showed ibuprofen to be superior, although the study had several methodological problems.(36) However, there is quality evidence that acetaminophen is modestly superior to placebo for treatment of other musculoskeletal disorders, including low back pain, and has a low adverse effect profile (see Chronic Pain guideline for discussion of acetaminophen use). Acetaminophen is not invasive, has low adverse effects, and is low cost, thus by analogy with other musculoskeletal disorders, it is recommended.\n\nThere are no quality trials of NSAID use specific for plantar fasciitis or for treatment of post-operative patients. A low-quality trial concluded Celecoxib may provide modest benefit over placebo, although the sample size was small and lacked methodological details.(201) However, NSAIDs have been shown to be highly effective for several other musculoskeletal disorders and post-operative conditions. NSAIDs are not invasive, have low adverse effects particularly in employed populations, and are low cost, thus they are recommended."
    },
    {
      "source": "mtus",
      "diagnosis": {
        "index-name": "chronic-plantar-fasciitis-pain",
        "label-name": "Chronic Plantar Fasciitis Pain"
      },
      "recommendation": "approve",
      "questions": [],
      "mtus-text": "Recommended. NSAIDs and acetaminophen are recommended for acute, subacute, chronic, or post-operative plantar fasciitis pain.\n\nStrength of Evidence – Recommended, Insufficient Evidence (I)\n\nLevel of Confidence – High\n\nIndications: Pain associated with acute, subacute, chronic, or post-operative plantar fasciitis.\n\nFrequency/Dose/Duration: Frequency and dose per manufacturer’s recommendations; may be taken scheduled or as needed. There is no evidence one NSAID is superior to another for treatment of plantar fasciitis or for other musculoskeletal disorders.\n\nIndications for Discontinuation: Resolution, intolerance, adverse effects, lack of benefits, or failure to progress over a trial of a few weeks.\n\nRationale: Acetaminophen is an analgesic and has no substantial anti-inflammatory effect. There is no quality evidence for or against the use of acetaminophen for the treatment of acute or subacute plantar fasciitis. There is one low-quality study comparing the effect of paracetamol with ibuprofen for acute sports injuries, which showed ibuprofen to be superior, although the study had several methodological problems.(36) However, there is quality evidence that acetaminophen is modestly superior to placebo for treatment of other musculoskeletal disorders, including low back pain, and has a low adverse effect profile (see Chronic Pain guideline for discussion of acetaminophen use). Acetaminophen is not invasive, has low adverse effects, and is low cost, thus by analogy with other musculoskeletal disorders, it is recommended.\n\nThere are no quality trials of NSAID use specific for plantar fasciitis or for treatment of post-operative patients. A low-quality trial concluded Celecoxib may provide modest benefit over placebo, although the sample size was small and lacked methodological details.(201) However, NSAIDs have been shown to be highly effective for several other musculoskeletal disorders and post-operative conditions. NSAIDs are not invasive, have low adverse effects particularly in employed populations, and are low cost, thus they are recommended."
    },
    {
      "source": "mtus",
      "diagnosis": {
        "index-name": "acute-paronychia",
        "label-name": "Acute Paronychia"
      },
      "recommendation": "approve",
      "questions": [],
      "mtus-text": "Pain management is generally not needed, but NSAIDs or acetaminophen may be used and are Recommended, Insufficient Evidence (I)."
    },
    {
      "source": "mtus",
      "diagnosis": {
        "index-name": "charcot-joint-(neurogenic-arthropathy)",
        "label-name": "Charcot Joint (Neurogenic Arthropathy)"
      },
      "recommendation": "approve",
      "questions": [],
      "mtus-text": "Acetaminophen and/or NSAIDs for pain control are often not needed due to the propensity for the joint to be denervated, but if needed are Recommended, Insufficient Evidence (I), Level of Confidence – Low (see Chronic Pain guideline for other neuropathic pain medication options)."
    },
    {
      "source": "mtus",
      "diagnosis": {
        "index-name": "phalangeal-fracture",
        "label-name": "Phalangeal Fracture"
      },
      "recommendation": "approve",
      "questions": [],
      "mtus-text": "Recommended. NSAIDs or acetaminophen are recommended to control pain from phalangeal or metatarsal fractures.\n\nStrength of Evidence – Recommended, Insufficient Evidence (I)\n\nLevel of Confidence – High\n\nIndications: Pain due to phalangeal or metatarsal fracture.\n\nFrequency/Dose/Duration: Scheduled dosage rather than as needed is generally preferable.\n\nIndications for Discontinuation: Resolution of pain, lack of efficacy, development of adverse effects particularly gastrointestinal.\n\nRationale: While there is no quality evidence, these medications are thought to be effective for control of swelling (NSAIDs) and pain in the initial stages of injury, are not invasive, have low adverse effects, are low cost, and thus are recommended. While there have been some concerns regarding delayed fracture healing, other studies have suggested no delayed bone healing (see Ankle Fractures). These concerns appear outweighed by pain management concerns."
    },
    {
      "source": "mtus",
      "diagnosis": {
        "index-name": "metatarsal-fracture",
        "label-name": "Metatarsal Fracture"
      },
      "recommendation": "approve",
      "questions": [],
      "mtus-text": "Recommended. NSAIDs or acetaminophen are recommended to control pain from phalangeal or metatarsal fractures.\n\nStrength of Evidence – Recommended, Insufficient Evidence (I)\n\nLevel of Confidence – High\n\nIndications: Pain due to phalangeal or metatarsal fracture.\n\nFrequency/Dose/Duration: Scheduled dosage rather than as needed is generally preferable.\n\nIndications for Discontinuation: Resolution of pain, lack of efficacy, development of adverse effects particularly gastrointestinal.\n\nRationale: While there is no quality evidence, these medications are thought to be effective for control of swelling (NSAIDs) and pain in the initial stages of injury, are not invasive, have low adverse effects, are low cost, and thus are recommended. While there have been some concerns regarding delayed fracture healing, other studies have suggested no delayed bone healing (see Ankle Fractures). These concerns appear outweighed by pain management concerns."
    }
  ],
  "references": {
    "mtus-link": "https://app.mdguidelines.com/acoem-section/acoem%2Fdisorders%2Fankle-and-foot-disorders%2Fdiagnostic-and-treatment-recommendations%2Fachilles-tendon-rupture%2Ftreatment-recommendations%2Fmedications,https://app.mdguidelines.com/acoem-section/acoem%2Fdisorders%2Fankle-and-foot-disorders%2Fdiagnostic-and-treatment-recommendations%2Fankle-and-foot-fractures%2Ftreatment-recommendations%2Fmedications,https://app.mdguidelines.com/acoem-section/acoem%2Fdisorders%2Fankle-and-foot-disorders%2Fdiagnostic-and-treatment-recommendations%2Fachilles-tendinopathy%2Ftreatment-recommendations%2Fmedications,https://app.mdguidelines.com/acoem-section/acoem%2Fdisorders%2Fankle-and-foot-disorders%2Fdiagnostic-and-treatment-recommendations%2Fankle-sprain%2Ftreatment-recommendations%2Fmedications,https://app.mdguidelines.com/acoem-section/acoem%2Fdisorders%2Fankle-and-foot-disorders%2Fdiagnostic-and-treatment-recommendations%2Fplantar-heel-pain%2Ftreatment-recommendations%2Fmedications,https://app.mdguidelines.com/acoem-section/acoem%2Fdisorders%2Fankle-and-foot-disorders%2Fdiagnostic-and-treatment-recommendations%2Fparonychia,https://app.mdguidelines.com/acoem-section/acoem%2Fdisorders%2Fankle-and-foot-disorders%2Fdiagnostic-and-treatment-recommendations%2Fcharcot-joint,https://app.mdguidelines.com/acoem-section/acoem%2Fdisorders%2Fankle-and-foot-disorders%2Fdiagnostic-and-treatment-recommendations%2Fforefoot-and-midfoot-fractures%2Ftreatment-recommendations%2Fmedications",
    "odg-link": ""
  }
}