{
  "treatment": {
    "index-name": "platelet-rich-plasma-injections",
    "label-name": "Platelet Rich Plasma Injections",
    "treatment-type": "other"
  },
  "body-system": {
    "index-name": "ankle-and-foot-disorders",
    "label-name": "Ankle and Foot Disorders"
  },
  "version": {
    "mtus": "04/18/19",
    "odg": "",
    "policy-doc": "01/21/23",
    "created-by": "Cade",
    "comments": ""
  },
  "policies": [
    {
      "source": "mtus",
      "diagnosis": {
        "index-name": "achilles-tendinopathy",
        "label-name": "Achilles Tendinopathy"
      },
      "recommendation": "deny",
      "questions": [],
      "mtus-text": "Moderately Not Recommended. Platelet-rich plasma injections are moderately not recommended for treatment of Achilles tendinopathy.\n\nStrength of Evidence – Moderately Not Recommended, Evidence (B)\n\nLevel of Confidence – Moderate\n\nRationale: There is one high-quality trial for Achilles tendinopathy injections and it failed to demonstrate evidence of efficacy. (de Vois 10) This procedure is invasive, has low adverse effects, is high cost, but with lack of efficacy is not recommended. As there is only one published clinical trial, this recommendation could change based on additional quality evidence, particularly as there may be some evidence of potential efficacy for some other tendinopathies (see Elbow Disorders and Knee Disorders guidelines)."
    },
    {
      "source": "mtus",
      "diagnosis": {
        "index-name": "acute-ankle-sprain",
        "label-name": "Acute Ankle Sprain"
      },
      "recommendation": "no_recommendation",
      "questions": [],
      "mtus-text": "No Recommendation. There is no recommendation for or against the use of platelet rich plasma injection for the treatment of acute, subacute, or chronic ankle sprains.\n\nStrength of Evidence – No Recommendation, Insuffcient Evidence (I)\n\nLevel of Confidence – Low\n\nRationale: There are no quality trials for ankle sprain platelet rich plasma (PRP) injection. This intervention consists of obtaining 30 to 60cc of autologous blood, centrifuging, and injecting 3 to 6cc of PRP. This procedure reportedly is low risk for adverse effects, moderately costly, and may require repeat injection. The clinical efficacy is currently undefined. Therefore, there is no recommendation for or against the use of PRP injection for ankle sprain."
    },
    {
      "source": "mtus",
      "diagnosis": {
        "index-name": "subacute-ankle-sprain",
        "label-name": "Subacute Ankle Sprain"
      },
      "recommendation": "no_recommendation",
      "questions": [],
      "mtus-text": "No Recommendation. There is no recommendation for or against the use of platelet rich plasma injection for the treatment of acute, subacute, or chronic ankle sprains.\n\nStrength of Evidence – No Recommendation, Insuffcient Evidence (I)\n\nLevel of Confidence – Low\n\nRationale: There are no quality trials for ankle sprain platelet rich plasma (PRP) injection. This intervention consists of obtaining 30 to 60cc of autologous blood, centrifuging, and injecting 3 to 6cc of PRP. This procedure reportedly is low risk for adverse effects, moderately costly, and may require repeat injection. The clinical efficacy is currently undefined. Therefore, there is no recommendation for or against the use of PRP injection for ankle sprain."
    },
    {
      "source": "mtus",
      "diagnosis": {
        "index-name": "chronic-ankle-sprain",
        "label-name": "Chronic Ankle Sprain"
      },
      "recommendation": "no_recommendation",
      "questions": [],
      "mtus-text": "No Recommendation. There is no recommendation for or against the use of platelet rich plasma injection for the treatment of acute, subacute, or chronic ankle sprains.\n\nStrength of Evidence – No Recommendation, Insuffcient Evidence (I)\n\nLevel of Confidence – Low\n\nRationale: There are no quality trials for ankle sprain platelet rich plasma (PRP) injection. This intervention consists of obtaining 30 to 60cc of autologous blood, centrifuging, and injecting 3 to 6cc of PRP. This procedure reportedly is low risk for adverse effects, moderately costly, and may require repeat injection. The clinical efficacy is currently undefined. Therefore, there is no recommendation for or against the use of PRP injection for ankle sprain."
    },
    {
      "source": "mtus",
      "diagnosis": {
        "index-name": "acute-plantar-fasciitis",
        "label-name": "Acute Plantar Fasciitis"
      },
      "recommendation": "no_recommendation",
      "questions": [],
      "mtus-text": "No Recommendation. There is no recommendation for or against the use of platelet rich plasma injections for treatment of plantar fasciitis.\n\nStrength of Evidence – No Recommendation, Insufficient Evidence (I)\n\nLevel of Confidence – Low\n\nRationale: There are no quality trials for plantar fascia platelet rich plasma (PRP) injection. This intervention consists of obtaining 30 to 60mL of autologous blood, centrifuging, and injecting 3 to 6mL of PRP under ultrasound guidance.(308) (Sampson 08) This procedure reportedly is low risk of adverse effects, is moderately costly, and may require repeat injection. There is a case series report suggesting therapeutic efficacy, which suggests future trials of this intervention are indicated. (A case series report of 9 patients with chronic plantar fasciitis treated with sonographically guided injections of platelet rich plasma demonstrated good or excellent relief at 2 months with continued relief at 12 months.(309)) (Barrett 04) However, the clinical efficacy is currently undefined. Therefore, there is no recommendation for or against the use of platelet rich plasma injection into the plantar fascia."
    },
    {
      "source": "mtus",
      "diagnosis": {
        "index-name": "subacute-plantar-fasciitis",
        "label-name": "Subacute Plantar Fasciitis"
      },
      "recommendation": "no_recommendation",
      "questions": [],
      "mtus-text": "No Recommendation. There is no recommendation for or against the use of platelet rich plasma injections for treatment of plantar fasciitis.\n\nStrength of Evidence – No Recommendation, Insufficient Evidence (I)\n\nLevel of Confidence – Low\n\nRationale: There are no quality trials for plantar fascia platelet rich plasma (PRP) injection. This intervention consists of obtaining 30 to 60mL of autologous blood, centrifuging, and injecting 3 to 6mL of PRP under ultrasound guidance.(308) (Sampson 08) This procedure reportedly is low risk of adverse effects, is moderately costly, and may require repeat injection. There is a case series report suggesting therapeutic efficacy, which suggests future trials of this intervention are indicated. (A case series report of 9 patients with chronic plantar fasciitis treated with sonographically guided injections of platelet rich plasma demonstrated good or excellent relief at 2 months with continued relief at 12 months.(309)) (Barrett 04) However, the clinical efficacy is currently undefined. Therefore, there is no recommendation for or against the use of platelet rich plasma injection into the plantar fascia."
    },
    {
      "source": "mtus",
      "diagnosis": {
        "index-name": "chronic-plantar-fasciitis",
        "label-name": "Chronic Plantar Fasciitis"
      },
      "recommendation": "no_recommendation",
      "questions": [],
      "mtus-text": "No Recommendation. There is no recommendation for or against the use of platelet rich plasma injections for treatment of plantar fasciitis.\n\nStrength of Evidence – No Recommendation, Insufficient Evidence (I)\n\nLevel of Confidence – Low\n\nRationale: There are no quality trials for plantar fascia platelet rich plasma (PRP) injection. This intervention consists of obtaining 30 to 60mL of autologous blood, centrifuging, and injecting 3 to 6mL of PRP under ultrasound guidance.(308) (Sampson 08) This procedure reportedly is low risk of adverse effects, is moderately costly, and may require repeat injection. There is a case series report suggesting therapeutic efficacy, which suggests future trials of this intervention are indicated. (A case series report of 9 patients with chronic plantar fasciitis treated with sonographically guided injections of platelet rich plasma demonstrated good or excellent relief at 2 months with continued relief at 12 months.(309)) (Barrett 04) However, the clinical efficacy is currently undefined. Therefore, there is no recommendation for or against the use of platelet rich plasma injection into the plantar fascia."
    }
  ],
  "references": {
    "mtus-link": "https://app.mdguidelines.com/acoem-section/acoem%2Fdisorders%2Fankle-and-foot-disorders%2Fdiagnostic-and-treatment-recommendations%2Fachilles-tendinopathy%2Ftreatment-recommendations%2Finjection-therapies,https://app.mdguidelines.com/acoem-section/acoem%2Fdisorders%2Fankle-and-foot-disorders%2Fdiagnostic-and-treatment-recommendations%2Fankle-sprain%2Ftreatment-recommendations%2Finjection-therapies,https://app.mdguidelines.com/acoem-section/acoem%2Fdisorders%2Fankle-and-foot-disorders%2Fdiagnostic-and-treatment-recommendations%2Fplantar-heel-pain%2Ftreatment-recommendations%2Finjection-therapies",
    "odg-link": ""
  }
}