{
  "treatment": {
    "index-name": "pneumatic-compression-device",
    "label-name": "Pneumatic Compression Device",
    "treatment-type": "other"
  },
  "body-system": {
    "index-name": "ankle-and-foot-disorders",
    "label-name": "Ankle and Foot Disorders"
  },
  "version": {
    "mtus": "04/18/19",
    "odg": "",
    "policy-doc": "01/20/23",
    "created-by": "Cade",
    "comments": ""
  },
  "policies": [
    {
      "source": "mtus",
      "diagnosis": {
        "index-name": "calcaneus-fracture",
        "label-name": "Calcaneus Fracture"
      },
      "recommendation": "1",
      "questions": [
        {
          "#": "1",
          "question": "Does the patient have excessive swelling and is this being used to reduce other complications?",
          "option-list": [
            {
              "option": "yes",
              "action": "approve"
            },
            {
              "option": "no",
              "action": "deny"
            }
          ]
        }
      ],
      "mtus-text": "Recommended. Use of pneumatic compression of foot to reduce swelling is recommended for patients with significant edema after closed calcaneus fractures.\n\nStrength of Evidence – Recommended, Evidence (C)\n\nLevel of Confidence – Low\n\nIndications: Patients with excessive swelling after closed displaced calcaneus fractures who are surgical candidates. Use in non-operative patients to reduce risk of other complications.\n\nFrequency/Dose/Duration: Pedal compression device used continuously until swelling subsides sufficiently to allow for surgery or to manage non-operatively.(816)\n\nIndications for Discontinuation: Achievement of desired swelling reduction, intolerance because of pain or discomfort.\n\nRationale: There is one moderate-quality trial comparing intermittent pneumatic pedal compression device after closed displaced calcaneus fractures compared to compression dressing and elevation.(816) Compared to baseline, volumetric decrease was significantly greater in the pedal pneumatic compression group (p = 0.02). Faster resolution of pre-operative swelling allows earlier surgery and may reduce risk of developing fracture blister, but quality evidence is lacking for improvement of functional outcomes. There is a retrospective study of intermittent pneumatic compression for calcaneus fracture patients that reported decreased swelling and compartment pressures associated with calcaneus fractures.(821) Thus, pneumatic compression for edema management is recommended for management of acute calcaneus fracture management in select patients. There is no definition of significant edema found in the quality trials. Clinical judgement is therefore warranted."
    }
  ],
  "references": {
    "mtus-link": "https://app.mdguidelines.com/acoem-section/acoem%2Fdisorders%2Fankle-and-foot-disorders%2Fdiagnostic-and-treatment-recommendations%2Fhindfoot-fractures%2Ftreatment-recommendations%2Fcalcaneus-injuries",
    "odg-link": ""
  }
}