{
  "treatment": {
    "index-name": "prolotherapy-injections",
    "label-name": "Prolotherapy Injections",
    "treatment-type": "other"
  },
  "body-system": {
    "index-name": "ankle-and-foot-disorders",
    "label-name": "Ankle and Foot Disorders"
  },
  "version": {
    "mtus": "04/18/19",
    "odg": "",
    "policy-doc": "01/21/23",
    "created-by": "Cade",
    "comments": ""
  },
  "policies": [
    {
      "source": "mtus",
      "diagnosis": {
        "index-name": "chronic-achilles-tendinopathy",
        "label-name": "Chronic Achilles Tendinopathy"
      },
      "recommendation": "deny",
      "questions": [],
      "mtus-text": "Not Recommended. There is no recommendation for or against the use of prolotherapy injections for the treatment of chronic Achilles tendinopathy.\n\nStrength of Evidence – No Recommendation, Insufficient Evidence (I)\n\nLevel of Confidence – Low"
    }
  ],
  "references": {
    "mtus-link": "https://app.mdguidelines.com/acoem-section/acoem%2Fdisorders%2Fankle-and-foot-disorders%2Fdiagnostic-and-treatment-recommendations%2Fachilles-tendinopathy%2Ftreatment-recommendations%2Finjection-therapies",
    "odg-link": ""
  }
}