{
  "treatment": {
    "index-name": "routine-magnetic-resonance-imaging-(mri)",
    "label-name": "Routine Magnetic Resonance Imaging (MRI)",
    "treatment-type": "other"
  },
  "body-system": {
    "index-name": "ankle-and-foot-disorders",
    "label-name": "Ankle and Foot Disorders"
  },
  "version": {
    "mtus": "04/18/19",
    "odg": "",
    "policy-doc": "01/23/23",
    "created-by": "Cade",
    "comments": ""
  },
  "policies": [
    {
      "source": "mtus",
      "diagnosis": {
        "index-name": "evaluating-tarsal-tunnel-syndrome-(tts)",
        "label-name": "Evaluating Tarsal Tunnel Syndrome (TTS)"
      },
      "recommendation": "deny",
      "questions": [],
      "mtus-text": "Not Recommended. The routine use of MRI is not recommended for the initial evaluation of TTS.\n\nStrength of Evidence – Not Recommended, Insufficient Evidence (I)\n\nLevel of Confidence – High\n\nRationale: There are no quality studies evaluating the efficacy of MRI in identifying tarsal tunnel syndrome. However, MRI has taken a much more prominent role in recent years because of superior soft tissue resolution and the ability to noninvasively visualize the osseous structures, cartilage, and soft tissues. High-resolution of the tarsal tunnel allows visualization of the tibial nerve and plantar nerves in nearly their entire length, allowing demonstration of nerve compression by an adjacent structure.(339) The reviewed surgical case reports of TTS frequently implicate space occupying lesions impinging the tarsal fibro-osseous tunnel. MRI may have unique ability to visualize the described anomalies such as accessory muscles, venous dilation, ganglion cysts, neurilemoma, posttraumatic fibrosis and tenosynovitis. However, the presence of abnormal MRI findings in the lower legs of asymptomatic persons is unknown, so predictive values of abnormal findings, particularly minor abnormal findings, is unknown. Further, MR imaging demonstrated the presence and extent of impinging lesions in 17 of 19 patients who underwent surgery.(340) MRI is a moderate cost option with few side effects and is non-invasive with a high potential to direct treatment."
    }
  ],
  "references": {
    "mtus-link": "https://app.mdguidelines.com/acoem-section/acoem%2Fdisorders%2Fankle-and-foot-disorders%2Fdiagnostic-and-treatment-recommendations%2Ftts%2Fdiagnostic-recommendations",
    "odg-link": ""
  }
}