{
  "treatment": {
    "index-name": "self-application-of-cryotherapy",
    "label-name": "Self-application of Cryotherapy",
    "treatment-type": "other"
  },
  "body-system": {
    "index-name": "ankle-and-foot-disorders",
    "label-name": "Ankle and Foot Disorders"
  },
  "version": {
    "mtus": "04/18/19",
    "odg": "",
    "policy-doc": "01/20/23",
    "created-by": "Cade",
    "comments": ""
  },
  "policies": [
    {
      "source": "mtus",
      "diagnosis": {
        "index-name": "acute-achilles-tendon-rupture",
        "label-name": "Acute Achilles Tendon Rupture"
      },
      "recommendation": "approve",
      "questions": [],
      "mtus-text": "Recommended. Self-application of cryotherapy or heat therapy is recommended for treatment of acute, subacute, chronic, or post-operative Achilles tendon rupture.\n\nStrength of Evidence – Recommended, Insufficient Evidence (I)\n\nLevel of Confidence – Low\n\nIndications: Acute, subacute, chronic, or post-operative patients with Achilles tendon rupture.\n\nFrequency/Dose/Duration: Approximately 3 to 5 self-applications per day as needed.\n\nIndications for Discontinuation: Resolution, adverse effects, non-compliance.\n\nRationale: There are no quality trials for modality applications in improving outcomes for Achilles tendon rupture. Cryotherapy (ice) and heat appear effective in treating musculoskeletal disorders involving other body parts. Ice may be of short-term benefit in reducing swelling and pain for acute rupture. Heat may be helpful particularly for healing particularly a few days after the rupture or surgery. These treatments are not invasive, have low adverse effects, are low cost, and thus are recommended."
    },
    {
      "source": "mtus",
      "diagnosis": {
        "index-name": "subacute-achilles-tendon-rupture",
        "label-name": "Subacute Achilles Tendon Rupture"
      },
      "recommendation": "approve",
      "questions": [],
      "mtus-text": "Recommended. Self-application of cryotherapy or heat therapy is recommended for treatment of acute, subacute, chronic, or post-operative Achilles tendon rupture.\n\nStrength of Evidence – Recommended, Insufficient Evidence (I)\n\nLevel of Confidence – Low\n\nIndications: Acute, subacute, chronic, or post-operative patients with Achilles tendon rupture.\n\nFrequency/Dose/Duration: Approximately 3 to 5 self-applications per day as needed.\n\nIndications for Discontinuation: Resolution, adverse effects, non-compliance.\n\nRationale: There are no quality trials for modality applications in improving outcomes for Achilles tendon rupture. Cryotherapy (ice) and heat appear effective in treating musculoskeletal disorders involving other body parts. Ice may be of short-term benefit in reducing swelling and pain for acute rupture. Heat may be helpful particularly for healing particularly a few days after the rupture or surgery. These treatments are not invasive, have low adverse effects, are low cost, and thus are recommended."
    },
    {
      "source": "mtus",
      "diagnosis": {
        "index-name": "chronic-achilles-tendon-rupture",
        "label-name": "Chronic Achilles Tendon Rupture"
      },
      "recommendation": "approve",
      "questions": [],
      "mtus-text": "Recommended. Self-application of cryotherapy or heat therapy is recommended for treatment of acute, subacute, chronic, or post-operative Achilles tendon rupture.\n\nStrength of Evidence – Recommended, Insufficient Evidence (I)\n\nLevel of Confidence – Low\n\nIndications: Acute, subacute, chronic, or post-operative patients with Achilles tendon rupture.\n\nFrequency/Dose/Duration: Approximately 3 to 5 self-applications per day as needed.\n\nIndications for Discontinuation: Resolution, adverse effects, non-compliance.\n\nRationale: There are no quality trials for modality applications in improving outcomes for Achilles tendon rupture. Cryotherapy (ice) and heat appear effective in treating musculoskeletal disorders involving other body parts. Ice may be of short-term benefit in reducing swelling and pain for acute rupture. Heat may be helpful particularly for healing particularly a few days after the rupture or surgery. These treatments are not invasive, have low adverse effects, are low cost, and thus are recommended."
    }
  ],
  "references": {
    "mtus-link": "https://app.mdguidelines.com/acoem-section/acoem%2Fdisorders%2Fankle-and-foot-disorders%2Fdiagnostic-and-treatment-recommendations%2Fachilles-tendon-rupture%2Ftreatment-recommendations%2Fhot-and-cold-therapies",
    "odg-link": ""
  }
}