{
  "treatment": {
    "index-name": "shock-absorbing-fitted-shoes",
    "label-name": "Shock Absorbing Fitted Shoes",
    "treatment-type": "other"
  },
  "body-system": {
    "index-name": "ankle-and-foot-disorders",
    "label-name": "Ankle and Foot Disorders"
  },
  "version": {
    "mtus": "04/18/19",
    "odg": "",
    "policy-doc": "01/21/23",
    "created-by": "Cade",
    "comments": ""
  },
  "policies": [
    {
      "source": "mtus",
      "diagnosis": {
        "index-name": "prevention-of-plantar-fasciitis",
        "label-name": "Prevention of Plantar Fasciitis"
      },
      "recommendation": "no_recommendation",
      "questions": [],
      "mtus-text": "No Recommendation. There is no recommendation for or against the use of special fitted or shock absorbing shoes for prevention of plantar fasciitis or lower extremity disorders.\n\nStrength of Evidence – No Recommendation, Insufficient Evidence (I)\n\nLevel of Confidence – Low\n\nRationale: There are two moderate-quality trials for the use of shock absorbing shoes for prevention of plantar heel pain.(227, 228) (Torkki 02, Milgrom 92) A study of 176 newspaper carriers with lower limb overuse disorders randomized to shock absorbing athletic footwear or to continue their own footwear were followed over a 12-month period.(227) (Torkki 02) There was no control for “own footwear,” and there was a large bias favoring the intervention group in which subjects “expected” to improve with the intervention. Regardless, there were no significant differences in outcomes at 3, 6, or 12 months. A study of military recruits randomized to basketball shoes or military boots during basic training demonstrated no benefit in overall incidence of lower extremity disorders, but was effective in reducing arch and plantar pain over a 14-week period.(228) (Milgrom 92) Fitted athletic shoes are non-invasive, have no adverse effects, and are inexpensive considering the duration of use is 6 months to 1 year, although there is no clear benefit to their use. Thus, there is no recommendation for or against the use of fitted shock absorbing shoes. A moderate-quality cross-over study utilized deep soft shoes as an intervention arm for metatarsalgia and demonstrated no improvement within the groups after a 12-week period.(221)"
    }
  ],
  "references": {
    "mtus-link": "https://app.mdguidelines.com/acoem-section/acoem%2Fdisorders%2Fankle-and-foot-disorders%2Fdiagnostic-and-treatment-recommendations%2Fplantar-heel-pain%2Ftreatment-recommendations%2Fdevices",
    "odg-link": ""
  }
}