{
  "treatment": {
    "index-name": "soft-tissue-mobilization",
    "label-name": "Soft Tissue Mobilization",
    "treatment-type": "other"
  },
  "body-system": {
    "index-name": "ankle-and-foot-disorders",
    "label-name": "Ankle and Foot Disorders"
  },
  "version": {
    "mtus": "04/18/19",
    "odg": "",
    "policy-doc": "01/22/23",
    "created-by": "Cade",
    "comments": ""
  },
  "policies": [
    {
      "source": "mtus",
      "diagnosis": {
        "index-name": "acute-plantar-fasciitis",
        "label-name": "Acute Plantar Fasciitis"
      },
      "recommendation": "no_recommendation",
      "questions": [],
      "mtus-text": "No Recommendation. There is no recommendation for or against the use of massage and tendon mobilization for treatment of acute, subacute, chronic, or post-operative plantar fasciitis.\n\nStrength of Evidence – No Recommendation, Insufficient Evidence (I)\n\nLevel of Confidence – Low\n\nRationale: There are no quality trials comparing the use of manual therapy with no treatment. A moderate-quality trial comparing soft tissue mobilization, cryotherapy, and gastrocnemius stretching exercises to iontophoresis and ultrasound with exercises demonstrated manual therapy to be of greater benefit as measured by functional disability scores than electrical physiotherapy technique.(271) However, the magnitude of differences demonstrated was small, and are of uncertain clinical significance. It is possible for patients to self-administer these treatments, although there are no quality studies of self-administration. Massage and soft tissue mobilization are not invasive, have minimal adverse effects, and depending on numbers of treatments are low to moderate cost. As there are other interventions with documented efficacy, there is no recommendation for or against use of these treatments for plantar fasciitis."
    },
    {
      "source": "mtus",
      "diagnosis": {
        "index-name": "subacute-plantar-fasciitis",
        "label-name": "Subacute Plantar Fasciitis"
      },
      "recommendation": "no_recommendation",
      "questions": [],
      "mtus-text": "No Recommendation. There is no recommendation for or against the use of massage and tendon mobilization for treatment of acute, subacute, chronic, or post-operative plantar fasciitis.\n\nStrength of Evidence – No Recommendation, Insufficient Evidence (I)\n\nLevel of Confidence – Low\n\nRationale: There are no quality trials comparing the use of manual therapy with no treatment. A moderate-quality trial comparing soft tissue mobilization, cryotherapy, and gastrocnemius stretching exercises to iontophoresis and ultrasound with exercises demonstrated manual therapy to be of greater benefit as measured by functional disability scores than electrical physiotherapy technique.(271) However, the magnitude of differences demonstrated was small, and are of uncertain clinical significance. It is possible for patients to self-administer these treatments, although there are no quality studies of self-administration. Massage and soft tissue mobilization are not invasive, have minimal adverse effects, and depending on numbers of treatments are low to moderate cost. As there are other interventions with documented efficacy, there is no recommendation for or against use of these treatments for plantar fasciitis."
    },
    {
      "source": "mtus",
      "diagnosis": {
        "index-name": "chronic-plantar-fasciitis",
        "label-name": "Chronic Plantar Fasciitis"
      },
      "recommendation": "no_recommendation",
      "questions": [],
      "mtus-text": "No Recommendation. There is no recommendation for or against the use of massage and tendon mobilization for treatment of acute, subacute, chronic, or post-operative plantar fasciitis.\n\nStrength of Evidence – No Recommendation, Insufficient Evidence (I)\n\nLevel of Confidence – Low\n\nRationale: There are no quality trials comparing the use of manual therapy with no treatment. A moderate-quality trial comparing soft tissue mobilization, cryotherapy, and gastrocnemius stretching exercises to iontophoresis and ultrasound with exercises demonstrated manual therapy to be of greater benefit as measured by functional disability scores than electrical physiotherapy technique.(271) However, the magnitude of differences demonstrated was small, and are of uncertain clinical significance. It is possible for patients to self-administer these treatments, although there are no quality studies of self-administration. Massage and soft tissue mobilization are not invasive, have minimal adverse effects, and depending on numbers of treatments are low to moderate cost. As there are other interventions with documented efficacy, there is no recommendation for or against use of these treatments for plantar fasciitis."
    }
  ],
  "references": {
    "mtus-link": "https://app.mdguidelines.com/acoem-section/acoem%2Fdisorders%2Fankle-and-foot-disorders%2Fdiagnostic-and-treatment-recommendations%2Fplantar-heel-pain%2Ftreatment-recommendations%2Fallied-health-intervention",
    "odg-link": ""
  }
}