{
  "treatment": {
    "index-name": "spect-ct",
    "label-name": "SPECT-CT",
    "treatment-type": "other"
  },
  "body-system": {
    "index-name": "ankle-and-foot-disorders",
    "label-name": "Ankle and Foot Disorders"
  },
  "version": {
    "mtus": "04/18/19",
    "odg": "",
    "policy-doc": "01/27/23",
    "created-by": "Cade",
    "comments": ""
  },
  "policies": [
    {
      "source": "mtus",
      "diagnosis": {
        "index-name": "diagnosing-plantar-fasciitis",
        "label-name": "Diagnosing Plantar Fasciitis"
      },
      "recommendation": "deny",
      "questions": [],
      "mtus-text": "Not Recommended. The use of SPECT-CT is not recommended for the diagnosis of plantar heel pain.\n\nStrength of Evidence – Not Recommended, Insufficient Evidence (I)\n\n Level of Confidence – Low\n\nRationale: There is no quality evidence supporting the use of SPECT-CT in investigating heel pain. SPECT-CT imaging for documenting increased metabolic activity is of unclear usefulness as there is no current accepted standard for interpretation of results, nor evidence that it will change outcome, nor is superior to less-expensive imaging methods. SPECT-CT is non-invasive but results in radiation exposure, is high cost, and is of undefined clinical utility. It is unlikely that SPECT-CT would result in changing or enhancing the treatment plan for plantar fasciitis, and is therefore not recommended."
    }
  ],
  "references": {
    "mtus-link": "https://app.mdguidelines.com/acoem-section/acoem%2Fdisorders%2Fankle-and-foot-disorders%2Fdiagnostic-and-treatment-recommendations%2Fplantar-heel-pain%2Fdiagnostic-recommendation",
    "odg-link": ""
  }
}