{
  "treatment": {
    "index-name": "streptokinase/streptodornase-preparations",
    "label-name": "Streptokinase/Streptodornase Preparations",
    "treatment-type": "other"
  },
  "body-system": {
    "index-name": "ankle-and-foot-disorders",
    "label-name": "Ankle and Foot Disorders"
  },
  "version": {
    "mtus": "04/18/19",
    "odg": "",
    "policy-doc": "01/18/23",
    "created-by": "Cade",
    "comments": ""
  },
  "policies": [
    {
      "source": "mtus",
      "diagnosis": {
        "index-name": "acute-ankle-sprain",
        "label-name": "Acute Ankle Sprain"
      },
      "recommendation": "deny",
      "questions": [],
      "mtus-text": "Not Recommended. Oral streptokinase/streptodornase preparations are not recommended for the treatment of acute, subacute, or chronic ankle sprain.\n\nStrength of Evidence – Not Recommended, Insuffcient Evidence (I)\n\nLevel of Confidence – Low\n\nRationale: There is one moderate-quality trial for streptokinase/streptodornase (Varidase) that demonstrated benefit over placebo in the outcomes measures of pain and edema, although clinically the differences are of uncertain significance.(467) There is no recent medical literature on the use of this preparation for ankle sprain. This treatment has low reported side effects when used orally, but additional information is otherwise lacking. As the product is not available as an oral agent, there is no recommendation for or against its use."
    },
    {
      "source": "mtus",
      "diagnosis": {
        "index-name": "subacute-ankle-sprain",
        "label-name": "Subacute Ankle Sprain"
      },
      "recommendation": "deny",
      "questions": [],
      "mtus-text": "Not Recommended. Oral streptokinase/streptodornase preparations are not recommended for the treatment of acute, subacute, or chronic ankle sprain.\n\nStrength of Evidence – Not Recommended, Insuffcient Evidence (I)\n\nLevel of Confidence – Low\n\nRationale: There is one moderate-quality trial for streptokinase/streptodornase (Varidase) that demonstrated benefit over placebo in the outcomes measures of pain and edema, although clinically the differences are of uncertain significance.(467) There is no recent medical literature on the use of this preparation for ankle sprain. This treatment has low reported side effects when used orally, but additional information is otherwise lacking. As the product is not available as an oral agent, there is no recommendation for or against its use."
    },
    {
      "source": "mtus",
      "diagnosis": {
        "index-name": "chronic-ankle-sprain",
        "label-name": "Chronic Ankle Sprain"
      },
      "recommendation": "deny",
      "questions": [],
      "mtus-text": "Not Recommended. Oral streptokinase/streptodornase preparations are not recommended for the treatment of acute, subacute, or chronic ankle sprain.\n\nStrength of Evidence – Not Recommended, Insuffcient Evidence (I)\n\nLevel of Confidence – Low\n\nRationale: There is one moderate-quality trial for streptokinase/streptodornase (Varidase) that demonstrated benefit over placebo in the outcomes measures of pain and edema, although clinically the differences are of uncertain significance.(467) There is no recent medical literature on the use of this preparation for ankle sprain. This treatment has low reported side effects when used orally, but additional information is otherwise lacking. As the product is not available as an oral agent, there is no recommendation for or against its use."
    }
  ],
  "references": {
    "mtus-link": "https://app.mdguidelines.com/acoem-section/acoem%2Fdisorders%2Fankle-and-foot-disorders%2Fdiagnostic-and-treatment-recommendations%2Fankle-sprain%2Ftreatment-recommendations%2Fmedications",
    "odg-link": ""
  }
}