{
  "treatment": {
    "index-name": "tacrolimus-(0.1%-ointment)",
    "label-name": "Tacrolimus (0.1% Ointment)",
    "treatment-type": "other"
  },
  "body-system": {
    "index-name": "ankle-and-foot-disorders",
    "label-name": "Ankle and Foot Disorders"
  },
  "version": {
    "mtus": "04/18/19",
    "odg": "",
    "policy-doc": "01/22/23",
    "created-by": "Cade",
    "comments": ""
  },
  "policies": [
    {
      "source": "mtus",
      "diagnosis": {
        "index-name": "chronic-paronychia",
        "label-name": "Chronic Paronychia"
      },
      "recommendation": "approve",
      "questions": [],
      "mtus-text": "Tacrolimus 0.1% ointment has been found superior to steroids (Rigopoulos 09) and is Recommended, Evidence (C), Level of Confidence – Low."
    }
  ],
  "references": {
    "mtus-link": "https://app.mdguidelines.com/acoem-section/acoem%2Fdisorders%2Fankle-and-foot-disorders%2Fdiagnostic-and-treatment-recommendations%2Fparonychia",
    "odg-link": ""
  }
}