{
  "treatment": {
    "index-name": "taping",
    "label-name": "Taping",
    "treatment-type": "other"
  },
  "body-system": {
    "index-name": "ankle-and-foot-disorders",
    "label-name": "Ankle and Foot Disorders"
  },
  "version": {
    "mtus": "04/18/19",
    "odg": "",
    "policy-doc": "01/21/23",
    "created-by": "Cade",
    "comments": ""
  },
  "policies": [
    {
      "source": "mtus",
      "diagnosis": {
        "index-name": "tarsal-tunnel-syndrome-(tts)",
        "label-name": "Tarsal Tunnel Syndrome (TTS)"
      },
      "recommendation": "no_recommendation",
      "questions": [],
      "mtus-text": "No Recommendation. There is no recommendation for or against the use of taping for the treatment of TTS.\n\nStrength of Evidence – No Recommendation, Insuffcient Evidence (I)\n\nLevel of Confidence – Low\n\nRationale: There are no quality studies evaluating rest, ice, or taping, for symptomatic relief of TSS. Ankle rest or providing limitations of the affected leg is non-invasive, but can be moderate to high cost over time. Ankle rest may be beneficial for the more symptomatic cases where aggravating factors include constant standing or walking. Ice and heat may help particularly with more acute symptoms, although there is no evidence they help with other nerve impingement syndromes. Systematic reviews and case series reports using taping strategies for TTS were not found in the literature search and over time this intervention may be costly. However, taping may be helpful in the treatment of non-specific heel pain(232) (see Heel Pain). Each of these treatments is not invasive and generally has few adverse effects. Self-applications of ice and heat are not costly. Orthotics may be selectively recommended for those with TTS thought to be of biomechanical origin."
    },
    {
      "source": "mtus",
      "diagnosis": {
        "index-name": "foot-drop",
        "label-name": "Foot Drop"
      },
      "recommendation": "no_recommendation",
      "questions": [],
      "mtus-text": "No Recommendation. There is no recommendation for or against the use of taping for the treatment of foot drop.\n\nStrength of Evidence – No Recommendation, Insufficient Evidence (I)\n\nLevel of Confidence – Low\n\nRationale: There are no quality trials and thus there is no recommendation for or against the use of taping. Generally, braces are used for foot drop."
    }
  ],
  "references": {
    "mtus-link": "https://app.mdguidelines.com/acoem-section/acoem%2Fdisorders%2Fankle-and-foot-disorders%2Fdiagnostic-and-treatment-recommendations%2Ftts%2Ftreatment-recommendations%2Factivity-modification-and-exercise,https://app.mdguidelines.com/acoem-section/acoem%2Fdisorders%2Fankle-and-foot-disorders%2Fdiagnostic-and-treatment-recommendations%2Ffoot-drop",
    "odg-link": ""
  }
}