{
  "treatment": {
    "index-name": "ultrasound-to-stimulate-bone-healing",
    "label-name": "Ultrasound to Stimulate Bone Healing",
    "treatment-type": "other"
  },
  "body-system": {
    "index-name": "ankle-and-foot-disorders",
    "label-name": "Ankle and Foot Disorders"
  },
  "version": {
    "mtus": "04/18/19",
    "odg": "",
    "policy-doc": "01/28/23",
    "created-by": "Cade",
    "comments": ""
  },
  "policies": [
    {
      "source": "mtus",
      "diagnosis": {
        "index-name": "ankle-and-foot-fracture",
        "label-name": "Ankle and Foot Fracture"
      },
      "recommendation": "deny",
      "questions": [],
      "mtus-text": "Moderately Not Recommended. Ultrasound is moderately not recommended for ankle and foot fracture management.\n\nStrength of Evidence – Moderately Not Recommended, Evidence (B)\n\nLevel of Confidence – Moderate\n\nRationale: There is one high-quality trial for the use of ultrasound stimulation of ankle or foot fractures.(784) Ultrasound applied daily for 20 minutes compared to sham demonstrated no additional benefit in healing of lateral malleolar fractures fixed with bioabsorbable screw. Ultrasound stimulation is non-invasive, is of moderate to high cost depending on frequency and duration of treatment, and has low adverse effects. It is not recommended for routine use to promote bone healing."
    }
  ],
  "references": {
    "mtus-link": "https://app.mdguidelines.com/acoem-section/acoem%2Fdisorders%2Fankle-and-foot-disorders%2Fdiagnostic-and-treatment-recommendations%2Fankle-and-foot-fractures%2Ftreatment-recommendations%2Fallied-health-interventions",
    "odg-link": ""
  }
}