{
  "treatment": {
    "index-name": "use-of-ultrasound-as-an-aid-to-nerve-conduction-studies-(ncs)",
    "label-name": "Use of Ultrasound As an Aid to Nerve Conduction Studies (NCS)",
    "treatment-type": "other"
  },
  "body-system": {
    "index-name": "ankle-and-foot-disorders",
    "label-name": "Ankle and Foot Disorders"
  },
  "version": {
    "mtus": "04/18/19",
    "odg": "",
    "policy-doc": "01/28/23",
    "created-by": "Cade",
    "comments": ""
  },
  "policies": [
    {
      "source": "mtus",
      "diagnosis": {
        "index-name": "tarsal-tunnel-syndrome-(tts)",
        "label-name": "Tarsal Tunnel Syndrome (TTS)"
      },
      "recommendation": "approve",
      "questions": [],
      "mtus-text": "Recommended. Ultrasound is recommended as an aid to NCS as it may be beneficial to identify suspected space occupying lesions in the tarsal tunnel after failed conservative management, or as an adjunct to guide interventional therapies.\n\nStrength of Evidence – Recommended, Insufficient Evidence (I)\n\nLevel of Confidence – Low"
    }
  ],
  "references": {
    "mtus-link": "https://app.mdguidelines.com/acoem-section/acoem%2Fdisorders%2Fankle-and-foot-disorders%2Fdiagnostic-and-treatment-recommendations%2Ftts%2Fdiagnostic-recommendations",
    "odg-link": ""
  }
}