{
  "treatment": {
    "index-name": "weight-bearing-x-rays",
    "label-name": "Weight-bearing X-rays",
    "treatment-type": "other"
  },
  "body-system": {
    "index-name": "ankle-and-foot-disorders",
    "label-name": "Ankle and Foot Disorders"
  },
  "version": {
    "mtus": "04/18/19",
    "odg": "",
    "policy-doc": "01/28/23",
    "created-by": "Cade",
    "comments": ""
  },
  "policies": [
    {
      "source": "mtus",
      "diagnosis": {
        "index-name": "diagnosing-mid-tarsus-pain-and/or-sprain",
        "label-name": "Diagnosing Mid-tarsus Pain and/or Sprain"
      },
      "recommendation": "approve",
      "questions": [],
      "mtus-text": "Weight-bearing x-rays (AP and lateral views with/out obliques; often bilateral for comparative purposes) are Recommended, Insufficient Evidence (I), Level of Confidence – High, and are often normal in mild injuries (grade 1 sprains), generally abnormal in moderate (grade 2), but are always abnormal in severe injures (grade 3)."
    }
  ],
  "references": {
    "mtus-link": "https://app.mdguidelines.com/acoem-section/acoem%2Fdisorders%2Fankle-and-foot-disorders%2Fdiagnostic-and-treatment-recommendations%2Fmid-tarsus-pain",
    "odg-link": ""
  }
}