{
  "treatment": {
    "index-name": "exercises-for-post-operative-radial-nerve-entrapment-(including-radial-tunnel-syndrome)",
    "label-name": "Exercises for Post-operative Radial Nerve Entrapment (Including Radial Tunnel Syndrome)",
    "treatment-type": "surgery-add-on"
  },
  "body-system": {
    "index-name": "elbow-disorders",
    "label-name": "Elbow Disorders"
  },
  "version": {
    "mtus": "04/18/19",
    "odg": "",
    "policy-doc": "02/03/23",
    "created-by": "Cade",
    "comments": ""
  },
  "policies": [
    {
      "source": "mtus",
      "diagnosis": {
        "index-name": "surgery-add-on",
        "label-name": "Surgery Add-on"
      },
      "recommendation": "approve",
      "questions": [],
      "mtus-text": "Recommended.\n\nStrength of Evidence – Recommended, Insufficient Evidence (I)"
    }
  ],
  "references": {
    "mtus-link": "https://app.mdguidelines.com/acoem-section/state-guidelines%2Fca-mtus%2Felbow-disorders%2Fdiagnosis-and-treatment-recommendations%2Fradial-nerve-entrapment%2Ftreatment-recommendations",
    "odg-link": ""
  }
}