{
  "treatment": {
    "index-name": "functional-brace-for-post-operative-treatment-of-osteoarthrosis",
    "label-name": "Functional Brace for Post-operative Treatment of Osteoarthrosis",
    "treatment-type": "surgery-add-on"
  },
  "body-system": {
    "index-name": "shoulder-disorders",
    "label-name": "Shoulder Disorders"
  },
  "version": {
    "mtus": "12/01/17",
    "odg": "",
    "policy-doc": "11/02/22",
    "created-by": "Cade",
    "comments": ""
  },
  "policies": [
    {
      "source": "mtus",
      "diagnosis": {
        "index-name": "surgery-add-on",
        "label-name": "Surgery Add-on"
      },
      "recommendation": "approve",
      "questions": [],
      "mtus-text": "Recommended. Slings and functional braces are recommended for post-operative treatment of osteoarthrosis.\n\nStrength of Evidence – Recommended, Insufficient Evidence (I)\n\nRationale: Slings and braces have been used for post-operative management of osteoarthrosis patients and are recommended. Early mobilization is also recommended to promote recovery."
    }
  ],
  "references": {
    "mtus-link": "https://app.mdguidelines.com/acoem-section/state-guidelines%2Fca-mtus%2Fshoulder-disorders%2Ftreatment-recommendations%2Fshoulder-osteoarthrosis%2Fdevices",
    "odg-link": ""
  }
}