{
  "treatment": {
    "index-name": "nsaids-for-post-operative-pain",
    "label-name": "NSAIDs for Post-operative Pain",
    "treatment-type": "surgery-add-on"
  },
  "body-system": {
    "index-name": "shoulder-disorders",
    "label-name": "Shoulder Disorders"
  },
  "version": {
    "mtus": "12/01/17",
    "odg": "",
    "policy-doc": "11/07/22",
    "created-by": "Cade",
    "comments": ""
  },
  "policies": [
    {
      "source": "mtus",
      "diagnosis": {
        "index-name": "surgery-add-on",
        "label-name": "Surgery Add-on"
      },
      "recommendation": "approve",
      "questions": [],
      "mtus-text": "Recommended. NSAIDs are recommended for treatment of acute, subacute, or chronic shoulder pain, particularly rotator cuff tendinopathies and for post-operative pain.\n\nStrength of Evidence (Acute, Subacute, Chronic) – Strongly Recommended, Evidence (A)\n\nStrength of Evidence (Post-operative) – Recommended, Evidence (C)\n\nIndications: Shoulder or post-operative pain. (Adebajo 90; Petri 87; Berry 80; Mena 86)\n\nFrequency/Dose/Duration: Numerous NSAIDs have been utilized in quality trials, including celecoxib, diclofenac, fentiazac, flurbiprofen, ibuprofen, indomethacin, meloxicam, naproxen, nimesulide, piroxicam, sulindac, and tolmetin – see manufacturer’s recommendations. Generally, treat post-operative patients for 2 to 8 weeks post-op unless complications occur.\n\nIndications for Discontinuation: Resolution of pain, adverse effects, intolerance."
    }
  ],
  "references": {
    "mtus-link": "https://app.mdguidelines.com/acoem-section/state-guidelines%2Fca-mtus%2Fshoulder-disorders%2Ftreatment-recommendations%2Frotator-cuff%2Fmedications",
    "odg-link": ""
  }
}