{
  "treatment": {
    "index-name": "rehabilitation-for-open-labral-tear-repair",
    "label-name": "Rehabilitation for Open Labral Tear Repair",
    "treatment-type": "surgery-add-on"
  },
  "body-system": {
    "index-name": "shoulder-disorders",
    "label-name": "Shoulder Disorders"
  },
  "version": {
    "mtus": "12/01/17",
    "odg": "",
    "policy-doc": "11/02/22",
    "created-by": "Cade",
    "comments": ""
  },
  "policies": [
    {
      "source": "mtus",
      "diagnosis": {
        "index-name": "surgery-add-on",
        "label-name": "Surgery Add-on"
      },
      "recommendation": "approve",
      "questions": [],
      "mtus-text": "Recommended. Rehabilitation is recommended for patients after arthroscopic or open labral and superior labral anterior posterior (SLAP) tear repairs.\n\nStrength of Evidence – Recommended, Insufficient Evidence (I)\n\nIndications: Arthroscopic or open repairs of labral and SLAP tears.\n\nFrequency/Dose/Duration: Two to 3 appointments per week for 3 weeks, then 2 a week for 2 weeks and once weekly to every other week for 6 to 9 additional weeks. (Kim 03) Exact regimen requires individualization; however, regimens are provided for guidance as examples of published protocols and are recommended.\n\nIndications for Discontinuation: Recovery, plateau in recovery, noncompliance, or intolerance.\n\nRationale: There are no quality trials that address rehabilitation for labral and SLAP tears. However, exercise appears necessary and education with a home-exercise program appears to be required for nearly all patients. Rehabilitation is not invasive, has low adverse effects, but is moderate to high cost; however, it seems necessary and is thus recommended."
    }
  ],
  "references": {
    "mtus-link": "https://app.mdguidelines.com/acoem-section/state-guidelines%2Fca-mtus%2Fshoulder-disorders%2Ftreatment-recommendations%2Fslap-tears%2Frehabilitation",
    "odg-link": ""
  }
}