{
  "treatment": {
    "index-name": "rehabilitation-for-surgical-repair-of-ac-separations",
    "label-name": "Rehabilitation for Surgical Repair of AC Separations",
    "treatment-type": "surgery-add-on"
  },
  "body-system": {
    "index-name": "shoulder-disorders",
    "label-name": "Shoulder Disorders"
  },
  "version": {
    "mtus": "12/01/17",
    "odg": "",
    "policy-doc": "11/02/22",
    "created-by": "Cade",
    "comments": ""
  },
  "policies": [
    {
      "source": "mtus",
      "diagnosis": {
        "index-name": "surgery-add-on",
        "label-name": "Surgery Add-on"
      },
      "recommendation": "approve",
      "questions": [],
      "mtus-text": "Recommended. Rehabilitation is recommended for patients after surgical repair of AC separations.\n\nStrength of Evidence – Recommended, Insufficient Evidence (I)\n\nIndications: Surgical repairs of AC separations. Individualization is recommended based on various factors, including immediate operative results, age, conditioning, compliance, and prior experiences.\n\nFrequency/Dose/Duration: Weekly to 3 times a week for first 2 weeks, then weekly to twice weekly for next 4 weeks, then weekly to twice weekly for following 6 to 8 weeks.\n\nIndications for Discontinuation: Recovery, plateau in recovery, noncompliance, or intolerance.\n\nRationale: There are no quality trials evaluating rehabilitation for AC separation patients. (Simovitch 09) However, exercises appear necessary and education along with a home-exercise program appears to be required for nearly all patients. Rehabilitation is not invasive, has low adverse effects, is moderate to high cost, but appears necessary for recovery for many of these patients and is thus recommended."
    }
  ],
  "references": {
    "mtus-link": "https://app.mdguidelines.com/acoem-section/state-guidelines%2Fca-mtus%2Fshoulder-disorders%2Ftreatment-recommendations%2Facromioclavicular-sprains-and-dislocations%2Fpost-operative",
    "odg-link": ""
  }
}