{
  "treatment": {
    "index-name": "rehabilitation-programs-for-post-operative-rotator-cuff-tendinopathy",
    "label-name": "Rehabilitation Programs for Post-operative Rotator Cuff Tendinopathy",
    "treatment-type": "surgery-add-on"
  },
  "body-system": {
    "index-name": "shoulder-disorders",
    "label-name": "Shoulder Disorders"
  },
  "version": {
    "mtus": "12/01/17",
    "odg": "",
    "policy-doc": "10/26/22",
    "created-by": "Cade",
    "comments": ""
  },
  "policies": [
    {
      "source": "mtus",
      "diagnosis": {
        "index-name": "surgery-add-on",
        "label-name": "Surgery Add-on"
      },
      "recommendation": "approve",
      "questions": [],
      "mtus-text": "Recommended. A post-operative exercise or rehabilitation program is recommended for post-operative rotator cuff tendinopathy patients.\n\nSurgical Considerations\n\nStrength of Evidence – Recommended, Evidence (C)\n\nIndications: All rotator cuff tendinopathy patients.\n\nFrequency/Dose/Duration: Programs need to be individualized based on factors including age, pre-operative condition, immediate surgical results, contraindications, and other medical conditions; advancement of the program also must be individualized based on progress. Programs and protocols should be closely coordinated with the treating orthopedist, particularly as variability in patients is wide – although workers’ compensation patients tend to be younger, in better condition, and able to advance conditioning exercises more rapidly than the elderly. Duration is based primarily on progress. Highly motivated patients may require only weekly sessions for advancement of home exercise program components and may achieve comparable outcomes to a supervised program. (Roddey 02; Andersen 99) Others require more supervision, particularly if there is significant pain with use. Programs generally begin with appointments 2 or 3 times weekly and gradually taper as home exercises are instituted and the patient’s recovery advances. Courses of up to 3 months in more severe cases may be needed, although most patients require 6 to 8 weeks of supervised programs."
    }
  ],
  "references": {
    "mtus-link": "https://app.mdguidelines.com/acoem-section/state-guidelines%2Fca-mtus%2Fshoulder-disorders%2Ftreatment-recommendations%2Frotator-cuff%2Fsurgical-considerations",
    "odg-link": ""
  }
}