{
  "treatment": {
    "index-name": "hospital-length-of-stay-(los)",
    "label-name": "Hospital Length of Stay (LOS)",
    "treatment-type": "surgery-add-on"
  },
  "body-system": {
    "index-name": "neck-and-upper-back",
    "label-name": "Neck and Upper Back"
  },
  "version": {
    "mtus": "",
    "odg": "02/12/21",
    "policy-doc": "07/12/22",
    "created-by": "Bill",
    "comments": ""
  },
  "policies": [
    {
      "source": "odg",
      "diagnosis": {
        "index-name": "surgery-add-on",
        "label-name": "Surgery Add-on"
      },
      "recommendation": "1",
      "questions": [
        {
          "#": "1",
          "question": "Is the request for postoperative hospital length of stay consistent with the diagnosis and best practice target?",
          "option-list": [
            {
              "option": "yes",
              "action": "approve"
            },
            {
              "option": "no",
              "action": "deny"
            }
          ]
        }
      ],
      "odg-text": "Hospital Length of Stay (LOS) for Neck and Upper Back Conditions\nBody system:Neck and Upper BackTreatment type:Other, Surgery\n\nOtherO\nRecommend the best practice target length of stay (LOS) for cases with no complications. Alternatively, recommend the median LOS based on type of surgery if best practice data are not available.\n\nODG Criteria\nODG hospital length of stay (LOS) guidelines:\n\nDiscectomy/ Corpectomy (ICD 80.51 - Excision of intervertebral disc)\n\nActual data -- median 1 day; mean 2.1 days (± 0.0); discharges 109,057; charges (mean) $26,219\n\nBest practice target (no complications) -- 1 day\n\nLaminectomy (ICD 03.09 - Laminectomy/laminotomy for decompression of spinal nerve root)\n\nActual data -- median 2 days; mean 3.5 days (±0.1); discharges 100,600; charges (mean) $34,978\n\nBest practice target (no complications) -- 1 day\n\nCervical Fusion, Anterior (ICD 81.02 -- Other cervical fusion, anterior technique)\n\nActual data -- median 1 day; mean 2.2 days (±0.1); discharges 161,761; charges (mean) $50,653\n\nBest practice target (no complications) -- 1 days\n\nCervical Fusion, Posterior (ICD 81.03 -- Other cervical fusion, posterior technique)\n\nActual data -- median 4 days; mean 5.7 days (±0.2); discharges 16,852; charges (mean) $97,781\n\nBest practice target (no complications) -- 4 days\n\nCraniocervical Atlas-Axis Fusion (ICD 81.01 -- Atlas-axis spinal fusion)\n\nActual data -- median 5 days; mean 7.8 days (±0.3); discharges 2,966; charges (mean) $117,838\n\nBest practice target (no complications) -- 5 days\n\nArtificial Disc (ICD 84.62 -- Insertion of total spinal disc prosthesis, cervical)\n\nActual data -- median 1 days; mean 1.4 days (±0.1); discharges 2,146; charges (mean) $40,203\n\nBest practice target (no complications) - 1 day\n\nArtificial Disc revision (ICD 84.66 -- Replacement of artificial spinal disc prosthesis, cervical)\n\nActual data -- median 2 days; mean 2.1 days (±0.3); discharges 148; charges (mean) $45,761\n\nBest practice target (no complications) - 2 days\n\nFracture of vertebral column (ICD 03.53 - Repair of vertebral fracture)\n\nActual data -- median 9 days; mean 13.4 days (±0.6); discharges 3,458; charges (mean) $156,940\n\nBest practice target (no complications) -- 9 days"
    }
  ],
  "references": {
    "mtus-link": "",
    "odg-link": "https://www.odgbymcg.com/odg-link?tags=%20Transcutaneous%20Electrical%20Nerve%20Stimulation%20(TENS)%20for%20Hip%20and%20Pelvis%20Conditions,%20Intraoperative%20Neurophysiologic%20Monitoring%20(IONM)%20During%20Surgery%20for%20Neck%20and%20Upper%20Back%20Conditions,%20Intraoperative%20Neurophysiologic%20Monitoring%20(IONM)%20During%20Surgery%20for%20Low%20Back%20Conditions,%20Hospital%20Length%20of%20Stay%20(LOS)%20for%20Neck%20and%20Upper%20Back%20Conditions&formfield_country=US&st=st&ltdplan=182&stdEndDateMax=364&thispage=treatment&formfield_physicaldemandlevel=All%20Classes&rtwoption=bp_target"
  }
}