{
  "treatment": {
    "index-name": "intermittent-pneumatic-compression-devices",
    "label-name": "Intermittent Pneumatic Compression Devices",
    "treatment-type": "surgery-add-on"
  },
  "body-system": {
    "index-name": "neck-and-upper-back",
    "label-name": "Neck and Upper Back"
  },
  "version": {
    "mtus": "",
    "odg": "02/12/21",
    "policy-doc": "07/29/22",
    "created-by": "Bill",
    "comments": ""
  },
  "policies": [
    {
      "source": "odg",
      "diagnosis": {
        "index-name": "surgery-add-on",
        "label-name": "Surgery Add-on"
      },
      "recommendation": "1",
      "questions": [
        {
          "#": "1",
          "question": "Is this patient moderate to high risk perioperative surgical patient?",
          "option-list": [
            {
              "option": "yes",
              "action": "2"
            },
            {
              "option": "no",
              "action": "deny"
            }
          ]
        },
        {
          "#": "2",
          "question": "Is the use of lower leg only devices combined with pharmacological thromboprophylaxis medically feasible?",
          "option-list": [
            {
              "option": "yes",
              "action": "deny"
            },
            {
              "option": "no",
              "action": "approve"
            }
          ]
        }
      ],
      "odg-text": "Conditionally RecommendedCR\nRecommended for short-term mechanical thromboprophylaxis for moderate- to high-risk perioperative surgical and hospitalized patients, especially following lower extremity trauma. Best practices involve use of simple, practical, and inexpensive lower leg-only devices, combined with pharmacological thromboprophylaxis when medically feasible. Although mechanical methods do reduce the risk of deep vein thrombosis [DVT], there is no evidence that they reduce the main threats, pulmonary embolism [PE], fatal PE, or total mortality. In contrast, pharmacological methods significantly reduce all of these outcomes. Not recommended for home use due to a lack of quality evidence, associated counter-productive immobilization, and patient non-compliance issues."
    }
  ],
  "references": {
    "mtus-link": "",
    "odg-link": "https://www.odgbymcg.com/odg-link?tags=%20Intermittent%20Pneumatic%20Compression%20Devices%20for%20Low%20Back%20Conditions,%20Intermittent%20Pneumatic%20Compression%20Devices%20for%20Knee%20and%20Leg%20Conditions&formfield_country=US&st=st&ltdplan=182&stdEndDateMax=364&thispage=treatment&formfield_jobclass=0&combobox=0&formfield_dataset=0"
  }
}