{
  "treatment": {
    "index-name": "postoperative-pain-opioids",
    "label-name": "Postoperative Pain - Opioids",
    "treatment-type": "surgery-add-on"
  },
  "body-system": {
    "index-name": "neck-and-upper-back",
    "label-name": "Neck and Upper Back"
  },
  "version": {
    "mtus": "12/01/2017",
    "odg": "",
    "policy-doc": "07/15/22",
    "created-by": "Bill",
    "comments": ""
  },
  "policies": [
    {
      "source": "mtus",
      "diagnosis": {
        "index-name": "surgery-add-on",
        "label-name": "Surgery Add-on"
      },
      "recommendation": "1",
      "questions": [
        {
          "#": "1",
          "question": "Is the request a limited supply of opioid usage in the postoperative period?",
          "option-list": [
            {
              "option": "yes",
              "action": "approve"
            },
            {
              "option": "no",
              "action": "deny"
            }
          ]
        }
      ],
      "mtus-text": "Limited Use of Opioids for Post-operative Pain\nRecommended.\n\nLimited use of opioids is recommended for post-operative pain management as an adjunctive therapy to more effective treatments.\n\nStrength of Evidence – Recommended, Evidence (C)"
    }
  ],
  "references": {
    "mtus-link": "https://app.mdguidelines.com/state-guidelines/ca-mtus/opioids-2017/recommendations/post-operative-pain",
    "odg-link": ""
  }
}