{
  "treatment": {
    "index-name": "postoperative-nsaids",
    "label-name": "Postoperative NSAIDs",
    "treatment-type": "surgery-add-on"
  },
  "body-system": {
    "index-name": "neck-and-upper-back",
    "label-name": "Neck and Upper Back"
  },
  "version": {
    "mtus": "04/18/19",
    "odg": "",
    "policy-doc": "06/26/22",
    "created-by": "Bill",
    "comments": ""
  },
  "policies": [
    {
      "source": "mtus",
      "diagnosis": {
        "index-name": "surgery-add-on",
        "label-name": "Surgery Add-on"
      },
      "recommendation": "approve",
      "questions": [],
      "mtus-text": "NSAIDs for Acute, Subacute, Chronic, or Post-operative Cervicothoracic Pain\nRecommended. NSAIDs are recommended for treatment of acute, subacute, chronic, or post-operative cervicothoracic pain.\n\nStrength of Evidence – Recommended, Insufficient Evidence (I)\n\nLevel of Confidence – High\n\nIndications: Acute, subacute, chronic, or post-operative cervicothoracic pain; over-the-counter (OTC) agents may suffice and be tried first.\n\nBenefits: Modest reduction in spine pain and earlier recovery.\n\nHarms: Gastrointestinal bleeding, other bleeding, and possible delayed fracture healing. Possible elevated cardiovascular risks including myocardial infarction, especially for high-dose COX-2 inhibitors. Renal failure may occur particularly in the elderly or those with otherwise compromised function.\n\nFrequency/Dose/Duration: Scheduled dosage rather than as-needed preferable; as-needed prescriptions may be reasonable for mild or moderate chronic cervicothoracic pain.\n\nIndications for Discontinuation: Resolution of cervicothoracic pain, lack of efficacy, or development of adverse effects that necessitate discontinuation."
    }
  ],
  "references": {
    "mtus-link": "https://app.mdguidelines.com/state-guidelines/ca-mtus/cervical-and-thoracic-spine/diagnostic-and-treatment-recommendations/postsurgical-spine-pain/treatment-recommendations",
    "odg-link": ""
  }
}