{
  "treatment": {
    "index-name": "capsular-plication",
    "label-name": "Capsular Plication",
    "treatment-type": "surgery"
  },
  "body-system": {
    "index-name": "shoulder-disorders",
    "label-name": "Shoulder Disorders"
  },
  "version": {
    "mtus": "12/01/17",
    "odg": "",
    "policy-doc": "11/04/22",
    "created-by": "Cade",
    "comments": ""
  },
  "policies": [
    {
      "source": "mtus",
      "diagnosis": {
        "index-name": "multidirectional-instability",
        "label-name": "Multidirectional Instability"
      },
      "recommendation": "1",
      "questions": [
        {
          "#": "1",
          "question": "Does the injured worker have recurrent, multidirectional shoulder instability or dislocation?",
          "option-list": [
            {
              "option": "yes",
              "action": "approve"
            },
            {
              "option": "no",
              "action": "deny"
            }
          ]
        }
      ],
      "mtus-text": "Recommended. Inferior capsular shift procedure, capsular plication or superior shift of redundant inferior capsule is recommended for multidirectional and posterior instability.\n\nStrength of Evidence – Recommended, Insufficient Evidence (I)\n\nIndications: Recurrent, multidirectional shoulder instability or dislocation.\n\nRationale: There are no quality studies evaluating treatment of multidirectional and posterior instability and no randomized comparative trials of available operative approaches. (Hewitt 03) Surgical results in case series have suggested some benefits. (Bak 00; Choi 02; Fronek 89; Neer 80; Pollock 93, 00; Hamada 99; Hurley 92; McIntyre 97; Antoniou 00; Duncan 93; Tauro 00; Schwartz 87; Treacy 99; Tibone 90, 93; Wolf 98) Currently arthroscopic capsular placation is replacing open capsular shifts.  There are few options for these patients other than muscle strengthening. Surgery is invasive, has adverse effects, and is high cost. However, for some patients there is no other reasonable alternative for treatment, thus surgery is recommended."
    },
    {
      "source": "mtus",
      "diagnosis": {
        "index-name": "posterior-instability",
        "label-name": "Posterior Instability"
      },
      "recommendation": "1",
      "questions": [
        {
          "#": "1",
          "question": "Does the injured worker have recurrent, multidirectional shoulder instability or dislocation?",
          "option-list": [
            {
              "option": "yes",
              "action": "approve"
            },
            {
              "option": "no",
              "action": "deny"
            }
          ]
        }
      ],
      "mtus-text": "Recommended. Inferior capsular shift procedure, capsular plication or superior shift of redundant inferior capsule is recommended for multidirectional and posterior instability.\n\nStrength of Evidence – Recommended, Insufficient Evidence (I)\n\nIndications: Recurrent, multidirectional shoulder instability or dislocation.\n\nRationale: There are no quality studies evaluating treatment of multidirectional and posterior instability and no randomized comparative trials of available operative approaches. (Hewitt 03) Surgical results in case series have suggested some benefits. (Bak 00; Choi 02; Fronek 89; Neer 80; Pollock 93, 00; Hamada 99; Hurley 92; McIntyre 97; Antoniou 00; Duncan 93; Tauro 00; Schwartz 87; Treacy 99; Tibone 90, 93; Wolf 98) Currently arthroscopic capsular placation is replacing open capsular shifts.  There are few options for these patients other than muscle strengthening. Surgery is invasive, has adverse effects, and is high cost. However, for some patients there is no other reasonable alternative for treatment, thus surgery is recommended."
    }
  ],
  "references": {
    "mtus-link": "https://app.mdguidelines.com/acoem-section/state-guidelines%2Fca-mtus%2Fshoulder-disorders%2Ftreatment-recommendations%2Fshoulder-dislocation%2Fsurgical-considerations",
    "odg-link": ""
  }
}