{
  "treatment": {
    "index-name": "chondroplasty",
    "label-name": "Chondroplasty",
    "treatment-type": "surgery"
  },
  "body-system": {
    "index-name": "shoulder-disorders",
    "label-name": "Shoulder Disorders"
  },
  "version": {
    "mtus": "12/01/17",
    "odg": "",
    "policy-doc": "11/04/22",
    "created-by": "Cade",
    "comments": ""
  },
  "policies": [
    {
      "source": "mtus",
      "diagnosis": {
        "index-name": "osteoarthrosis-of-the-shoulder",
        "label-name": "Osteoarthrosis of the Shoulder"
      },
      "recommendation": "deny",
      "questions": [],
      "mtus-text": "Not Recommended. Chondroplasty is not recommended for treatment of shoulder osteoarthrosis.\n\nStrength of Evidence – Not Recommended, Insuffcient Evidence (I)\n\nRationale: There are no quality trials evaluating arthroscopy for patients with OA of the shoulder. Arthroscopy is believed to be particularly helpful for planning an operative approach and for evaluating and treating non-osteoarthrosis conditions such as rotator cuff tendinopathies, SLAP tears, etc. (Sperling 06) Arthroscopy is invasive, has adverse effects, and is costly. However, it is also the primary means to address these other associated conditions, thus it is recommended for patients thought to have those conditions. Chondroplasty is invasive, has adverse effects, is costly, and lacks efficacy in the knee according to high quality evidence (see Knee Disorders Guideline). (Moseley 02) Thus, chondroplasty is not recommended for treatment of shoulder osteoarthrosis."
    }
  ],
  "references": {
    "mtus-link": "https://app.mdguidelines.com/acoem-section/state-guidelines%2Fca-mtus%2Fshoulder-disorders%2Ftreatment-recommendations%2Fshoulder-osteoarthrosis%2Fsurgical-considerations",
    "odg-link": ""
  }
}