{
  "treatment": {
    "index-name": "routine-surgical-repair-of-acromioclavicular-joint-separation",
    "label-name": "Routine Surgical Repair of Acromioclavicular Joint Separation",
    "treatment-type": "surgery"
  },
  "body-system": {
    "index-name": "shoulder-disorders",
    "label-name": "Shoulder Disorders"
  },
  "version": {
    "mtus": "12/01/17",
    "odg": "",
    "policy-doc": "11/04/22",
    "created-by": "Cade",
    "comments": ""
  },
  "policies": [
    {
      "source": "mtus",
      "diagnosis": {
        "index-name": "grade-iii-acromioclavicular-joint-separation",
        "label-name": "Grade III Acromioclavicular Joint Separation"
      },
      "recommendation": "deny",
      "questions": [],
      "mtus-text": "Moderately Not Recommended. Routine surgical repair is moderately not recommended for Grade III acromioclavicular joint separations. (Larsen 86; Bannister 89)\n\nStrength of Evidence – Moderately Not Recommended, Evidence (B)"
    }
  ],
  "references": {
    "mtus-link": "https://app.mdguidelines.com/acoem-section/state-guidelines%2Fca-mtus%2Fshoulder-disorders%2Ftreatment-recommendations%2Facromioclavicular-sprains-and-dislocations%2Fsurgical-considerations",
    "odg-link": ""
  }
}