{
  "treatment": {
    "index-name": "total-shoulder-hemiarthroplasty",
    "label-name": "Total Shoulder Hemiarthroplasty",
    "treatment-type": "surgery"
  },
  "body-system": {
    "index-name": "shoulder-disorders",
    "label-name": "Shoulder Disorders"
  },
  "version": {
    "mtus": "12/01/17",
    "odg": "",
    "policy-doc": "11/04/22",
    "created-by": "Cade",
    "comments": ""
  },
  "policies": [
    {
      "source": "mtus",
      "diagnosis": {
        "index-name": "arthritides",
        "label-name": "Arthritides"
      },
      "recommendation": "1",
      "questions": [
        {
          "#": "1",
          "question": "Does the injured worker have moderate to severe arthritides?",
          "option-list": [
            {
              "option": "yes",
              "action": "2"
            },
            {
              "option": "no",
              "action": "deny"
            }
          ]
        },
        {
          "#": "2",
          "question": "Has the injured worker had symptoms of at least 6 to 12 months that are insufficiently managed with non-operative measures?",
          "option-list": [
            {
              "option": "yes",
              "action": "3"
            },
            {
              "option": "no",
              "action": "deny"
            }
          ]
        },
        {
          "#": "3",
          "question": "Has the injured worker failed at least 2 different NSAIDs or analgesics, activity modification(s), exercises, viscosupplementation, and/or glucocorticosteroid injection(s)?",
          "option-list": [
            {
              "option": "yes",
              "action": "4"
            },
            {
              "option": "no",
              "action": "deny"
            }
          ]
        },
        {
          "#": "4",
          "question": "Does the injured worker have massive rotator cuff tear(s) combined with degenerative joint disease?",
          "option-list": [
            {
              "option": "yes",
              "action": "approve"
            },
            {
              "option": "no",
              "action": "no_recommendation"
            }
          ]
        }
      ],
      "mtus-text": "Moderately Recommended. Total shoulder arthroplasty or hemiarthroplasty is moderately recommended for moderate to severe arthritides. Humeral resurfacing (similar to humeral head replacement) is recommended as an option.\n\nStrength of Evidence (Total or hemiarthroplasties) – Moderately Recommended, Evidence (B)\n\nStrength of Evidence (Resurfacing) – Recommended, Insufficient Evidence (I)\n\nIndications: Moderate to severe arthritides with symptoms of at least 6 to 12 months that are insufficiently managed with non-operative measures. (Lo 05; Gartsman 05) Patients should generally have failed at least 2 different NSAIDs or analgesics, activity modification(s), exercises, viscosupplementation, and/or glucocorticosteroid injection(s). Patients with diffuse degenerative joint disease whether OA, rheumatoid arthritis or other cause, are generally good candidates for total joint arthroplasties, (Lo 05; Gartsman 05) although some may be candidates for hemiarthroplasties. (Smith 98) Hemiarthroplasties have been generally recommended for patients with massive rotator cuff tears combined with degenerative joint disease. (Smith 98)\n\nRationale: There are no quality trials comparing shoulder arthroplasty with either no intervention or a quality non-operative management protocol. However, there is one high- and one moderate-quality trial each comparing total shoulder arthroplasty with hemiarthroplasty for the treatment of glenohumeral osteoarthritis, both of which suggest total shoulder arthroplasty is superior or trends toward superiority over hemiarthroplasty. Both trials document major improvements compared with pre-operative measures of pain and function among these patients. (Lo 05; Gartsman J Bone Joint Surg Am 00) There are few quality trials comparing different operative approaches and none address long-term outcomes. Shoulder arthroplasty is invasive, has adverse effects, and is costly. These procedures are recommended for select patients who failed multiple attempts at controlling symptoms short of arthroplasty."
    }
  ],
  "references": {
    "mtus-link": "https://app.mdguidelines.com/acoem-section/state-guidelines%2Fca-mtus%2Fshoulder-disorders%2Ftreatment-recommendations%2Fshoulder-osteoarthrosis%2Fsurgical-considerations",
    "odg-link": ""
  }
}