{
  "treatment": {
    "index-name": "chondroplasty-and-debridement",
    "label-name": "Chondroplasty and Debridement",
    "treatment-type": "surgery"
  },
  "body-system": {
    "index-name": "knee-disorders",
    "label-name": "Knee Disorders"
  },
  "version": {
    "mtus": "09/21/20",
    "odg": "",
    "policy-doc": "12/20/22",
    "created-by": "Cade",
    "comments": ""
  },
  "policies": [
    {
      "source": "mtus",
      "diagnosis": {
        "index-name": "knee-osteoarthrosis",
        "label-name": "Knee Osteoarthrosis"
      },
      "recommendation": "deny",
      "questions": [],
      "mtus-text": "Moderately Not Recommended. Chondroplasty and debridement are moderately not recommended for treatment of knee osteoarthrosis.\n\nStrength of Evidence – Moderately Not Recommended, Evidence (B)\n\nLevel of Confidence – Moderate\n\nRationale – A high-quality, sham-controlled trial suggested there is no benefit of chondroplasty and debridement for treatment of knee osteoarthrosis.(375) A second trial suggested debridement was not helpful in comparison with joint lavage.(1526) One substantially lower quality trial provided conflicting evidence regarding how debridement compared with lavage.(1527) Other trials evaluating electrocautery and radiofrequency treatments suggest no benefits.(1528, 1529) Thus, the higher quality trials and balance of evidence indicate that chondroplasty and debridement are ineffective and are not recommended for treatment of knee osteoarthrosis. However, there are lesions that are thought to be mechanical in nature and require debridement, typically in the context of arthroscopic evaluation of meniscal tears with mechanical symptoms."
    }
  ],
  "references": {
    "mtus-link": "https://app.mdguidelines.com/acoem-section/state-guidelines%2Fca-mtus%2Fknee-disorders%2Fdiagnostic-and-treatment-recommendations%2Fosteoarthrosis%2Ftreatment-recommendations%2Fsurgical-considerations",
    "odg-link": ""
  }
}