{
  "treatment": {
    "index-name": "osteochondral-autograft",
    "label-name": "Osteochondral Autograft",
    "treatment-type": "surgery"
  },
  "body-system": {
    "index-name": "knee-disorders",
    "label-name": "Knee Disorders"
  },
  "version": {
    "mtus": "09/21/20",
    "odg": "",
    "policy-doc": "12/20/22",
    "created-by": "Cade",
    "comments": ""
  },
  "policies": [
    {
      "source": "mtus",
      "diagnosis": {
        "index-name": "femoral-condyle-deficit",
        "label-name": "Femoral Condyle Deficit"
      },
      "recommendation": "1",
      "questions": [
        {
          "#": "1",
          "question": "Is the injured worker less than 40 years old with an active lifestyle with a single, traumatically caused Grade III or IV femoral condyle deficit?",
          "option-list": [
            {
              "option": "yes",
              "action": "2"
            },
            {
              "option": "no",
              "action": "deny"
            }
          ]
        },
        {
          "#": "2",
          "question": "Does the injured worker have any of the following conditions: obesity, inflammatory conditions or osteoarthrosis, other chondral defects, associated ligamentous or meniscus pathology, or older than 55 years of age?",
          "option-list": [
            {
              "option": "yes",
              "action": "deny"
            },
            {
              "option": "no",
              "action": "approve"
            }
          ]
        }
      ],
      "mtus-text": "Moderately Recommended. Cartilage grafting, osteochondral autografts, and/or transplantation is moderately recommended for select patients.\n\nStrength of Evidence – Moderately Recommended, Evidence (B)\n\nIndications – Select patients less than 40 years old with active lifestyles with a single, traumatically caused Grade III or IV femoral condyle deficit. Deficit diameter recommended not to exceed 20mm for osteochondral autograft transplants, although criteria up to 4cm2 has been used. Grafts and transplants not recommended for those with obesity, inflammatory conditions or osteoarthrosis, other chondral defects, associated ligamentous or meniscus pathology, or who are older than 55 years of age.\n\nRationale – There are no sham-controlled trials. However, there are quality trials that have compared different management approaches for these cartilaginous defects.(1566-1570) One trial with multiple reports suggests that at up to 10 years, autologous osteochondral transplantation is superior to microfracture in competitive athletes(349, 1540, 1571) and another trial by the same author also found superiority when performed in conjunction with ACL reconstruction.(1572)\n\nTrials have included rigorous enrollment criteria that have on at least one occasion only included conditioned athletes.(349) As most trials have excluded obesity, it appears likely that at least 50% of the potential population would be excluded solely by that criterion. Thus, it is unclear how few patients would actually be eligible for these procedures. There are increasing numbers of longer term studies that have followed treated patients from 3-10 years(349, 1531, 1540, 1546, 1571, 1572) that have reported persistent benefits.Although, further studies with long follow-ups and larger sample sizes are needed. Cartilage grafts and/or transplants are invasive, have potential for adverse effects, and are high cost. These procedures have evidence of efficacy and are recommended for select patients."
    }
  ],
  "references": {
    "mtus-link": "https://app.mdguidelines.com/acoem-section/state-guidelines%2Fca-mtus%2Fknee-disorders%2Fdiagnostic-and-treatment-recommendations%2Fosteoarthrosis%2Ftreatment-recommendations%2Fsurgical-considerations",
    "odg-link": ""
  }
}