{
  "treatment": {
    "index-name": "surgical-drainage",
    "label-name": "Surgical Drainage",
    "treatment-type": "surgery"
  },
  "body-system": {
    "index-name": "knee-disorders",
    "label-name": "Knee Disorders"
  },
  "version": {
    "mtus": "09/21/20",
    "odg": "",
    "policy-doc": "12/21/22",
    "created-by": "Cade",
    "comments": ""
  },
  "policies": [
    {
      "source": "mtus",
      "diagnosis": {
        "index-name": "knee-bursitis",
        "label-name": "Knee Bursitis"
      },
      "recommendation": "1",
      "questions": [
        {
          "#": "1",
          "question": "Does the injured worker meet any of the following criteria:  Knee bursitis that is either infected, clinically thought to be infected, or not infected but present for at least approximately 6 to 8 weeks without trending towards resolution despite being treated with soft padding and activity modifications?",
          "option-list": [
            {
              "option": "yes",
              "action": "approve"
            },
            {
              "option": "no",
              "action": "deny"
            }
          ]
        }
      ],
      "mtus-text": "Recommended. Surgical drainage is recommended for treatment of knee bursitis.\n\nStrength of Evidence – Recommended, Insufficient Evidence (I)\n\nIndications – Knee bursitis that is either infected, clinically thought to be infected, or not infected but present for at least approximately 6 to 8 weeks without trending towards resolution despite being treated with soft padding and activity modifications."
    }
  ],
  "references": {
    "mtus-link": "https://app.mdguidelines.com/acoem-section/state-guidelines%2Fca-mtus%2Fknee-disorders%2Fdiagnostic-and-treatment-recommendations%2Fbursitis%2Ftreatment-recommendations%2Fsurgical-considerations",
    "odg-link": ""
  }
}