{
  "treatment": {
    "index-name": "disc-replacement",
    "label-name": "Disc Replacement",
    "treatment-type": "surgery"
  },
  "body-system": {
    "index-name": "low-back",
    "label-name": "Low Back"
  },
  "version": {
    "mtus": "11/23/21",
    "odg": "",
    "policy-doc": "09/12/22",
    "created-by": "Cade",
    "comments": ""
  },
  "policies": [
    {
      "source": "mtus",
      "diagnosis": {
        "index-name": "subacute-lumbar-radiculopathy",
        "label-name": "Subacute Lumbar Radiculopathy"
      },
      "recommendation": "no_recommendation",
      "questions": [],
      "mtus-text": "No Recommendation. There is no recommendation for artificial disc replacement as a treatment for subacute or chronic radiculopathy or myelopathy.†\n\nStrength of Evidence – No Recommendation, Insufficient Evidence (I)\n\nLevel of Confidence – Low"
    },
    {
      "source": "mtus",
      "diagnosis": {
        "index-name": "chronic-lumbar-radiculopathy",
        "label-name": "Chronic Lumbar Radiculopathy"
      },
      "recommendation": "no_recommendation",
      "questions": [],
      "mtus-text": "No Recommendation. There is no recommendation for artificial disc replacement as a treatment for subacute or chronic radiculopathy or myelopathy.†\n\nStrength of Evidence – No Recommendation, Insufficient Evidence (I)\n\nLevel of Confidence – Low"
    },
    {
      "source": "mtus",
      "diagnosis": {
        "index-name": "subacute-lumbar-myelopathy",
        "label-name": "Subacute Lumbar Myelopathy"
      },
      "recommendation": "no_recommendation",
      "questions": [],
      "mtus-text": "No Recommendation. There is no recommendation for artificial disc replacement as a treatment for subacute or chronic radiculopathy or myelopathy.†\n\nStrength of Evidence – No Recommendation, Insufficient Evidence (I)\n\nLevel of Confidence – Low"
    },
    {
      "source": "mtus",
      "diagnosis": {
        "index-name": "chronic-lumbar-myelopathy",
        "label-name": "Chronic Lumbar Myelopathy"
      },
      "recommendation": "no_recommendation",
      "questions": [],
      "mtus-text": "No Recommendation. There is no recommendation for artificial disc replacement as a treatment for subacute or chronic radiculopathy or myelopathy.†\n\nStrength of Evidence – No Recommendation, Insufficient Evidence (I)\n\nLevel of Confidence – Low"
    },
    {
      "source": "mtus",
      "diagnosis": {
        "index-name": "chronic-non-specific-low-back-pain",
        "label-name": "Chronic Non-specific Low Back Pain"
      },
      "recommendation": "deny",
      "questions": [],
      "mtus-text": "Not Recommended. Artificial disc replacement is not recommended as a treatment for chronic non-specific low back pain or any other spinal pain syndrome.\n\nStrength of Evidence – Not Recommended, Insufficient Evidence (I)\n\nLevel of Confidence – Low\n\nRationale for Recommendation - There is one moderate-quality trial comparing disc replacement with only ~2 weeks of a rehabilitation program, showing some evidence of superiority over 2 years based on Oswestry Disability Index scores, however, the study reported actually worse adjacent segment disease and facet degeneration in the surgical arm(2103-2105, 2427) and no significant advantage in range of motion.(2106) The rehabilitation was so short that it may likely be susceptible to both undertreatment and attention biases. A few comparative RCTs suggest potential superiority of disc replacement to fusion over short to intermediate terms.(2015, 2054, 2056, 2057, 2069, 2107, 2108) Results from trials are not generalizable to those with multi-level degeneration of the disc. One trial has now been reported to 5 years of follow up, suggesting superiority over fusion (2069), but no longer-term quality studies have been reported.\n\nAvailable RCTs compare disc replacement to fusion (2015, 2069, 2107, 2109, 2428, 2429) and as noted in the fusion section of this Guideline, fusion has not been shown to improve the outcomes over modern non-operative care. The follow-up in the published RCTs is now up to 5 years.  Some may consider this too short to be considered standard treatment. There is evidence that higher volume surgical centers have shorter hospital stays and lower complication rates.(2110) Complication rates are not inconsiderable and surgical candidates should be fully apprised of these reported complications which include 2.8 adverse events per patient, 5% device failures, 5% neurological deteriorations at 24 months compared with baseline, and 33.3% failure to have at least a 25% decrease in the ODI at 24 months compared with baseline. Additional research including demonstrated long-term safety and efficacy would be needed prior to a recommendation in support."
    },
    {
      "source": "mtus",
      "diagnosis": {
        "index-name": "spinal-pain-syndromes",
        "label-name": "Spinal Pain Syndromes"
      },
      "recommendation": "deny",
      "questions": [],
      "mtus-text": "Not Recommended. Artificial disc replacement is not recommended as a treatment for chronic non-specific low back pain or any other spinal pain syndrome.\n\nStrength of Evidence – Not Recommended, Insufficient Evidence (I)\n\nLevel of Confidence – Low\n\nRationale for Recommendation - There is one moderate-quality trial comparing disc replacement with only ~2 weeks of a rehabilitation program, showing some evidence of superiority over 2 years based on Oswestry Disability Index scores, however, the study reported actually worse adjacent segment disease and facet degeneration in the surgical arm(2103-2105, 2427) and no significant advantage in range of motion.(2106) The rehabilitation was so short that it may likely be susceptible to both undertreatment and attention biases. A few comparative RCTs suggest potential superiority of disc replacement to fusion over short to intermediate terms.(2015, 2054, 2056, 2057, 2069, 2107, 2108) Results from trials are not generalizable to those with multi-level degeneration of the disc. One trial has now been reported to 5 years of follow up, suggesting superiority over fusion (2069), but no longer-term quality studies have been reported.\n\nAvailable RCTs compare disc replacement to fusion (2015, 2069, 2107, 2109, 2428, 2429) and as noted in the fusion section of this Guideline, fusion has not been shown to improve the outcomes over modern non-operative care. The follow-up in the published RCTs is now up to 5 years.  Some may consider this too short to be considered standard treatment. There is evidence that higher volume surgical centers have shorter hospital stays and lower complication rates.(2110) Complication rates are not inconsiderable and surgical candidates should be fully apprised of these reported complications which include 2.8 adverse events per patient, 5% device failures, 5% neurological deteriorations at 24 months compared with baseline, and 33.3% failure to have at least a 25% decrease in the ODI at 24 months compared with baseline. Additional research including demonstrated long-term safety and efficacy would be needed prior to a recommendation in support."
    }
  ],
  "references": {
    "mtus-link": "https://app.mdguidelines.com/acoem-section/state-guidelines%2Fca-mtus%2Flow-back-disorders-november-2021%2Frecommendations%2Flow-back-pain-radicular-pain%2Ftreatment-recommendations%2Fsurgical-considerations",
    "odg-link": ""
  }
}