{
  "treatment": {
    "index-name": "extracorporeal-shockwave-therapy-(eswt)-for-post-operative-achilles-tendinopathy",
    "label-name": "Extracorporeal Shockwave Therapy (ESWT) for Post-operative Achilles Tendinopathy",
    "treatment-type": "surgery-add-on"
  },
  "body-system": {
    "index-name": "ankle-and-foot-disorders",
    "label-name": "Ankle and Foot Disorders"
  },
  "version": {
    "mtus": "04/18/19",
    "odg": "",
    "policy-doc": "01/27/23",
    "created-by": "Cade",
    "comments": ""
  },
  "policies": [
    {
      "source": "mtus",
      "diagnosis": {
        "index-name": "surgery-add-on",
        "label-name": "Surgery Add-on"
      },
      "recommendation": "deny",
      "questions": [],
      "mtus-text": "Not Recommended. Extracorporeal shockwave therapy is not recommended for treatment of acute, subacute, or post-operative Achilles tendinopathy.\n\nStrength of Evidence – Not Recommended, Insuffcient Evidence (I)\n\nLevel of Confidence – Moderate\n\nIndications: Moderate to severe recalcitrant Achilles tendinopathy. Patients should have failed NSAIDs, eccentric exercises, therapy, and local injection(s).(28, 50)\n\nFrequency/Dose/Duration: Three to 4 weekly sessions over 3 to 4 consecutive weeks, using 2,000 shocks at 0.1 to 0.2 J/mm2 administered in conjunction with an eccentric exercise program.\n\nIndications for Discontinuation: Completion of course, resolution of symptoms, adverse effects, intolerance, non-compliance.\n\nRationale: Evidence of efficacy for ESWT in treatment of patients with chronic Achilles tendinopathy is conflicting. There are two high-quality RCTs comparing ESWT with sham ESWT(62, 63), and one high-quality study comparing ESWT with a non-treated control group.(61) Adequacy of blinding of ESWT is unclear.(62, 63) One sham-controlled trial failed to demonstrate efficacy(63) while another showed statistically significant functional improvement, but questionable clinical improvement,(62) raising questions of treatment effectiveness. The dosing and treatment intervals were different between the trial that failed to demonstrate efficacy(63) and those that did, which may have accounted for the variable effects. The trial with a non-treatment control group suggested ESWT was superior to non-treatment(61); however, the level of benefit was modest and there was no superiority of the ESWT to eccentric exercises.\n\nTwo trials evaluated patients with chronic Achilles tendon disorders who failed other treatment.(28, 50) The first study compared ESWT and eccentric exercises and found statistically significant differences between the groups, with EWST patient outcomes superior.(50) The second study found a combination of eccentric exercises plus ESWT superior to exercises alone considering statistically significant differences alone.(28) However, although the groups receiving and not receiving ESWT had statistical differences, the clinical significance of the findings is uncertain because they were within the limits of reproducibility of one of the primary measurement instruments.(51) The investigators in these trials administered ESWT with timing and number of shocks similar to the authors of the successful sham ESWT study.(62)\n\nThe effectiveness of ESWT is unclear as the studies that showed differences between ESWT and non-ESWT groups were modest and may have reflected statistically rather than clinically significant differences. ESWT has not conclusively shown itself to be invasive in the literature cited in this section when administered as specified by the investigators.(28, 50, 61, 62) Tendon rupture was reported in one study(63); however, the circumstances of the ruptures cast doubt on whether ESWT was a contributing factor. There are no quality studies for treatment of acute, subacute, and post-operative Achilles tendinopathy patients, and given other treatment options, ESWT is not recommended for acute, subacute, or post-operative Achilles tendinopathy."
    }
  ],
  "references": {
    "mtus-link": "https://app.mdguidelines.com/acoem-section/acoem%2Fdisorders%2Fankle-and-foot-disorders%2Fdiagnostic-and-treatment-recommendations%2Fachilles-tendinopathy%2Ftreatment-recommendations%2Fallied-health-interventions",
    "odg-link": ""
  }
}