{
  "treatment": {
    "index-name": "heat-therapy-for-post-operative-achilles-tendinopathy",
    "label-name": "Heat Therapy for Post-operative Achilles Tendinopathy",
    "treatment-type": "surgery-add-on"
  },
  "body-system": {
    "index-name": "ankle-and-foot-disorders",
    "label-name": "Ankle and Foot Disorders"
  },
  "version": {
    "mtus": "04/18/19",
    "odg": "",
    "policy-doc": "01/20/23",
    "created-by": "Cade",
    "comments": ""
  },
  "policies": [
    {
      "source": "mtus",
      "diagnosis": {
        "index-name": "surgery-add-on",
        "label-name": "Surgery Add-on"
      },
      "recommendation": "approve",
      "questions": [],
      "mtus-text": "Recommended. Heat is recommended for acute, subacute, chronic, or post-operative Achilles tendinopathy.\n\nStrength of Evidence – Recommended, Insufficient Evidence (I)\n\nLevel of Confidence – Low\n\nIndications: All patients with Achilles tendinopathy.\n\nFrequency/Dose/Duration: Approximately 3 to 5 self-applications per day as needed.\n\nIndications for Discontinuation: Resolution, adverse effects, non-compliance.\n\nRationale: There is one moderate-quality study of cryotherapy considering tendon blood flow as an outcome.(53) (Knobloch Am J Sports Med 08) Clinical outcomes were not included and this study’s usefulness is limited. There is no quality evidence for the use of cryotherapy or heat as treatments for Achilles tendinopathy. In a non-randomized prospective study, cryotherapy was demonstrated through Doppler ultrasound to result in temporary reduction in increased blood flow through the microcirculation.(54) (Knobloch 07) The use of ice has been implemented as part of a multi-intervention strategy,(55) (Mayer 07) although the individual contribution towards healing is unknown. Cryotherapy and heat are non-invasive, have few adverse effects, are not costly when self-administered, and are recommended."
    }
  ],
  "references": {
    "mtus-link": "https://app.mdguidelines.com/acoem-section/acoem%2Fdisorders%2Fankle-and-foot-disorders%2Fdiagnostic-and-treatment-recommendations%2Fachilles-tendinopathy%2Ftreatment-recommendations%2Fhot-and-cold-therapies",
    "odg-link": ""
  }
}