{
  "treatment": {
    "index-name": "lidocaine-patches-for-post-operative-plantar-fasciitis",
    "label-name": "Lidocaine Patches for Post-operative Plantar Fasciitis",
    "treatment-type": "surgery-add-on"
  },
  "body-system": {
    "index-name": "ankle-and-foot-disorders",
    "label-name": "Ankle and Foot Disorders"
  },
  "version": {
    "mtus": "04/18/19",
    "odg": "",
    "policy-doc": "01/22/23",
    "created-by": "Cade",
    "comments": ""
  },
  "policies": [
    {
      "source": "mtus",
      "diagnosis": {
        "index-name": "surgery-add-on",
        "label-name": "Surgery Add-on"
      },
      "recommendation": "no_recommendation",
      "questions": [],
      "mtus-text": "No Recommendation. There is no recommendation for or against the use of lidocaine patches for the treatment of acute, subacute, chronic, or post-operative plantar fasciitis.\n\nStrength of Evidence – No Recommendation, Insuffcient Evidence (I)\n\nLevel of Confidence – Low\n\nRationale: There are no quality trials of lidocaine patch use for plantar fasciitis. As one goal of therapies for plantar heel disorders is pain relief, this may represent a potential treatment on a short-term basis while other concomitant interventions, such as plantar fascia stretching exercises are being performed. However, lidocaine patches may be somewhat difficult to use on weight-bearing surfaces and with shoe wear. Patches are low cost for a short-term trial, but costs accumulate rapidly over time. Adverse effects of systemic absorption of topical anesthetics have prompted an FDA warning. There is no recommendation for or against lidocaine patches for plantar heel pain."
    }
  ],
  "references": {
    "mtus-link": "https://app.mdguidelines.com/acoem-section/acoem%2Fdisorders%2Fankle-and-foot-disorders%2Fdiagnostic-and-treatment-recommendations%2Fplantar-heel-pain%2Ftreatment-recommendations%2Fmedications",
    "odg-link": ""
  }
}