{
  "treatment": {
    "index-name": "opioids-for-post-operative-achilles-tendinopathy",
    "label-name": "Opioids for Post-operative Achilles Tendinopathy",
    "treatment-type": "surgery-add-on"
  },
  "body-system": {
    "index-name": "ankle-and-foot-disorders",
    "label-name": "Ankle and Foot Disorders"
  },
  "version": {
    "mtus": "04/18/19",
    "odg": "",
    "policy-doc": "01/27/23",
    "created-by": "Cade",
    "comments": ""
  },
  "policies": [
    {
      "source": "mtus",
      "diagnosis": {
        "index-name": "surgery-add-on",
        "label-name": "Surgery Add-on"
      },
      "recommendation": "1",
      "questions": [
        {
          "#": "1",
          "question": "Does the patient have moderate to severe pain in the immediate post-operative period for achilles tendinopathy?",
          "option-list": [
            {
              "option": "yes",
              "action": "2"
            },
            {
              "option": "no",
              "action": "deny"
            }
          ]
        },
        {
          "#": "2",
          "question": "Does the patient have a severe injury with a clear rationale for use (objective functional limitations due to pain resulting from the medical problem)?",
          "option-list": [
            {
              "option": "yes",
              "action": "3"
            },
            {
              "option": "no",
              "action": "deny"
            }
          ]
        },
        {
          "#": "3",
          "question": "Has the patient had other more efficacious treatments, and either: failed and/or have reasonable expectations of the immediate need for an opioid to obtain sleep the evening after the surgery?",
          "option-list": [
            {
              "option": "yes",
              "action": "4"
            },
            {
              "option": "no",
              "action": "deny"
            }
          ]
        },
        {
          "#": "4",
          "question": "Have prescription databases (usually referred to as Prescription Drug Monitoring Program (PDMP)) been checked and not shown evidence for conflicting opioid prescriptions from other providers or evidence of misreporting?",
          "option-list": [
            {
              "option": "yes",
              "action": "5"
            },
            {
              "option": "no",
              "action": "deny"
            }
          ]
        },
        {
          "#": "5",
          "question": "Have non-opioid prescriptions (e.g., NSAIDs, acetaminophen) absent contraindication(s) been used as the primary treatment and will accompany an opioid prescription?",
          "option-list": [
            {
              "option": "yes",
              "action": "6"
            },
            {
              "option": "no",
              "action": "deny"
            }
          ]
        },
        {
          "#": "6",
          "question": "Select option \"Yes\" if user has closely read and understood the following. 1) Low-dose opioids may be needed in the elderly who have greater susceptibility to the adverse risks of opioids. Those of lower body weight may also require lower opioid doses. 2) Dispensing quantities should be only what is needed to treat the pain. Short-acting opioids are recommended for treatment of acute pain. Long-acting opioids are not recommended.",
          "option-list": [
            {
              "option": "yes",
              "action": "7"
            },
            {
              "option": "no",
              "action": "deny"
            }
          ]
        },
        {
          "#": "7",
          "question": "Does the patient have contraindications for taking opioids as described below?\n\nDue to greater than 10-fold elevated risks of adverse effects and death, considerable caution is warranted among those using other sedating medications and substances including: i) benzodiazepines, ii) anti-histamines (H1-blockers), and/or iii) illicit substances.(105, 109, 167, 168) Patients should not receive opioids if they use illicit substances unless there is objective evidence of significant trauma or moderate to severe injuries. Considerable caution is also warranted among those who are unemployed as the reported risks of death are also greater than 10-fold.(109, 167) Due to elevated risk of death and adverse effects, caution is also warranted when considering prescribing an opioid for patients with any of the following characteristics: depression, anxiety, personality disorder, untreated sleep disorders, substance abuse history, current alcohol use or current tobacco use, attention deficit hyperactivity disorder (ADHD), post-traumatic stress disorder (PTSD), suicidal risk, impulse control problems, thought disorders, psychotropic medication use, chronic obstructive pulmonary disease (COPD), asthma, or recurrent pneumonia.(78, 102, 104, 108, 109, 169-186) Considerable caution is also warranted among those with other comorbidities such as chronic hepatitis and/or cirrhosis,(187) as well as coronary artery disease, dysrhythmias, cerebrovascular disease, orthostatic hypotension, asthma, recurrent pneumonia, thermoregulatory problems, advanced age (especially with mentation issues, fall risk, debility), osteopenia, osteoporosis, water retention, renal failure, severe obesity, testosterone deficiency, erectile dysfunction, abdominal pain, gastroparesis, constipation, prostatic hypertrophy, oligomenorrhea, pregnancy, human immunodeficiency virus (HIV), ineffective birth control, herpes, allodynia, dementia, cognitive dysfunction and impairment, gait problems, tremor, concentration problems, insomnia, coordination problems, and slow reaction time. There are considerable drug-drug interactions that have been reported (see Opioids Guideline, Appendices 2-3).",
          "option-list": [
            {
              "option": "yes",
              "action": "deny"
            },
            {
              "option": "no",
              "action": "approve"
            }
          ]
        }
      ],
      "mtus-text": "Recommended. Limited use (a few days) of opioids is recommended for select patients who have undergone recent tarsal tunnel release and have large incisions or encountered significant complications and whose pain cannot be managed with other means.\n\nStrength of Evidence – Recommended, Insufficient Evidence (I)\n\nLevel of Confidence – Low"
    }
  ],
  "references": {
    "mtus-link": "https://app.mdguidelines.com/acoem-section/acoem%2Fdisorders%2Fankle-and-foot-disorders%2Fdiagnostic-and-treatment-recommendations%2Fachilles-tendinopathy%2Ftreatment-recommendations%2Fmedications",
    "odg-link": ""
  }
}