{
  "treatment": {
    "index-name": "polidocanol-injections-for-post-operative-achilles-tendinopathy",
    "label-name": "Polidocanol Injections for Post-operative Achilles Tendinopathy",
    "treatment-type": "surgery-add-on"
  },
  "body-system": {
    "index-name": "ankle-and-foot-disorders",
    "label-name": "Ankle and Foot Disorders"
  },
  "version": {
    "mtus": "04/18/19",
    "odg": "",
    "policy-doc": "01/21/23",
    "created-by": "Cade",
    "comments": ""
  },
  "policies": [
    {
      "source": "mtus",
      "diagnosis": {
        "index-name": "surgery-add-on",
        "label-name": "Surgery Add-on"
      },
      "recommendation": "no_recommendation",
      "questions": [],
      "mtus-text": "No Recommendation. There is no recommendation for or against the use of polidocanol injection for acute, subacute, or post-operative Achilles tendinopathy.\n\nStrength of Evidence – No Recommendation, Insufficient Evidence (I)\n\nLevel of Confidence – Low\n\nRationale: There is conflicting evidence on efficacy of prolotherapy injections for chronic Achilles tendinosis. One moderate- quality trial using hypertonic glucose suggested lack of efficacy.(74) Another trial suggested polidocanol was effective.(75) Thus, the overall evidence comparing treatment to placebo conflicts. A high-quality study showed no dose response of sclerosing injections; however, there was no placebo controlled group and the trial cannot infer efficacy.(76) Thus with conflicting evidence, there is no recommendation for or against these injections."
    }
  ],
  "references": {
    "mtus-link": "https://app.mdguidelines.com/acoem-section/acoem%2Fdisorders%2Fankle-and-foot-disorders%2Fdiagnostic-and-treatment-recommendations%2Fachilles-tendinopathy%2Ftreatment-recommendations%2Finjection-therapies",
    "odg-link": ""
  }
}