{
  "treatment": {
    "index-name": "post-operative-management-of-ankle-instability",
    "label-name": "Post-operative Management of Ankle Instability",
    "treatment-type": "surgery-add-on"
  },
  "body-system": {
    "index-name": "ankle-and-foot-disorders",
    "label-name": "Ankle and Foot Disorders"
  },
  "version": {
    "mtus": "04/18/19",
    "odg": "",
    "policy-doc": "01/28/23",
    "created-by": "Cade",
    "comments": ""
  },
  "policies": [
    {
      "source": "mtus",
      "diagnosis": {
        "index-name": "surgery-add-on",
        "label-name": "Surgery Add-on"
      },
      "recommendation": "approve",
      "questions": [],
      "mtus-text": "Recommended. Short-term cast immobilization with early mobilization and therapy are recommended for ankle instability.\n\nStrength of Evidence – Recommended, Insufficient Evidence (I)\n\nLevel of Confidence – Moderate\n\nRationale: There are two moderate-quality trials that compared early mobilization and physical therapy with 6-weeks cast immobilization for post-operative management for ligament reconstruction.(622, 623) There were no long-term differences between the groups, although results may be limited due to the sample sizes of each study. The early mobilization group demonstrated better range of motion at 6-weeks, although there were no differences in patient subjective functional scores. A pooled analysis of these two studies found the functional group had a statistically significant earlier return to work and sport than the casting group.(624) Thus, there is insufficient evidence to recommend one treatment over the other, and both are recommended according to informed preference of patient and provider."
    }
  ],
  "references": {
    "mtus-link": "https://app.mdguidelines.com/acoem-section/acoem%2Fdisorders%2Fankle-and-foot-disorders%2Fdiagnostic-and-treatment-recommendations%2Fankle-sprain%2Ftreatment-recommendations%2Fsurgical-considerations",
    "odg-link": ""
  }
}