{
  "treatment": {
    "index-name": "tendon-mobilization-for-post-operative-achilles-tendinopathy",
    "label-name": "Tendon Mobilization for Post-operative Achilles Tendinopathy",
    "treatment-type": "surgery-add-on"
  },
  "body-system": {
    "index-name": "ankle-and-foot-disorders",
    "label-name": "Ankle and Foot Disorders"
  },
  "version": {
    "mtus": "04/18/19",
    "odg": "",
    "policy-doc": "01/22/23",
    "created-by": "Cade",
    "comments": ""
  },
  "policies": [
    {
      "source": "mtus",
      "diagnosis": {
        "index-name": "surgery-add-on",
        "label-name": "Surgery Add-on"
      },
      "recommendation": "no_recommendation",
      "questions": [],
      "mtus-text": "No Recommendation. There is no recommendation for or against the use of massage and tendon mobilization for treatment of acute, subacute, chronic or post-operative Achilles tendinopathy.\n\nStrength of Evidence – No Recommendation, Insufficient Evidence (I)\n\nLevel of Confidence – Low\n\nRationale: There is no quality evidence for or against the use of massage and tendon mobilization to treat Achilles tendinopathy. It is possible for patients to self-administer these treatments, although there are no quality studies of self-administrations. Massage and tendon mobilization are not invasive, have minimal adverse effects, and depending on numbers of treatments, are low to moderate cost. There are other interventions with documented efficacy. Therefore, there is no recommendation for or against use of these treatments for Achilles tendinopathy."
    }
  ],
  "references": {
    "mtus-link": "https://app.mdguidelines.com/acoem-section/acoem%2Fdisorders%2Fankle-and-foot-disorders%2Fdiagnostic-and-treatment-recommendations%2Fachilles-tendinopathy%2Ftreatment-recommendations%2Fallied-health-interventions",
    "odg-link": ""
  }
}