{
  "treatment": {
    "index-name": "therapeutic-ultrasound-for-post-operative-plantar-fasciitis",
    "label-name": "Therapeutic Ultrasound for Post-operative Plantar Fasciitis",
    "treatment-type": "surgery-add-on"
  },
  "body-system": {
    "index-name": "ankle-and-foot-disorders",
    "label-name": "Ankle and Foot Disorders"
  },
  "version": {
    "mtus": "04/18/19",
    "odg": "",
    "policy-doc": "01/18/23",
    "created-by": "Cade",
    "comments": ""
  },
  "policies": [
    {
      "source": "mtus",
      "diagnosis": {
        "index-name": "surgery-add-on",
        "label-name": "Surgery Add-on"
      },
      "recommendation": "deny",
      "questions": [],
      "mtus-text": "Not Recommended. Therapeutic ultrasound is not recommended for treatment of acute, subacute, chronic, or post-operative plantar fasciitis.\n\nStrength of Evidence – Not Recommended, Evidence (C)\n\nLevel of Confidence – Low\n\nRationale: There is one moderate-quality trial that suggested no difference between therapeutic ultrasound and sham ultrasound after 8 treatments.(274) (Crawford 96) Ultrasound was also used in a treatment arm with iontophoresis, cryotherapy, and stretching and was found to be less beneficial than manual physical therapy.(271) (Cleland 09) Ultrasound is non-invasive, has low adverse effects, is moderate cost depending on numbers of treatments, but has low treatment efficacy and is therefore not recommended."
    }
  ],
  "references": {
    "mtus-link": "https://app.mdguidelines.com/acoem-section/acoem%2Fdisorders%2Fankle-and-foot-disorders%2Fdiagnostic-and-treatment-recommendations%2Fplantar-heel-pain%2Ftreatment-recommendations%2Fallied-health-intervention",
    "odg-link": ""
  }
}