{
  "treatment": {
    "index-name": "topical-nsaids-for-post-operative-achilles-tendinopathy",
    "label-name": "Topical NSAIDs for Post-operative Achilles Tendinopathy",
    "treatment-type": "surgery-add-on"
  },
  "body-system": {
    "index-name": "ankle-and-foot-disorders",
    "label-name": "Ankle and Foot Disorders"
  },
  "version": {
    "mtus": "04/18/19",
    "odg": "",
    "policy-doc": "01/22/23",
    "created-by": "Cade",
    "comments": ""
  },
  "policies": [
    {
      "source": "mtus",
      "diagnosis": {
        "index-name": "surgery-add-on",
        "label-name": "Surgery Add-on"
      },
      "recommendation": "no_recommendation",
      "questions": [],
      "mtus-text": "No Recommendation. There is no recommendation for or against the use of topical NSAIDs for treatment of post-operative Achilles tendinosis.\n\nStrength of Evidence – No Recommendation, Insufficient Evidence (I)\n\nLevel of Confidence – Low\n\nRationale: There is one moderate-quality placebo-controlled trial that found efficacy of treatment with topical niflumic acid for Achilles tendon disorders(41) (Auclair 89) that also demonstrated earlier functional return. The second placebo-controlled trial that used piroxicam to treat Achilles tendonitis also suggested efficacy; however, it included a small minority of Achilles tendinitis (3%), and a majority of other disorders – 51, 42, and 4%, respectively labeled as supraspinatus tendonitis, and ankle and acromioclavicular joint sprains.(39) (Russell 91) Additional support for the general effectiveness of topical NSAIDs in treating musculoskeletal disorders is derived from a systematic review of RCTs for multiple conditions without regard to type of disorder or anatomic location .(40) (Mason 04) However, this review contains no direct support for the use of topical NSAIDs in Achilles tendinopathy. Topical NSAIDs are not invasive, have low adverse effect rates, but may be moderate to high cost. They are recommended for treatment of acute or subacute Achilles tendinopathy. There is no evidence of efficacy in patient with chronic Achilles tendinosis. Post-operative patients may be reasonable candidates after the incision is well healed."
    }
  ],
  "references": {
    "mtus-link": "https://app.mdguidelines.com/acoem-section/acoem%2Fdisorders%2Fankle-and-foot-disorders%2Fdiagnostic-and-treatment-recommendations%2Fachilles-tendinopathy%2Ftreatment-recommendations%2Fmedications",
    "odg-link": ""
  }
}