{
  "treatment": {
    "index-name": "topical-nsaids-for-post-operative-plantar-fasciitis",
    "label-name": "Topical NSAIDs for Post-operative Plantar Fasciitis",
    "treatment-type": "surgery-add-on"
  },
  "body-system": {
    "index-name": "ankle-and-foot-disorders",
    "label-name": "Ankle and Foot Disorders"
  },
  "version": {
    "mtus": "04/18/19",
    "odg": "",
    "policy-doc": "01/22/23",
    "created-by": "Cade",
    "comments": ""
  },
  "policies": [
    {
      "source": "mtus",
      "diagnosis": {
        "index-name": "surgery-add-on",
        "label-name": "Surgery Add-on"
      },
      "recommendation": "no_recommendation",
      "questions": [],
      "mtus-text": "No Recommendation. There is no recommendation for or against the use of topical NSAIDs for post-operative plantar fasciitis.\n\nStrength of Evidence – No Recommendation, Insuffcient Evidence (I)\n\nLevel of Confidence – Low\n\nRationale: There are no quality trials of topical NSAIDs for treatment of plantar heel pain. Support is derived from evidence that topical NSAIDs may provide benefit to persons with Achilles tendinopathy, in addition to systematic review of RCTs covering multiple musculoskeletal conditions (see Achilles Tendinopathy). A systematic review of RCTs for multiple conditions has suggested effectiveness of topical NSAIDs for treatment of multiple musculoskeletal disorders.(40) Topical NSAIDs are not invasive, have low adverse effect rates, but may cumulatively be moderate to high cost. They are recommended for treatment of acute, subacute, and chronic plantar fascial or plantar heel pain, particularly in patients who do not tolerate or are poor candidates for oral treatment. Post-operative patients may be reasonable candidates after the incision is well healed."
    }
  ],
  "references": {
    "mtus-link": "https://app.mdguidelines.com/acoem-section/acoem%2Fdisorders%2Fankle-and-foot-disorders%2Fdiagnostic-and-treatment-recommendations%2Fplantar-heel-pain%2Ftreatment-recommendations%2Fmedications",
    "odg-link": ""
  }
}