{
  "treatment": {
    "index-name": "aerobic-exercise",
    "label-name": "Aerobic Exercise",
    "treatment-type": "other"
  },
  "body-system": {
    "index-name": "knee-disorders",
    "label-name": "Knee Disorders"
  },
  "version": {
    "mtus": "09/21/20",
    "odg": "",
    "policy-doc": "01/05/23",
    "created-by": "Cade",
    "comments": ""
  },
  "policies": [
    {
      "source": "mtus",
      "diagnosis": {
        "index-name": "knee-osteoarthrosis",
        "label-name": "Knee Osteoarthrosis"
      },
      "recommendation": "approve",
      "questions": [],
      "mtus-text": "Strongly Recommended. Aerobic exercise is strongly recommended for the treatment of knee osteoarthrosis.\n\nStrength of Evidence – Strongly Recommended, Evidence (A)\n\nIndications – All patients with knee osteoarthrosis. However, those with significant cardiac disease or significant potential for cardiovascular disease should be evaluated prior to instituting vigorous exercises (follow ACSM Guidelines for Exercise Testing and Prescription, 7th ed.).(544)\n\nFrequency/Dose/Duration – Dose is somewhat unclear. A self-directed program is recommended for all patients. Supervised programs may be particularly indicated for those who require supervision to initiate a program or otherwise need assistance with motivation or concomitant fear avoidant belief training. Supervision may be for a few appointments to help initiate the program. The highest quality trial prescribed walking 40 minutes per session, 3 times a week.(508, 545-547) Another common regimen is walking at least 4 times a week at 60% of predicted maximum heart rate (220 - age = maximum heart rate). Both regimens are comparable and either is recommended.(548, 549) Nearly all patients should be encouraged to continue aerobic exercises on a long-term basis for fitness purposes, including maintaining lower extremity muscle strength."
    }
  ],
  "references": {
    "mtus-link": "https://app.mdguidelines.com/acoem-section/state-guidelines%2Fca-mtus%2Fknee-disorders%2Fdiagnostic-and-treatment-recommendations%2Fosteoarthrosis%2Ftreatment-recommendations%2Factivity-modification-and-exercise",
    "odg-link": ""
  }
}