{
  "treatment": {
    "index-name": "antibodies",
    "label-name": "Antibodies",
    "treatment-type": "other"
  },
  "body-system": {
    "index-name": "knee-disorders",
    "label-name": "Knee Disorders"
  },
  "version": {
    "mtus": "09/21/20",
    "odg": "",
    "policy-doc": "12/16/22",
    "created-by": "Cade",
    "comments": ""
  },
  "policies": [
    {
      "source": "mtus",
      "diagnosis": {
        "index-name": "knee-pain",
        "label-name": "Knee Pain"
      },
      "recommendation": "1",
      "questions": [
        {
          "#": "1",
          "question": "Does the injured worker have knee pain with suspicion of rheumatological disorder?",
          "option-list": [
            {
              "option": "yes",
              "action": "approve"
            },
            {
              "option": "no",
              "action": "deny"
            }
          ]
        }
      ],
      "mtus-text": "Recommended. Antibody levels are recommended to evaluate and diagnose patients with knee pain who have reasonable suspicion of rheumatological disorder. However, ordering of a large, diverse array of antibody levels without targeting a few specific disorders is not recommended.\n\nStrength of Evidence – Recommended, Insufficient Evidence (I)\n\nIndications – Knee pain with suspicion of rheumatological disorder.\n\nRationale – Elevated antibody levels are useful for confirmation of clinical impressions of rheumatic diseases. However, routine use of these tests in knee pain patients, especially as wide-ranging, non-focused test batteries are likely to result in inaccurate diagnoses due to false positives and low pre-test probabilities. Providers should also be aware that false negative results occur. Measurement of antibody levels is recommended for focused testing of a limited number of diagnostic considerations for which there is clinical suspicion. Measuring antibody levels is minimally invasive, unlikely to have substantial adverse effects and low to moderately costly, depending on the specific test ordered."
    },
    {
      "source": "mtus",
      "diagnosis": {
        "index-name": "confirming-specific-disorders",
        "label-name": "Confirming Specific Disorders"
      },
      "recommendation": "1",
      "questions": [
        {
          "#": "1",
          "question": "Does the injured worker have knee pain and a presumptive diagnosis of a rheumatological disorder?",
          "option-list": [
            {
              "option": "yes",
              "action": "approve"
            },
            {
              "option": "no",
              "action": "deny"
            }
          ]
        }
      ],
      "mtus-text": "Strongly Recommended. Antibody levels are strongly recommended to confirm specific disorders (e.g., rheumatoid arthritis).\n\nStrength of Evidence – Strongly Recommended, Evidence (A)\n\nIndications – Knee pain and presumptive diagnosis of a rheumatological disorder.              \n\nRationale – Elevated antibody levels are useful for confirmation of clinical impressions of rheumatic diseases. However, routine use of these tests in knee pain patients, especially as wide-ranging, non-focused test batteries are likely to result in inaccurate diagnoses due to false positives and low pre-test probabilities. Providers should also be aware that false negative results occur. Measurement of antibody levels is recommended for focused testing of a limited number of diagnostic considerations for which there is clinical suspicion. Measuring antibody levels is minimally invasive, unlikely to have substantial adverse effects and low to moderately costly, depending on the specific test ordered."
    }
  ],
  "references": {
    "mtus-link": "https://app.mdguidelines.com/acoem-section/state-guidelines%2Fca-mtus%2Fknee-disorders%2Fdiagnostic-and-treatment-recommendations%2Fknee-pain%2Fdiagnostic-recommendations",
    "odg-link": ""
  }
}