{
  "treatment": {
    "index-name": "aspirin",
    "label-name": "Aspirin",
    "treatment-type": "other"
  },
  "body-system": {
    "index-name": "knee-disorders",
    "label-name": "Knee Disorders"
  },
  "version": {
    "mtus": "09/21/20",
    "odg": "",
    "policy-doc": "12/16/22",
    "created-by": "Cade",
    "comments": ""
  },
  "policies": [
    {
      "source": "mtus",
      "diagnosis": {
        "index-name": "cardiovascular-disease",
        "label-name": "Cardiovascular Disease"
      },
      "recommendation": "approve",
      "questions": [],
      "mtus-text": "Recommended. Patients with known cardiovascular disease or multiple risk factors for cardiovascular disease should be counseled about the risks and benefits of NSAID therapy.(668) \n\nStrongly Recommended. Acetaminophen or aspirin should be considered as the first-line therapy for these patients with cardiovascular disease risk factors. If needed, NSAIDs that are non-selective are preferred over COX-2 specific drugs. In patients receiving low-dose aspirin for primary or secondary cardiovascular disease prevention, NSAID should be taken at least 30 minutes after or 8 hours before the daily aspirin to minimize the potential for the NSAID to counteract the beneficial effects of aspirin.(669)\n\nStrength of Evidence – Recommended, Insufficient Evidence (I)"
    },
    {
      "source": "mtus",
      "diagnosis": {
        "index-name": "multiple-risk-factors-for-cardiovascular-disease",
        "label-name": "Multiple Risk Factors for Cardiovascular Disease"
      },
      "recommendation": "approve",
      "questions": [],
      "mtus-text": "Recommended. Patients with known cardiovascular disease or multiple risk factors for cardiovascular disease should be counseled about the risks and benefits of NSAID therapy.(668) \n\nStrongly Recommended. Acetaminophen or aspirin should be considered as the first-line therapy for these patients with cardiovascular disease risk factors. If needed, NSAIDs that are non-selective are preferred over COX-2 specific drugs. In patients receiving low-dose aspirin for primary or secondary cardiovascular disease prevention, NSAID should be taken at least 30 minutes after or 8 hours before the daily aspirin to minimize the potential for the NSAID to counteract the beneficial effects of aspirin.(669)\n\nStrength of Evidence – Recommended, Insufficient Evidence (I)"
    },
    {
      "source": "mtus",
      "diagnosis": {
        "index-name": "prevention-of-venous-thromboembolic-disease",
        "label-name": "Prevention of Venous Thromboembolic Disease"
      },
      "recommendation": "1",
      "questions": [
        {
          "#": "1",
          "question": "Is the injured worker in the post-operation period for knee arthroplasty or another major knee surgery? ",
          "option-list": [
            {
              "option": "yes",
              "action": "2"
            },
            {
              "option": "no",
              "action": "deny"
            }
          ]
        },
        {
          "#": "2",
          "question": "Has the injured worker had cessation of other treatments such as LMWH, heparin, or other anticoagulants?",
          "option-list": [
            {
              "option": "yes",
              "action": "approve"
            },
            {
              "option": "no",
              "action": "deny"
            }
          ]
        }
      ],
      "mtus-text": "Moderately Recommended. Aspirin is moderately recommended for the prevention of deep venous thrombosis.\n\nStrength of Evidence – Moderately Recommended, Evidence (B)\n\nIndications – Post-operative arthroplasty, knee fracture, and other major knee surgery patients, particularly after cessation of other treatments such as LMWH, heparin, or other anticoagulants.(1975)                        \n\nFrequency/Dose – Aspirin 160mg per day was used in PEP trial. Other studies have found 85mg/day sufficient for heart attack prevention.\n\nDuration – Duration unclear; 1 month is suggested, however due to other risk factors, prolonged or indefinite treatment may be recommended.\n\nIndications for Discontinuation – Completion of course of treatment, development of major complication (e.g., major bleeding) or other adverse effect."
    }
  ],
  "references": {
    "mtus-link": "https://app.mdguidelines.com/acoem-section/state-guidelines%2Fca-mtus%2Fknee-disorders%2Fdiagnostic-and-treatment-recommendations%2Fknee-pain%2Ftreatment-recommendations%2Fmedications%2Fnsaids,https://app.mdguidelines.com/acoem-section/state-guidelines%2Fca-mtus%2Fknee-disorders%2Fdiagnostic-and-treatment-recommendations%2Fosteoarthrosis%2Ftreatment-recommendations%2Fsurgical-considerations",
    "odg-link": ""
  }
}