{
  "treatment": {
    "index-name": "computerized-tomography-(ct)",
    "label-name": "Computerized Tomography (CT)",
    "treatment-type": "other"
  },
  "body-system": {
    "index-name": "knee-disorders",
    "label-name": "Knee Disorders"
  },
  "version": {
    "mtus": "09/21/20",
    "odg": "",
    "policy-doc": "12/22/22",
    "created-by": "Cade",
    "comments": ""
  },
  "policies": [
    {
      "source": "mtus",
      "diagnosis": {
        "index-name": "evaluating-osteonecrosis-(avn)",
        "label-name": "Evaluating Osteonecrosis (AVN)"
      },
      "recommendation": "1",
      "questions": [
        {
          "#": "1",
          "question": "Does the injured worker have knee pain from osteonecrosis with suspicion of subchondral fracture(s), or increased polyostotic bone metabolism?",
          "option-list": [
            {
              "option": "yes",
              "action": "approve"
            },
            {
              "option": "no",
              "action": "deny"
            }
          ]
        }
      ],
      "mtus-text": "Recommended. CT is recommended for evaluating patients with osteonecrosis or for those who need advanced imaging, but have contraindications for MRI.\n\nStrength of Evidence – Recommended, Insufficient Evidence (I)\n\nIndications – Knee pain from osteonecrosis with suspicion of subchondral fracture(s), or increased polyostotic bone metabolism.          \n\nRationale – Computerized tomography is considered superior to MRI for imaging of most knee abnormalities where advanced imaging of calcified structures is required. CT has been used to evaluate periprosthetic osteolysis.(395) A contrast CT study is minimally invasive, has few adverse effects, but is costly. It is recommended for select use. Helical CT scan is thought to be superior to MRI for evaluating subchondral fractures; however, a large, high-quality study comparing these modalities has not yet been published."
    }
  ],
  "references": {
    "mtus-link": "https://app.mdguidelines.com/acoem-section/state-guidelines%2Fca-mtus%2Fknee-disorders%2Fdiagnostic-and-treatment-recommendations%2Fosteonecrosis%2Fdiagnostic-recommendations",
    "odg-link": ""
  }
}