{
  "treatment": {
    "index-name": "concomitant-prescription-of-h2-blockers-with-nsaids",
    "label-name": "Concomitant Prescription of H2 blockers with NSAIDs",
    "treatment-type": "other"
  },
  "body-system": {
    "index-name": "knee-disorders",
    "label-name": "Knee Disorders"
  },
  "version": {
    "mtus": "09/21/20",
    "odg": "",
    "policy-doc": "01/10/23",
    "created-by": "Cade",
    "comments": ""
  },
  "policies": [
    {
      "source": "mtus",
      "diagnosis": {
        "index-name": "patients-at-risk-for-gi-adverse-effects",
        "label-name": "Patients at Risk for GI Adverse Effects"
      },
      "recommendation": "1",
      "questions": [
        {
          "#": "1",
          "question": "Is the injured worker a high GI risk factor profile who also has indications for NSAIDs? (Cytoprotective medications should be considered, particularly if longer term treatment is planned. At-risk patients include those with a history of prior GI bleeding, elderly patients, diabetics, and cigarette smokers. Providers are cautioned that H2 blockers might not protect from gastric ulcers).",
          "option-list": [
            {
              "option": "yes",
              "action": "approve"
            },
            {
              "option": "no",
              "action": "deny"
            }
          ]
        }
      ],
      "mtus-text": "Strongly Recommended. Concomitant prescriptions of cytoprotective medications are recommended for patients at substantially increased risk for gastrointestinal (GI) bleeding. There are four commonly used cytoprotective classes of drugs: misoprostol, sucralfate, histamine Type 2 receptor blockers (famotidine, ranitidine, cimetidine, etc.), and proton pump inhibitors (esomeprazole, lansoprazole, omeprazole, pantoprazole, rabeprazole). It is generally thought that there is no significant difference in efficacy between these classes for the prevention of GI bleeding.(664) However, evidence suggests that histamine-2 blockers are less effective for protection of the gastric mucosa and sucralfate is weaker than proton pump inhibitors. There also are combination products of NSAIDs/misoprostol that have documented reductions in the risk of endoscopic lesions.\n\nStrength of Evidence – Strongly Recommended, Evidence (A) – Proton pump inhibitors, misoprostol\n\nModerately Recommended, Evidence (B) – Sucralfate\n\nRecommended, Evidence (C) – H2 blockers\n\nIndications – Patients with high GI risk factor profiles who also have indications for NSAIDs, cytoprotective medications should be considered, particularly if longer term treatment is planned. At-risk patients include those with a history of prior GI bleeding, elderly patients, diabetics, and cigarette smokers. Providers are cautioned that H2 blockers might not protect from gastric ulcers.(665-667)\n\nFrequency/Dose/Duration – Proton pump inhibitors, misoprostol, sucralfate, and H2 blockers recommended. Dose and frequency as recommended by manufacturer for duration of NSAID therapy or permanently for those with recurrent bleeds or other complications.\n\nIndications for Discontinuation – Intolerance, development of adverse effects, or discontinuation of NSAID."
    }
  ],
  "references": {
    "mtus-link": "https://app.mdguidelines.com/acoem-section/state-guidelines%2Fca-mtus%2Fknee-disorders%2Fdiagnostic-and-treatment-recommendations%2Fknee-pain%2Ftreatment-recommendations%2Fmedications%2Fnsaids",
    "odg-link": ""
  }
}