{
  "treatment": {
    "index-name": "continuous-passive-motion",
    "label-name": "Continuous Passive Motion",
    "treatment-type": "other"
  },
  "body-system": {
    "index-name": "knee-disorders",
    "label-name": "Knee Disorders"
  },
  "version": {
    "mtus": "09/21/20",
    "odg": "",
    "policy-doc": "12/21/22",
    "created-by": "Cade",
    "comments": ""
  },
  "policies": [
    {
      "source": "mtus",
      "diagnosis": {
        "index-name": "knee-arthroplasty-patients",
        "label-name": "Knee Arthroplasty Patients"
      },
      "recommendation": "1",
      "questions": [
        {
          "#": "1",
          "question": "Will this be used in a select, injured worker in a post-operative setting due to the patient becoming substantially physically inactive?",
          "option-list": [
            {
              "option": "yes",
              "action": "approve"
            },
            {
              "option": "no",
              "action": "deny"
            }
          ]
        }
      ],
      "mtus-text": "Not Recommended. Continuous passive motion is not recommended for routine use for arthroplasty patients. It may be useful for select, substantially physically inactive patients post-operatively.\n\nStrength of Evidence – Not Recommended, Evidence (C)\n\nRationale – Most of the available quality trials concern continuous passive-motion (CPM) devices in the immediate post-operative period.(1862-1867) This literature base has many older, lower quality trials(1307, 1860, 1868-1878) (see Appendix 1). Trials comparing CPM with splinting have suggested efficacy.(1879) However, over the past 25 years, patients have gradually been ambulated earlier and are now generally placed on immediate weight bearing status, which appears a likely reason that both of the more recent and higher quality studies have failed to show benefits from use of CPM.(1862, 1863) This device is likely preferable to no activity; however, for most patients, active exercise appears superior. Thus, CPM is not recommended for most patients, but it may retain some utility for selected, relatively inactive patients in the immediate postoperative period.\n\nAccelerated rehabilitation programs have been assessed and appear to be superior to usual care(1839, 1855, 1861) or CPM.(1880) There is no demonstrable difference between clinic- and home-based rehabilitation programs or between home and hospital-based care after arthroplasty.(1881, 1882) One trial has suggested neuromuscular electrical stimulation was not of significant additive benefits.(1883) Exercise and rehabilitation are not invasive, have low adverse effects, and are moderately costly, depending on numbers of appointments required; thus, they are recommended for select patients who have functional deficits."
    }
  ],
  "references": {
    "mtus-link": "https://app.mdguidelines.com/acoem-section/state-guidelines%2Fca-mtus%2Fknee-disorders%2Fdiagnostic-and-treatment-recommendations%2Fosteoarthrosis%2Ftreatment-recommendations%2Frehabilitation",
    "odg-link": ""
  }
}