{
  "treatment": {
    "index-name": "exercise",
    "label-name": "Exercise",
    "treatment-type": "other"
  },
  "body-system": {
    "index-name": "knee-disorders",
    "label-name": "Knee Disorders"
  },
  "version": {
    "mtus": "09/21/20",
    "odg": "",
    "policy-doc": "01/05/23",
    "created-by": "Cade",
    "comments": ""
  },
  "policies": [
    {
      "source": "mtus",
      "diagnosis": {
        "index-name": "patellofemoral-joint-pain",
        "label-name": "Patellofemoral Joint Pain"
      },
      "recommendation": "1",
      "questions": [
        {
          "#": "1",
          "question": "Is the injured worker insufficiently responsive to treatment with NSAIDs and activity modification?",
          "option-list": [
            {
              "option": "yes",
              "action": "approve"
            },
            {
              "option": "no",
              "action": "no_recommendation"
            }
          ]
        }
      ],
      "mtus-text": "Moderately Recommended. Exercise is moderately recommended for patellofemoral joint pain.\n\nStrength of Evidence – Moderately Recommended, Evidence (B)\n\nIndications – Patients with patellofemoral joint pain, especially if insufficiently responsive to treatment with NSAIDs and activity modification.                            \n\nFrequency/Dose/Duration – One to 4 weeks, 2 to 3 sessions a week; additional appointments based on continuing objective improvements.\n\nIndications for Discontinuation – Achievement of goals, non-compliance with clinic or home-based exercises, intolerance.\n\nRationale for Recommendation\n\nTwo moderate-quality trials compared exercise therapy with no treatment and found exercise of modest efficacy.(2333-2335) Results from another trial of specific exercise approaches, including static, dynamic, vastus medialis obliquis selective activation (VMO), is unclear,(2335) and there is no recommendation for a specific exercise approach. There also is one trial suggesting a patellar brace is of equal efficacy.(2336) One high-quality trial with two reports included multiple co-interventions and suggested benefit, but an assessment of which intervention was effective is not possible.(2310, 2337) Exercises are not invasive, have low adverse effects, are low to moderately costly depending on numbers of appointments, and thus are recommended. "
    }
  ],
  "references": {
    "mtus-link": "https://app.mdguidelines.com/acoem-section/state-guidelines%2Fca-mtus%2Fknee-disorders%2Fdiagnostic-and-treatment-recommendations%2Fknee-pain%2Ftreatment-recommendations%2Factivity-modification-and-exercise",
    "odg-link": ""
  }
}