{
  "treatment": {
    "index-name": "extracorporeal-shockwave-therapy",
    "label-name": "Extracorporeal Shockwave Therapy",
    "treatment-type": "other"
  },
  "body-system": {
    "index-name": "knee-disorders",
    "label-name": "Knee Disorders"
  },
  "version": {
    "mtus": "09/21/20",
    "odg": "",
    "policy-doc": "12/22/22",
    "created-by": "Cade",
    "comments": ""
  },
  "policies": [
    {
      "source": "mtus",
      "diagnosis": {
        "index-name": "patellar-tendinosis",
        "label-name": "Patellar Tendinosis"
      },
      "recommendation": "deny",
      "questions": [],
      "mtus-text": "Moderately Not Recommended. Extracorporeal shockwave therapy is not recommended for treatment of patellar tendinosis.\n\nStrength of Evidence – Moderately Not Recommended, Evidence (B)\n\nLevel of Confidence – Moderate\n\nRationale – One sham-controlled trial found a lack of efficacy of ESWT for treatment of patellar tendinopathy in active athletes (2466) and another trial found a lack of effectiveness for adding ESWT to eccentric exercises (2467).  One trial found no difference between focused ESWT and radial shockwave therapy (2468).  There is one low-quality trial comparing extracorporeal shockwave therapy with either sham or low-energy treatment for patellar tendinosis.(2386) There are two trials suggesting ESWT is inferior to platelet-rich plasma injections (see above). For most body parts, there is evidence that ESWT is ineffective (see Elbow Disorders, Shoulder Disorders, and Ankle and Foot Disorders guidelines), with the primary exception being efficacy for the treatment of rotator cuff calcific tendinosis. ESWT is minimally invasive, is often performed with an injected anesthetic, has some adverse effects, is moderate to highly costly depending on numbers of treatments, and has two placebo-controlled trials showing lack of efficacy and thus it is not recommended."
    }
  ],
  "references": {
    "mtus-link": "https://app.mdguidelines.com/acoem-section/state-guidelines%2Fca-mtus%2Fknee-disorders%2Fdiagnostic-and-treatment-recommendations%2Fpatellar-tendinopathy%2Ftreatment-recommendations%2Felectrical-therapies",
    "odg-link": ""
  }
}