{
  "treatment": {
    "index-name": "fluid-aspiration-(and-analyses)",
    "label-name": "Fluid Aspiration (and Analyses)",
    "treatment-type": "other"
  },
  "body-system": {
    "index-name": "knee-disorders",
    "label-name": "Knee Disorders"
  },
  "version": {
    "mtus": "09/21/20",
    "odg": "",
    "policy-doc": "12/16/22",
    "created-by": "Cade",
    "comments": ""
  },
  "policies": [
    {
      "source": "mtus",
      "diagnosis": {
        "index-name": "diagnosing-knee-bursitis",
        "label-name": "Diagnosing Knee Bursitis"
      },
      "recommendation": "approve",
      "questions": [],
      "mtus-text": "Recommended. Aspiration of the fluid and analyses including Gram stain and culture and sensitivity are recommended to evaluate for septic bursitis in patients with suspected infection.\n\nStrength of Evidence – Recommended, Insufficient Evidence (I)"
    }
  ],
  "references": {
    "mtus-link": "https://app.mdguidelines.com/acoem-section/state-guidelines%2Fca-mtus%2Fknee-disorders%2Fdiagnostic-and-treatment-recommendations%2Fbursitis%2Fdiagnostic-recommendations",
    "odg-link": ""
  }
}