{
  "treatment": {
    "index-name": "home-use-of-cryotherapies",
    "label-name": "Home Use of Cryotherapies",
    "treatment-type": "other"
  },
  "body-system": {
    "index-name": "knee-disorders",
    "label-name": "Knee Disorders"
  },
  "version": {
    "mtus": "09/21/20",
    "odg": "",
    "policy-doc": "01/10/23",
    "created-by": "Cade",
    "comments": ""
  },
  "policies": [
    {
      "source": "mtus",
      "diagnosis": {
        "index-name": "knee-osteoarthrosis",
        "label-name": "Knee Osteoarthrosis"
      },
      "recommendation": "approve",
      "questions": [],
      "mtus-text": "Recommended. Cryotherapies are recommended for home use if efficacious for the temporary relief of osteoarthrosis or acute, subacute, or chronic knee pain.\n\nStrength of Evidence – Recommended, Insufficient Evidence (I)\n\nFrequency/Dose/Duration – Education regarding home cryotherapy application may be part of the treatment if cold is effective in reducing pain.\n\nIndications for Discontinuation – Non-tolerance, including exacerbation of knee pain."
    },
    {
      "source": "mtus",
      "diagnosis": {
        "index-name": "acute-knee-pain",
        "label-name": "Acute Knee Pain"
      },
      "recommendation": "approve",
      "questions": [],
      "mtus-text": "Recommended. Cryotherapies are recommended for home use if efficacious for the temporary relief of osteoarthrosis or acute, subacute, or chronic knee pain.\n\nStrength of Evidence – Recommended, Insufficient Evidence (I)\n\nFrequency/Dose/Duration – Education regarding home cryotherapy application may be part of the treatment if cold is effective in reducing pain.\n\nIndications for Discontinuation – Non-tolerance, including exacerbation of knee pain."
    },
    {
      "source": "mtus",
      "diagnosis": {
        "index-name": "subacute-knee-pain",
        "label-name": "Subacute Knee Pain"
      },
      "recommendation": "approve",
      "questions": [],
      "mtus-text": "Recommended. Cryotherapies are recommended for home use if efficacious for the temporary relief of osteoarthrosis or acute, subacute, or chronic knee pain.\n\nStrength of Evidence – Recommended, Insufficient Evidence (I)\n\nFrequency/Dose/Duration – Education regarding home cryotherapy application may be part of the treatment if cold is effective in reducing pain.\n\nIndications for Discontinuation – Non-tolerance, including exacerbation of knee pain."
    },
    {
      "source": "mtus",
      "diagnosis": {
        "index-name": "chronic-knee-pain",
        "label-name": "Chronic Knee Pain"
      },
      "recommendation": "approve",
      "questions": [],
      "mtus-text": "Recommended. Cryotherapies are recommended for home use if efficacious for the temporary relief of osteoarthrosis or acute, subacute, or chronic knee pain.\n\nStrength of Evidence – Recommended, Insufficient Evidence (I)\n\nFrequency/Dose/Duration – Education regarding home cryotherapy application may be part of the treatment if cold is effective in reducing pain.\n\nIndications for Discontinuation – Non-tolerance, including exacerbation of knee pain."
    }
  ],
  "references": {
    "mtus-link": "https://app.mdguidelines.com/acoem-section/state-guidelines%2Fca-mtus%2Fknee-disorders%2Fdiagnostic-and-treatment-recommendations%2Fosteoarthrosis%2Ftreatment-recommendations%2Fhot-and-cold-therapies",
    "odg-link": ""
  }
}