{
  "treatment": {
    "index-name": "knee-brace",
    "label-name": "Knee Brace",
    "treatment-type": "other"
  },
  "body-system": {
    "index-name": "knee-disorders",
    "label-name": "Knee Disorders"
  },
  "version": {
    "mtus": "09/21/20",
    "odg": "",
    "policy-doc": "12/22/22",
    "created-by": "Cade",
    "comments": ""
  },
  "policies": [
    {
      "source": "mtus",
      "diagnosis": {
        "index-name": "chronic-knee-osteoarthrosis",
        "label-name": "Chronic Knee Osteoarthrosis"
      },
      "recommendation": "1",
      "questions": [
        {
          "#": "1",
          "question": "Does the injured worker have moderate to severe chronic  unicompartmental (e.g., medial) knee osteoarthrosis?",
          "option-list": [
            {
              "option": "yes",
              "action": "2"
            },
            {
              "option": "no",
              "action": "deny"
            }
          ]
        },
        {
          "#": "2",
          "question": "Have other treatments failed and/or will this device be used in an attempt to delay surgical treatment? (Patient must be motivated to comply with brace use).    ",
          "option-list": [
            {
              "option": "yes",
              "action": "approve"
            },
            {
              "option": "no",
              "action": "no_recommendation"
            }
          ]
        }
      ],
      "mtus-text": "Recommended. Knee braces (e.g., unloader braces) are recommended for treatment of moderate to severe chronic knee pain due to osteoarthrosis (medial or lateral joint OA) that is largely or totally unicompartmental.\n\nStrength of Evidence – Recommended, Evidence (C)\n\nIndications – Moderate to severe chronic unicompartmental (e.g., medial) knee osteoarthrosis, particularly if other treatments have failed and device is used in an attempt to delay surgical treatment.(1062, 1095, 1096) Patient must be motivated to comply with brace use. "
    },
    {
      "source": "mtus",
      "diagnosis": {
        "index-name": "other-osteoarthrosis-(e.g.,-symmetrical-oa)",
        "label-name": "Other Osteoarthrosis (e.g., symmetrical OA)"
      },
      "recommendation": "no_recommendation",
      "questions": [],
      "mtus-text": "No Recommendation. There is no recommendation for or against the use of knee braces (e.g., unloader braces) for treatment of all other osteoarthrosis including symmetrical OA.\n\nStrength of Evidence – No Recommendation, Insufficient Evidence (I)"
    },
    {
      "source": "mtus",
      "diagnosis": {
        "index-name": "knee-sprain",
        "label-name": "Knee Sprain"
      },
      "recommendation": "approve",
      "questions": [],
      "mtus-text": "Recommended.  Ace wraps and knee braces are recommended for treatment of knee sprains.\n\nStrength of Evidence – Recommended, Insufficient Evidence (I)"
    }
  ],
  "references": {
    "mtus-link": "https://app.mdguidelines.com/acoem-section/state-guidelines%2Fca-mtus%2Fknee-disorders%2Fdiagnostic-and-treatment-recommendations%2Fosteoarthrosis%2Ftreatment-recommendations%2Fdevices,https://app.mdguidelines.com/acoem-section/state-guidelines%2Fca-mtus%2Fknee-disorders%2Fdiagnostic-and-treatment-recommendations%2Fmcl-and-lcl%2Ftreatment-recommendations",
    "odg-link": ""
  }
}