{
  "treatment": {
    "index-name": "manual-therapy",
    "label-name": "Manual Therapy",
    "treatment-type": "other"
  },
  "body-system": {
    "index-name": "knee-disorders",
    "label-name": "Knee Disorders"
  },
  "version": {
    "mtus": "09/21/20",
    "odg": "",
    "policy-doc": "01/10/23",
    "created-by": "Cade",
    "comments": ""
  },
  "policies": [
    {
      "source": "mtus",
      "diagnosis": {
        "index-name": "meniscal-tear",
        "label-name": "Meniscal Tear"
      },
      "recommendation": "deny",
      "questions": [],
      "mtus-text": "Manual therapy and manipulation are not recommended for the treatment of meniscal tears.\n\nStrength of Evidence – Not Recommended, Insufficient Evidence (I)\n\nLevel of Confidence – Low\n\nRationale  – One small, 2-week trial attempted a sham and suggested modest benefits of a manual technique for meniscal tear (2459).  Manual therapy has low adverse effects, but in the absence of durable effects, the panel recommendation is not recommended (57%), while a minority felt this should have no recommendation."
    }
  ],
  "references": {
    "mtus-link": "https://app.mdguidelines.com/acoem-section/state-guidelines%2Fca-mtus%2Fknee-disorders%2Fdiagnostic-and-treatment-recommendations%2Fmeniscal-tears%2Ftreatment-recommendations%2Frehabilitation",
    "odg-link": ""
  }
}