{
  "treatment": {
    "index-name": "neoprene-knee-sleeves",
    "label-name": "Neoprene Knee Sleeves",
    "treatment-type": "other"
  },
  "body-system": {
    "index-name": "knee-disorders",
    "label-name": "Knee Disorders"
  },
  "version": {
    "mtus": "09/21/20",
    "odg": "",
    "policy-doc": "12/21/22",
    "created-by": "Cade",
    "comments": ""
  },
  "policies": [
    {
      "source": "mtus",
      "diagnosis": {
        "index-name": "chronic-osteoarthrosis",
        "label-name": "Chronic Osteoarthrosis"
      },
      "recommendation": "no_recommendation",
      "questions": [],
      "mtus-text": "No Recommendation. There is no recommendation for or against use of neoprene knee sleeves for treatment of knee osteoarthrosis.\n\nStrength of Evidence – No Recommendation, Insuffcient Evidence (I)"
    }
  ],
  "references": {
    "mtus-link": "https://app.mdguidelines.com/acoem-section/state-guidelines%2Fca-mtus%2Fknee-disorders%2Fdiagnostic-and-treatment-recommendations%2Fosteoarthrosis%2Ftreatment-recommendations%2Fdevices",
    "odg-link": ""
  }
}