{
  "treatment": {
    "index-name": "perturbation-training",
    "label-name": "Perturbation Training",
    "treatment-type": "other"
  },
  "body-system": {
    "index-name": "knee-disorders",
    "label-name": "Knee Disorders"
  },
  "version": {
    "mtus": "09/21/20",
    "odg": "",
    "policy-doc": "12/21/22",
    "created-by": "Cade",
    "comments": ""
  },
  "policies": [
    {
      "source": "mtus",
      "diagnosis": {
        "index-name": "acl-tear",
        "label-name": "ACL Tear"
      },
      "recommendation": "1",
      "questions": [
        {
          "#": "1",
          "question": "Will this perturbation training be a part of a comprehensive exercise therapy program that includes strength training exercises?",
          "option-list": [
            {
              "option": "yes",
              "action": "approve"
            },
            {
              "option": "no",
              "action": "deny"
            }
          ]
        }
      ],
      "mtus-text": "Recommended. Perturbation training is recommended as part of a comprehensive exercise program in patients with injured ACL with or without surgery.\n\nStrength of Evidence – Recommended, Insufficient Evidence (I)\n\nIndications – ACL injured patients who choose to undergo ACL reconstruction surgery, or patients who opt for nonsurgical management. To be done as part of a comprehensive exercise therapy program that includes strength training exercises.(2066, 2067)\n\nFrequency/Dose/Duration – As part of a therapy program, both supervised and unsupervised. Available studies have examined up to 10 sessions of therapy with perturbation as a part of the therapy program.(2066, 2067)\n\nIndications for Discontinuation – Achievement of goals, non-compliance, or lack of benefits.\n\nRationale – A low-quality study evaluated ACL-injured patients who opted to be treated non-operatively. The study compared physical therapy with or without perturbation training and reported slightly better improvements in the perturbation group.(2066) Perturbation training can be included in a therapy program. A low-quality study evaluated perturbation and strength training versus strength training alone prior to ACL surgery. Both groups increased strength post-operatively, but the group that included perturbation training had better gait mechanics results 6 months after surgery.(2067) It appears to have low adverse events and encourages physical activity. One trial has suggested that patients, classified as non-copers performed better with perturbation training and quadriceps strength training than quadriceps strength training.(2068)"
    }
  ],
  "references": {
    "mtus-link": "https://app.mdguidelines.com/acoem-section/state-guidelines%2Fca-mtus%2Fknee-disorders%2Fdiagnostic-and-treatment-recommendations%2Fcruciate-ligament-tears%2Ftreatment-recommendations%2Frehabilitation",
    "odg-link": ""
  }
}