{
  "treatment": {
    "index-name": "platelet-rich-plasma-injections",
    "label-name": "Platelet-Rich Plasma Injections",
    "treatment-type": "other"
  },
  "body-system": {
    "index-name": "knee-disorders",
    "label-name": "Knee Disorders"
  },
  "version": {
    "mtus": "09/21/20",
    "odg": "",
    "policy-doc": "01/10/23",
    "created-by": "Cade",
    "comments": ""
  },
  "policies": [
    {
      "source": "mtus",
      "diagnosis": {
        "index-name": "meniscal-tear",
        "label-name": "Meniscal Tear"
      },
      "recommendation": "no_recommendation",
      "questions": [],
      "mtus-text": "There is no recommendation for or against the use of platelet-rich plasma or autologous blood injections.\n\nStrength of Evidence – No Recommendation, Insufficient Evidence (I)\n\nLevel of Confidence – Low\n\nRationale – One research group has reported a placebo-controlled trial, suggesting that PRP was associated with improved healing of chronic meniscal tears and limited the need for future surgical repairs significantly (8% vs 28%), while the failure rate (non-union of the meniscal tear) was 48% in PRP group vs 70% in controls (2460). As there is only one research group reporting favorable results, there is no recommendation until reproducible and durable efficacy has been demonstrated. "
    },
    {
      "source": "mtus",
      "diagnosis": {
        "index-name": "patellar-tendinopathy",
        "label-name": "Patellar Tendinopathy"
      },
      "recommendation": "deny",
      "questions": [],
      "mtus-text": "Not Recommended. Platelet-rich plasma and autologous blood injections are not recommended for the treatment of patellar tendinopathy.\n\nStrength of Evidence – Not Recommended, Evidence (C)\n\nLevel of Confidence – Low \n\nRationale – One small, placebo-controlled trial for patellar tendinopathy suggested a lack of efficacy (2463).  Another trial found no differences between 1 and 2 injections (2464) while another found 2 injections better than one (2465).  There is one moderate-quality study suggesting efficacy of PRP over dry-needling.(2372) There are two moderate-quality trials suggesting PRP is superior to extracorporeal shockwave therapy, but ESWT appears ineffective (see ESWT).(2373, 2374) PRP injections are invasive, have adverse effects, are costly, and the sole placebo-controlled trial suggests lack of efficacy; thus, they are not recommended."
    }
  ],
  "references": {
    "mtus-link": "https://app.mdguidelines.com/acoem-section/state-guidelines%2Fca-mtus%2Fknee-disorders%2Fdiagnostic-and-treatment-recommendations%2Fmeniscal-tears%2Ftreatment-recommendations%2Finjection-therapies,https://app.mdguidelines.com/acoem-section/state-guidelines%2Fca-mtus%2Fknee-disorders%2Fdiagnostic-and-treatment-recommendations%2Fpatellar-tendinopathy%2Ftreatment-recommendations%2Finjection-therapies",
    "odg-link": ""
  }
}