{
  "treatment": {
    "index-name": "prolotherapy-injections",
    "label-name": "Prolotherapy Injections",
    "treatment-type": "other"
  },
  "body-system": {
    "index-name": "knee-disorders",
    "label-name": "Knee Disorders"
  },
  "version": {
    "mtus": "09/21/20",
    "odg": "",
    "policy-doc": "01/10/23",
    "created-by": "Cade",
    "comments": ""
  },
  "policies": [
    {
      "source": "mtus",
      "diagnosis": {
        "index-name": "acute-knee-pain",
        "label-name": "Acute Knee Pain"
      },
      "recommendation": "deny",
      "questions": [],
      "mtus-text": "Not Recommended. Prolotherapy injections are not recommended for treatment of acute, subacute, or chronic knee pain.\n\nStrength of Evidence – Not Recommended, Evidence (C)\n\nRationale – There are no quality studies of prolotherapy injections compared to placebo for treatment of patients with knee OA.(1497) The data from one trial are largely negative. A second trial suggests inferiority to PRP injections (2470).  Prolotherapy injections are invasive, have adverse effects, moderately to highly costly, depending on numbers of injections, lack quality evidence of efficacy, and thus they are not recommended."
    },
    {
      "source": "mtus",
      "diagnosis": {
        "index-name": "subacute-knee-pain",
        "label-name": "Subacute Knee Pain"
      },
      "recommendation": "deny",
      "questions": [],
      "mtus-text": "Not Recommended. Prolotherapy injections are not recommended for treatment of acute, subacute, or chronic knee pain.\n\nStrength of Evidence – Not Recommended, Evidence (C)\n\nRationale – There are no quality studies of prolotherapy injections compared to placebo for treatment of patients with knee OA.(1497) The data from one trial are largely negative. A second trial suggests inferiority to PRP injections (2470).  Prolotherapy injections are invasive, have adverse effects, moderately to highly costly, depending on numbers of injections, lack quality evidence of efficacy, and thus they are not recommended."
    },
    {
      "source": "mtus",
      "diagnosis": {
        "index-name": "chronic-knee-pain",
        "label-name": "Chronic Knee Pain"
      },
      "recommendation": "deny",
      "questions": [],
      "mtus-text": "Not Recommended. Prolotherapy injections are not recommended for treatment of acute, subacute, or chronic knee pain.\n\nStrength of Evidence – Not Recommended, Evidence (C)\n\nRationale – There are no quality studies of prolotherapy injections compared to placebo for treatment of patients with knee OA.(1497) The data from one trial are largely negative. A second trial suggests inferiority to PRP injections (2470).  Prolotherapy injections are invasive, have adverse effects, moderately to highly costly, depending on numbers of injections, lack quality evidence of efficacy, and thus they are not recommended."
    },
    {
      "source": "mtus",
      "diagnosis": {
        "index-name": "chronic-patellar-tendinopathy",
        "label-name": "Chronic Patellar Tendinopathy"
      },
      "recommendation": "1",
      "questions": [
        {
          "#": "1",
          "question": "Is the injured worker an athlete with chronic patellar tendinopathy with neovascularization corresponding to the painful area that is unresponsive to other treatments including NSAID(s) and activity modification? (Whether these injections are appropriate for others, including workers, is unclear. Ultrasound guidance is recommended for accomplishing the injections).",
          "option-list": [
            {
              "option": "yes",
              "action": "approve"
            },
            {
              "option": "no",
              "action": "no_recommendation"
            }
          ]
        }
      ],
      "mtus-text": "Recommended. Prolotherapy injections are recommended for select patients to treat chronic patellar tendinopathy.\n\nStrength of Evidence – Recommended, Evidence (C)\n\nIndications – Athletes with chronic patellar tendinopathy with neovascularization corresponding to the painful area that is unresponsive to other treatments including NSAID(s) and activity modification. Whether these injections are appropriate for others, including workers, is unclear. Ultrasound guidance is recommended for accomplishing the injections."
    }
  ],
  "references": {
    "mtus-link": "https://app.mdguidelines.com/acoem-section/state-guidelines%2Fca-mtus%2Fknee-disorders%2Fdiagnostic-and-treatment-recommendations%2Fknee-pain%2Ftreatment-recommendations%2Finjections,https://app.mdguidelines.com/acoem-section/state-guidelines%2Fca-mtus%2Fknee-disorders%2Fdiagnostic-and-treatment-recommendations%2Fpatellar-tendinopathy%2Ftreatment-recommendations%2Finjection-therapies",
    "odg-link": ""
  }
}