{
  "treatment": {
    "index-name": "radiation-synovectomy",
    "label-name": "Radiation Synovectomy",
    "treatment-type": "other"
  },
  "body-system": {
    "index-name": "knee-disorders",
    "label-name": "Knee Disorders"
  },
  "version": {
    "mtus": "09/21/20",
    "odg": "",
    "policy-doc": "01/10/23",
    "created-by": "Cade",
    "comments": ""
  },
  "policies": [
    {
      "source": "mtus",
      "diagnosis": {
        "index-name": "knee-osteoarthrosis",
        "label-name": "Knee Osteoarthrosis"
      },
      "recommendation": "deny",
      "questions": [],
      "mtus-text": "Not Recommended. Radiation synovectomy is not recommended for the treatment of knee osteoarthrosis.\n\nStrength of Evidence – Not Recommended, Evidence (C)\n\nRationale – There is one moderate quality trial comparing radiation synovectomy with glucocorticoid injection with a radiation sham plus glucocorticoid that suggested radiation synovectomy was ineffective for treatment of undifferentiated arthritis and rheumatoid arthritis.(1336, 1337) Radiation synovectomy is invasive, has adverse effects, is moderately costly, appears ineffective, and is not recommended."
    }
  ],
  "references": {
    "mtus-link": "https://app.mdguidelines.com/acoem-section/state-guidelines%2Fca-mtus%2Fknee-disorders%2Fdiagnostic-and-treatment-recommendations%2Fosteoarthrosis%2Ftreatment-recommendations%2Finjections",
    "odg-link": ""
  }
}