{
  "treatment": {
    "index-name": "reflexology",
    "label-name": "Reflexology",
    "treatment-type": "other"
  },
  "body-system": {
    "index-name": "knee-disorders",
    "label-name": "Knee Disorders"
  },
  "version": {
    "mtus": "09/21/20",
    "odg": "",
    "policy-doc": "01/10/23",
    "created-by": "Cade",
    "comments": ""
  },
  "policies": [
    {
      "source": "mtus",
      "diagnosis": {
        "index-name": "acute-knee-pain",
        "label-name": "Acute Knee Pain"
      },
      "recommendation": "deny",
      "questions": [],
      "mtus-text": "Not Recommended. Reflexology is not recommended for the treatment of knee osteoarthrosis or acute, subacute, or chronic knee pain.\n\nStrength of Evidence – Not Recommended, Insufficient Evidence (I)               \n\nRationale – There are no quality studies of reflexology for knee pain. It also has not been shown to be efficacious for the treatment of chronic LBP in a moderate-quality study.(1173) Other treatments have been shown to be efficacious."
    },
    {
      "source": "mtus",
      "diagnosis": {
        "index-name": "subacute-knee-pain",
        "label-name": "Subacute Knee Pain"
      },
      "recommendation": "deny",
      "questions": [],
      "mtus-text": "Not Recommended. Reflexology is not recommended for the treatment of knee osteoarthrosis or acute, subacute, or chronic knee pain.\n\nStrength of Evidence – Not Recommended, Insufficient Evidence (I)               \n\nRationale – There are no quality studies of reflexology for knee pain. It also has not been shown to be efficacious for the treatment of chronic LBP in a moderate-quality study.(1173) Other treatments have been shown to be efficacious."
    },
    {
      "source": "mtus",
      "diagnosis": {
        "index-name": "chronic-knee-pain",
        "label-name": "Chronic Knee Pain"
      },
      "recommendation": "deny",
      "questions": [],
      "mtus-text": "Not Recommended. Reflexology is not recommended for the treatment of knee osteoarthrosis or acute, subacute, or chronic knee pain.\n\nStrength of Evidence – Not Recommended, Insufficient Evidence (I)               \n\nRationale – There are no quality studies of reflexology for knee pain. It also has not been shown to be efficacious for the treatment of chronic LBP in a moderate-quality study.(1173) Other treatments have been shown to be efficacious."
    },
    {
      "source": "mtus",
      "diagnosis": {
        "index-name": "knee-osteoarthrosis",
        "label-name": "Knee Osteoarthrosis"
      },
      "recommendation": "deny",
      "questions": [],
      "mtus-text": "Not Recommended. Reflexology is not recommended for the treatment of knee osteoarthrosis or acute, subacute, or chronic knee pain.\n\nStrength of Evidence – Not Recommended, Insufficient Evidence (I)               \n\nRationale – There are no quality studies of reflexology for knee pain. It also has not been shown to be efficacious for the treatment of chronic LBP in a moderate-quality study.(1173) Other treatments have been shown to be efficacious."
    }
  ],
  "references": {
    "mtus-link": "https://app.mdguidelines.com/acoem-section/state-guidelines%2Fca-mtus%2Fknee-disorders%2Fdiagnostic-and-treatment-recommendations%2Fknee-pain%2Ftreatment-recommendations%2Fallied-health-interventions",
    "odg-link": ""
  }
}