{
  "treatment": {
    "index-name": "tidal-knee-joint-irrigation",
    "label-name": "Tidal Knee Joint Irrigation",
    "treatment-type": "other"
  },
  "body-system": {
    "index-name": "knee-disorders",
    "label-name": "Knee Disorders"
  },
  "version": {
    "mtus": "09/21/20",
    "odg": "",
    "policy-doc": "01/10/23",
    "created-by": "Cade",
    "comments": ""
  },
  "policies": [
    {
      "source": "mtus",
      "diagnosis": {
        "index-name": "knee-osteoarthrosis",
        "label-name": "Knee Osteoarthrosis"
      },
      "recommendation": "deny",
      "questions": [],
      "mtus-text": "Not Recommended. Tidal knee joint irrigation is not recommended for the treatment of knee osteoarthrosis.\n\nStrength of Evidence – Not Recommended, Insufficient Evidence (I)\n\nLevel of Confidence – Low\n\nRationale – One sham-controlled trial suggested no evidence of efficacy, although the randomization process failed and they attempted statistical adjustment (2475).  There are three moderate-quality RCTs comparing the efficacy of tidal irrigation to glucocorticosteroid injection for treatment of knee OA, with all 3 trials finding evidence of superiority of irrigation to injection.(1331-1333) Two of the trials comparing the two procedures found superiority for patients undergoing irrigation followed by glucocorticoid injection(1332, 1333).  One trial suggested superiority compared with conservative medical management (Ike 92).  These procedures are invasive, have adverse effects, are moderate to high cost, the single sham-controlled trial suggests a lack of efficacy, and therefore, tidal irrigation is not recommended.\n\nAdjunctive treatment with glucocorticosteroids after lavage has been assessed in many studies with mixed results. Both the highest quality study(1334) and the largest trial(1335) were largely negative."
    }
  ],
  "references": {
    "mtus-link": "https://app.mdguidelines.com/acoem-section/state-guidelines%2Fca-mtus%2Fknee-disorders%2Fdiagnostic-and-treatment-recommendations%2Fosteoarthrosis%2Ftreatment-recommendations%2Finjections",
    "odg-link": ""
  }
}