{
  "treatment": {
    "index-name": "transverse-friction-massage",
    "label-name": "Transverse Friction Massage",
    "treatment-type": "other"
  },
  "body-system": {
    "index-name": "knee-disorders",
    "label-name": "Knee Disorders"
  },
  "version": {
    "mtus": "09/21/20",
    "odg": "",
    "policy-doc": "01/10/23",
    "created-by": "Cade",
    "comments": ""
  },
  "policies": [
    {
      "source": "mtus",
      "diagnosis": {
        "index-name": "iliotibial-(it)-band-syndrome",
        "label-name": "Iliotibial (IT) Band Syndrome"
      },
      "recommendation": "no_recommendation",
      "questions": [],
      "mtus-text": "No Recommendation. There is no recommendation for or against the use of transverse friction massage for the treatment of iliotibial band syndrome.\n\nStrength of Evidence – No Recommendation, Insufficient Evidence (I)\n\nRationale – There is one moderate-quality trial assessing additive benefit in addition to stretching, ice and ultrasound.(197) It failed to show improvement, although it may have been underpowered. Thus, there is no recommendation for or against the use of transverse friction massage for treatment of iliotibial band syndrome."
    }
  ],
  "references": {
    "mtus-link": "https://app.mdguidelines.com/acoem-section/state-guidelines%2Fca-mtus%2Fknee-disorders%2Fdiagnostic-and-treatment-recommendations%2Filiotibial-band-syndrome%2Ftreatment-recommendations",
    "odg-link": ""
  }
}