{
  "treatment": {
    "index-name": "surgical-resection",
    "label-name": "Surgical Resection",
    "treatment-type": "surgery"
  },
  "body-system": {
    "index-name": "elbow-disorders",
    "label-name": "Elbow Disorders"
  },
  "version": {
    "mtus": "04/18/19",
    "odg": "",
    "policy-doc": "02/01/23",
    "created-by": "Cade",
    "comments": ""
  },
  "policies": [
    {
      "source": "mtus",
      "diagnosis": {
        "index-name": "chronic-olecranon-bursitis",
        "label-name": "Chronic Olecranon Bursitis"
      },
      "recommendation": "1",
      "questions": [
        {
          "#": "1",
          "question": "Does the patient have olecranon bursitis with recurrent drainage?",
          "option-list": [
            {
              "option": "yes",
              "action": "approve"
            },
            {
              "option": "no",
              "action": "deny"
            }
          ]
        }
      ],
      "mtus-text": "Recommended. Surgical resection of the bursa is recommended for chronic olecranon bursitis with recurrent drainage.\n\nStrength of Evidence – Recommended, Insufficient Evidence (I)\n\nIndications: Olecranon bursitis with recurrent drainage.\n\nRationale: There are no quality trials. Surgical drainage of a swollen olecranon bursa has been successfully used for treatment of olecranon bursitis. As it is not without potential complications, however, it is recommended to be reserved for select cases either involving infection or failure to respond to an adequate trial of non-operative measures. Surgical drainage is invasive, has modest adverse effects for this particular surgery, is moderate to high cost, but is recommended in those cases not trending towards resolution or which are thought to be infected."
    }
  ],
  "references": {
    "mtus-link": "https://app.mdguidelines.com/acoem-section/state-guidelines%2Fca-mtus%2Felbow-disorders%2Fdiagnosis-and-treatment-recommendations%2Folecranon-bursitis%2Ftreatment-recommendations",
    "odg-link": ""
  }
}