{
  "treatment": {
    "index-name": "caudal-block-with-buprenorphine",
    "label-name": "Caudal Block with Buprenorphine",
    "treatment-type": "surgery-add-on"
  },
  "body-system": {
    "index-name": "hip-and-groin-disorders",
    "label-name": "Hip and Groin Disorders"
  },
  "version": {
    "mtus": "10/07/19",
    "odg": "",
    "policy-doc": "01/12/23",
    "created-by": "Cade",
    "comments": ""
  },
  "policies": [
    {
      "source": "mtus",
      "diagnosis": {
        "index-name": "surgery-add-on",
        "label-name": "Surgery Add-on"
      },
      "recommendation": "1",
      "questions": [
        {
          "#": "1",
          "question": "Is a caudal block needed for anesthesia for lower extremity surgery?",
          "option-list": [
            {
              "option": "yes",
              "action": "approve"
            },
            {
              "option": "no",
              "action": "deny"
            }
          ]
        }
      ],
      "mtus-text": "Moderately Recommended.\n\nA caudal block with buprenorphine is moderately recommended.\n\nStrength of Evidence – Recommended, Evidence (C)\n\nLevel of Confidence – Low\n\nIndications:   Caudal block needed for anesthesia for lower extremity surgery.\n\nBenefits:     Evidence suggests some efficacy with buprenorphine [1848].\n\nHarms:     Respiratory depression in addition to other risks of caudal blocks.\n\nFrequency/Dose/Duration:   The single trial added buprenorphine to bupivacaine [1848].\n\nRationale:    A high-quality study comparing the addition of buprenorphine to bupivacaine caudal block provided increased duration of analgesia on average 8 hours (2 versus 10 hours); thus, it is selectively recommended."
    }
  ],
  "references": {
    "mtus-link": "https://app.mdguidelines.com/acoem-section/state-guidelines%2Fca-mtus%2Fhip-and-groin-disorders%2Fanesthesia-analgesia-techniques%2Ftreatment-recommendations%2Fregional-blocks",
    "odg-link": ""
  }
}