{
  "treatment": {
    "index-name": "compression-stockings-for-prevention-of-venous-thromboembolic-disease",
    "label-name": "Compression Stockings for Prevention of Venous Thromboembolic Disease",
    "treatment-type": "surgery-add-on"
  },
  "body-system": {
    "index-name": "hip-and-groin-disorders",
    "label-name": "Hip and Groin Disorders"
  },
  "version": {
    "mtus": "10/07/19",
    "odg": "",
    "policy-doc": "01/12/23",
    "created-by": "Cade",
    "comments": ""
  },
  "policies": [
    {
      "source": "mtus",
      "diagnosis": {
        "index-name": "surgery-add-on",
        "label-name": "Surgery Add-on"
      },
      "recommendation": "1",
      "questions": [
        {
          "#": "1",
          "question": "Is this being used for a post-operative major hip surgical patient (e.g., hip fractures, hip arthroplasties, or any other patient thought to be at an increased risk of VTED in the post-operative period)?  (Usually used as adjunctive treatment and often used for all patients.  Especially indicated among those having had a prior VTE, have contraindication(s) for anticoagulant therapy(ies) and/or are at particularly increased risk of VTE).",
          "option-list": [
            {
              "option": "yes",
              "action": "approve"
            },
            {
              "option": "no",
              "action": "deny"
            }
          ]
        }
      ],
      "mtus-text": "Moderately Recommended.\n\nPost-operative graded compression stockings are moderately recommended for the prevention of venous thromboembolic disease [1609, 1610].\n\nStrength of Evidence – Moderately Recommended, Evidence (B)\n\nLevel of Confidence – Moderate\n\nIndications:   All post-operative major hip surgical patients (e.g., hip fractures, hip arthroplasties, or any other patients thought at increased risk of VTED in the post-operative period).  Usually used as adjunctive treatment and often used for all patients.  Especially indicated among those having had a prior VTE, have contraindication(s) for anticoagulant therapy(ies) and/or are at particularly increased risk of VTE.\n\nBenefits:   Reduced risk of VTED\n\nHarms:    Negligible\n\nFrequency/Dose/Duration:   Duration of treatment is unclear and longer use does not add expense. As risk of VTED is high, particularly for these major procedures, threshold for use of 2 weeks or longer should be generally low.\n\nIndications for Discontinuation:   One month post-operative and/or resumption of all normal activities and activity levels. Use beyond 4 weeks is indicated for those who have not resumed normal activities.\n\nRationale:    There are many quality studies of various means to reduce risk of venous thromboembolic disease (see venous thromboembolic disease evidence table), although various methodological issues in the available trials have been raised [1600, 1603, 1611-1615]. Graded compression stockings have been compared with no compression stockings and found to reduce risk in one moderate quality study [1610]. They also have been included in quality studies as adjunctive therapy in a trial comparing enoxaparin plus stockings vs. enoxaparin alone and found to reduce risk [1609]. Stockings are not invasive, have few adverse effects and are low cost, thus, they are moderately recommended."
    }
  ],
  "references": {
    "mtus-link": "https://app.mdguidelines.com/acoem-section/state-guidelines%2Fca-mtus%2Fhip-and-groin-disorders%2Fvted-prevention%2Ftreatment-recommendations",
    "odg-link": ""
  }
}