{
  "treatment": {
    "index-name": "cryotherapy",
    "label-name": "Cryotherapy",
    "treatment-type": "surgery-add-on"
  },
  "body-system": {
    "index-name": "hip-and-groin-disorders",
    "label-name": "Hip and Groin Disorders"
  },
  "version": {
    "mtus": "10/07/19",
    "odg": "",
    "policy-doc": "01/17/23",
    "created-by": "Cade",
    "comments": ""
  },
  "policies": [
    {
      "source": "mtus",
      "diagnosis": {
        "index-name": "surgery-add-on",
        "label-name": "Surgery Add-on"
      },
      "recommendation": "approve",
      "questions": [],
      "mtus-text": "Cryotherapy is recommended for treatment of hip arthroplasty and surgery patients.\n\nStrength of Evidence – Recommended, Evidence (C)\n\nLevel of Confidence – Low\n\nIndications: Perioperative and immediate post-operative hip OA patients.\n\nBenefits:  Improved pain control, reduced opioids need.\n\nHarms:  Negligible.\n\nFrequency/Dose/Duration:   Pain relief with cold therapy for the first 4 post-operative days [895]. This includes cold compression.\n\nIndications for Discontinuation:   Achievement of plateau, maximum improvement, lack of efficacy, intolerance, including exacerbation of LBP.\n\nRationale:   There is one moderate-quality trial that addresses cryotherapies; however, it addressed post-operative arthroplasty patients and suggested benefits with significantly lower pain scores [895]. There are no quality trials that evaluate cryotherapy for treatment of other hip conditions. Among post-operative patients, earlier reductions in pain scores and improved mobility may assist in reducing post-operative complications including DVTs, thus cryotherapies including more expensive cryotherapy delivered by machines which are moderately costly appear justifiable and are recommended for these post-operative patients. For other patients, self applications of cryotherapies using towels or reusable devices are non-invasive, minimal cost, and without complications. While cryotherapy is generally not helpful in patients with osteoarthrosis, a small minority may find benefit, thus, cryotherapy is recommended as a potential distractant or counter-irritant. Other forms of cryotherapy can be considerably more expensive, including chemicals or cryotherapeutic applications in clinical settings and are not recommended."
    }
  ],
  "references": {
    "mtus-link": "https://app.mdguidelines.com/acoem-section/state-guidelines%2Fca-mtus%2Fhip-and-groin-disorders%2Fhip-osteoarthrosis%2Ftreatment-recommendations%2Fhot-and-cold-therapies",
    "odg-link": ""
  }
}