{
  "treatment": {
    "index-name": "factor-xa-inhibitors-for-prevention-of-venous-thromboembolic-disease",
    "label-name": "Factor Xa Inhibitors for Prevention of Venous Thromboembolic Disease",
    "treatment-type": "surgery-add-on"
  },
  "body-system": {
    "index-name": "hip-and-groin-disorders",
    "label-name": "Hip and Groin Disorders"
  },
  "version": {
    "mtus": "10/07/19",
    "odg": "",
    "policy-doc": "01/12/23",
    "created-by": "Cade",
    "comments": ""
  },
  "policies": [
    {
      "source": "mtus",
      "diagnosis": {
        "index-name": "surgery-add-on",
        "label-name": "Surgery Add-on"
      },
      "recommendation": "1",
      "questions": [
        {
          "#": "1",
          "question": "Is the patient a post-operative arthroplasty patient, hip fracture patients, or other major hip surgery patients? (Particularly with prolonged inactivity or prolonged reduced or sedentary activity levels ). (Those with contraindication(s) for anticoagulant therapy(ies) and/or are at particularly increased risk of VTE may be better candidates for compressive devices.  Patients with prior reactions should generally receive other treatments first. Patients with renal failure or renal insufficiency should generally receive a different medication due to renal excretion of this compound).",
          "option-list": [
            {
              "option": "yes",
              "action": "approve"
            },
            {
              "option": "no",
              "action": "deny"
            }
          ]
        }
      ],
      "mtus-text": "Strongly Recommended.\n\nFactor Xa inhibitors are strongly recommended for the prevention of venous thromboembolic disease.\n\nStrength of Evidence – Strongly Recommended, Evidence (A)\n\nLevel of Confidence – High\n\nIndications:   Post-operative arthroplasty patients, hip fracture patients, or other major hip surgery patients, particularly those with prolonged inactivity or prolonged reduced or sedentary activity levels [1598, 1649-1651]. Particularly indicated for those with a prior VTE.  There is no clear superiority or inferiority of LMWHs, Factor Xa inhibitors,  and/or traditional warfarin-based regimens Those with contraindication(s) for anticoagulant therapy(ies) and/or are at particularly increased risk of VTE may be better candidates for compressive devices.  Patients with prior reactions should generally receive other treatments first. Patients with renal failure or renal insufficiency should generally receive a different medication due to renal excretion of this compound.\n\nBenefits:   Reduced risk of VTED\n\nHarms:   Increased risk of bleeding. Risk of intracranial and gastrointestinal bleeds of particular concern, especially as the treatment is not readily reversible.\n\nFrequency/Dose/Duration:     Medications include subcutaneous injections of Fondaparinux (Arixtra) 2.5mg SC QD; Rivaroxaban (Xarelto) and Apixaban (Eliquis). The recommended duration of a course of treatment is unclear. The literature suggests duration be individualized based largely on factors such as prolonged inactivity, delayed recovery or thrombotic recurrences, prior history and risks of bleeding.\n\nIndications for Discontinuation:    Completion of course of treatment, development of major complication (e.g., major bleeding) or other adverse effect.\n\nRationale:     There are a few studies of Factor Xa inhibitors, with quality studies having shown Fondaparinux superiority to placebo [1650]. One study found efficacy of Rivaroxaban among femoral neck fracture patients [1652]. Additionally, these agents have been shown to be superior to enoxaparin in two quality studies [1598, 1649], although equivalent in another [1651]. Major bleeding appears more common with Fondparinux than enoxaparin [1614]. While mildly invasive and with some adverse effects, these medications are effective in reducing risk of VTED and thus are strongly recommended."
    }
  ],
  "references": {
    "mtus-link": "https://app.mdguidelines.com/acoem-section/state-guidelines%2Fca-mtus%2Fhip-and-groin-disorders%2Fvted-prevention%2Ftreatment-recommendations",
    "odg-link": ""
  }
}