{
  "treatment": {
    "index-name": "spinal-continuous/local-anesthetic",
    "label-name": "Spinal Continuous/Local Anesthetic",
    "treatment-type": "surgery-add-on"
  },
  "body-system": {
    "index-name": "hip-and-groin-disorders",
    "label-name": "Hip and Groin Disorders"
  },
  "version": {
    "mtus": "10/07/19",
    "odg": "",
    "policy-doc": "01/12/23",
    "created-by": "Cade",
    "comments": ""
  },
  "policies": [
    {
      "source": "mtus",
      "diagnosis": {
        "index-name": "surgery-add-on",
        "label-name": "Surgery Add-on"
      },
      "recommendation": "1",
      "questions": [
        {
          "#": "1",
          "question": "Is there a need of spinal anesthesia for lower extremity surgery?",
          "option-list": [
            {
              "option": "yes",
              "action": "approve"
            },
            {
              "option": "no",
              "action": "deny"
            }
          ]
        }
      ],
      "mtus-text": "Recommended.\n\nSpinal continuous/local anesthetic is recommended for use in patients who are without contraindications and who are closely monitored.\n\nStrength of Evidence – Recommended, Evidence (C)\n\nLevel of Confidence – Low\n\nIndications:     Need of spinal anesthesia for lower extremity surgery\n\nBenefits:      Prolonged duration of anesthesia [1864].\n\nHarms:       The single comparative trial found continuous spinal anesthesia produced better hemodynamic stability during anesthesia induction compared with a spinal and PCA morphine for total hip arthroplasty [1864]. Spinals can have major complications from bleeding when DVT prophylaxis is also instituted.\n\nRationale:    There is one comparative trial of continuous spinal with a spinal and PCA morphine and found better analgesia and fewer induction-related complications [1864]. Other trials utilized continuous spinals in both treatment arms [1865, 1866]. Continuous spinals are invasive, have adverse effects, are high cost, have evidence of efficacy with a superior adverse effect profile, and thus are recommended as an option for lower extremity surgeries."
    }
  ],
  "references": {
    "mtus-link": "https://app.mdguidelines.com/acoem-section/state-guidelines%2Fca-mtus%2Fhip-and-groin-disorders%2Fanesthesia-analgesia-techniques%2Ftreatment-recommendations%2Fintrathecal",
    "odg-link": ""
  }
}