{
  "treatment": {
    "index-name": "tropisetron-for-control-of-adverse-effects-of-spinal-opioid-anesthesia",
    "label-name": "Tropisetron for Control of Adverse Effects of Spinal Opioid Anesthesia",
    "treatment-type": "surgery-add-on"
  },
  "body-system": {
    "index-name": "hip-and-groin-disorders",
    "label-name": "Hip and Groin Disorders"
  },
  "version": {
    "mtus": "10/07/19",
    "odg": "",
    "policy-doc": "01/12/23",
    "created-by": "Cade",
    "comments": ""
  },
  "policies": [
    {
      "source": "mtus",
      "diagnosis": {
        "index-name": "surgery-add-on",
        "label-name": "Surgery Add-on"
      },
      "recommendation": "deny",
      "questions": [],
      "mtus-text": "Not Recommended.\n\nTropisetron is not recommended for patients receiving spinal anesthesia."
    }
  ],
  "references": {
    "mtus-link": "https://app.mdguidelines.com/acoem-section/state-guidelines%2Fca-mtus%2Fhip-and-groin-disorders%2Fanesthesia-analgesia-techniques%2Ftreatment-recommendations%2Fprevention",
    "odg-link": ""
  }
}