{
  "treatment": {
    "index-name": "application-of-heat-therapy-by-a-health-care-provider",
    "label-name": "Application of Heat Therapy by a Health Care Provider",
    "treatment-type": "other"
  },
  "body-system": {
    "index-name": "neck-and-upper-back",
    "label-name": "Neck and Upper Back"
  },
  "version": {
    "mtus": "04/18/19",
    "odg": "",
    "policy-doc": "09/06/22",
    "created-by": "Cade",
    "comments": ""
  },
  "policies": [
    {
      "source": "mtus",
      "diagnosis": {
        "index-name": "chronic-spine-pain",
        "label-name": "Chronic Spine Pain"
      },
      "recommendation": "deny",
      "questions": [],
      "mtus-text": "Not Recommended. Application of heat (such as infrared, moist heat, whirlpool) by a health care provider is not recommended for chronic spine pain as the patient can perform this application independently.\n\nStrength of Evidence – Not Recommended, Insufficient Evidence (I)\n\nLevel of Confidence – Moderate\n\nRationale: A moderate-quality trial compared manipulation and mobilization with and without moist heat therapy. The authors reported that a clinically meaningful reduction in most severe pain was 60% more likely among participants assigned to heat therapy vs no heat at the 2 week follow-up assessment.(932) Heat therapy in the form of a commercial heat wrap has not been studied as well in cervical pain as in lumbar pain. While there is a lack of direct RCTs evaluating heat, with the evidence that is available in cervicothoracic pain, it is reasonable to prescribe. It is most beneficial to use heat in conjunction with a treatment program that is active.(932)"
    }
  ],
  "references": {
    "mtus-link": "https://app.mdguidelines.com/acoem-section/state-guidelines%2Fca-mtus%2Fcervical-and-thoracic-spine%2Fdiagnostic-and-treatment-recommendations%2Fcervicothoracic-pain%2Ftreatment-recommendations%2Fhot-and-cold-therapies",
    "odg-link": ""
  }
}