{
  "treatment": {
    "index-name": "co2-insufflation",
    "label-name": "CO2 Insufflation",
    "treatment-type": "other"
  },
  "body-system": {
    "index-name": "neck-and-upper-back",
    "label-name": "Neck and Upper Back"
  },
  "version": {
    "mtus": "04/18/19",
    "odg": "",
    "policy-doc": "05/08/22",
    "created-by": "Binu",
    "comments": "No content in ODG for Co2 insufflation"
  },
  "policies": [
    {
      "source": "mtus",
      "diagnosis": {
        "index-name": "cervicothoracic-pain-acute",
        "label-name": "Cervicothoracic Pain - Acute"
      },
      "recommendation": "deny",
      "questions": [],
      "mtus-text": "Subcutaneous carbon-dioxide insufflation is moderately not recommended for treatment of acute, subacute, or chronic cervicothoracic pain with or without radiculopathy."
    },
    {
      "source": "mtus",
      "diagnosis": {
        "index-name": "cervicothoracic-pain-subacute",
        "label-name": "Cervicothoracic Pain - Subacute"
      },
      "recommendation": "deny",
      "questions": [],
      "mtus-text": "Subcutaneous carbon-dioxide insufflation is moderately not recommended for treatment of acute, subacute, or chronic cervicothoracic pain with or without radiculopathy."
    },
    {
      "source": "mtus",
      "diagnosis": {
        "index-name": "cervicothoracic-pain-chronic",
        "label-name": "Cervicothoracic Pain - Chronic"
      },
      "recommendation": "deny",
      "questions": [],
      "mtus-text": "Subcutaneous carbon-dioxide insufflation is moderately not recommended for treatment of acute, subacute, or chronic cervicothoracic pain with or without radiculopathy."
    }
  ],
  "references": {
    "mtus-link": "https://app.mdguidelines.com/state-guidelines/ca-mtus/cervical-and-thoracic-spine/diagnostic-and-treatment-recommendations/cervicothoracic-pain/treatment-recommendations/allied-health",
    "odg-link": ""
  }
}