{
  "treatment": {
    "index-name": "continuous-infusion-of-local-anesthetic",
    "label-name": "Continuous Infusion of Local Anesthetic",
    "treatment-type": "other"
  },
  "body-system": {
    "index-name": "neck-and-upper-back",
    "label-name": "Neck and Upper Back"
  },
  "version": {
    "mtus": "04/18/19",
    "odg": "",
    "policy-doc": "09/06/22",
    "created-by": "Cade",
    "comments": ""
  },
  "policies": [
    {
      "source": "mtus",
      "diagnosis": {
        "index-name": "acute-cervicothoracic-pain-with-radiculopathy",
        "label-name": "Acute Cervicothoracic Pain with Radiculopathy"
      },
      "recommendation": "deny",
      "questions": [],
      "mtus-text": "Not Recommended. Continuous infusion of local corticosteroids and local anesthetic for acute, subacute, or chronic cervicothoracic pain with or without radiculopathy.\n\nStrength of Evidence – Not Recommended, Insufficient Evidence (I)\n\n \n\nLevel of Confidence – Moderate\n\n \n\nRationale: There is a lack of quality trials for treatment of patients with acute or subacute cervicothoracic radicular pain. There is quality evidence documenting relatively weak efficacy for lumbar radiculopathy (see Low Back Disorders guideline). However, the risks of adverse effects are greater in the cervical spine than in the lumbar spine and have included quadriplegia.(1154, 1155) Thus epidural, intralaminar, and transforaminal approaches for epidural steroid injections and selective nerve root injections for radicular pain are not recommended.(1156)\n\nRegarding non-radicular pain, there are no quality saline controlled trials although there are two trials with local anesthetic injections. A moderate-quality RCT compared methylprednisolone 40mg with 0.5ml carbocaine to 0.5ml carbocaine and 1ml saline. The authors reported a between-group difference of a 17% reduction in pain symptoms in the steroid group and 16% reduction of pain in the non-steroid group. They performed fluoroscopically guided transforaminal injections in patients who had positive diagnostic nerve root blocks performed before randomization. They included patients with MRI diagnoses of foraminal stenosis and hard disc disease.(1157) Another study compared 5ml lidocaine with 5ml lidocaine and 6mg betamethasone and reported no significant difference between groups at 12 months.(1158) A moderate-quality study compared triamcinolone 10mg/ml (dose was variable and dependent on volume injected) plus 0.5% lidocaine with triamcinolone, 0.5% lidocaine and 2.5mg morphine without any significant difference between the groups. They included patients who had x-rays, myelography, CT scan, and electrophysiology tests that did not reveal any pathology. The patients had undergone medical treatment for at least 12 months including NSAIDs, activity restrictions, physiotherapy, and other medical treatments and failed to respond. The overall improvement was 79.2% improvement to complete, excellent, or good pain control at 12 months.(1159) Another moderate-quality study comparing methylprednisolone 80mg with 5ml 1% lidocaine into the cervical epidural space to injection of the same medications into posterior neck muscles reported decreased pain and increased range of motion at 12 months in the epidural injection group.(1160) Thus, there is quality evidence that epidural steroid injections are not successful for treatment of chronic cervical radiculopathy and these injections are not recommended.\n\nThere are no sham-controlled studies of continuous infusion into the cervical spine. There is a moderate-quality study comparing continuous 0.25% bupivacaine with boluses of methylprednisolone 40mg every 4 to 5 days via catheter with 0.25% bupivacaine with epinephrine with 80mg methylprednisolone acetate with a 4 to 5 day interval between injections. Patients were classified as “resistant” to conventional therapy. They had CT or MRI exams with evidence of herniated nucleus pulposes or cervical spondylosis. Follow up at 6 months did not find statistical difference for the patients with pain <180 days duration. In patients with >180 days duration of pain the study reported improved pain control and number of pain-free hours compared to injection treatment.(1161) These procedures are quite invasive on a cumulative basis and thus are not recommended pending reporting of quality trials, particularly with placebo or sham control."
    },
    {
      "source": "mtus",
      "diagnosis": {
        "index-name": "subacute-cervicothoracic-pain-with-radiculopathy",
        "label-name": "Subacute Cervicothoracic Pain with Radiculopathy"
      },
      "recommendation": "deny",
      "questions": [],
      "mtus-text": "Not Recommended. Continuous infusion of local corticosteroids and local anesthetic for acute, subacute, or chronic cervicothoracic pain with or without radiculopathy.\n\nStrength of Evidence – Not Recommended, Insufficient Evidence (I)\n\n \n\nLevel of Confidence – Moderate\n\n \n\nRationale: There is a lack of quality trials for treatment of patients with acute or subacute cervicothoracic radicular pain. There is quality evidence documenting relatively weak efficacy for lumbar radiculopathy (see Low Back Disorders guideline). However, the risks of adverse effects are greater in the cervical spine than in the lumbar spine and have included quadriplegia.(1154, 1155) Thus epidural, intralaminar, and transforaminal approaches for epidural steroid injections and selective nerve root injections for radicular pain are not recommended.(1156)\n\nRegarding non-radicular pain, there are no quality saline controlled trials although there are two trials with local anesthetic injections. A moderate-quality RCT compared methylprednisolone 40mg with 0.5ml carbocaine to 0.5ml carbocaine and 1ml saline. The authors reported a between-group difference of a 17% reduction in pain symptoms in the steroid group and 16% reduction of pain in the non-steroid group. They performed fluoroscopically guided transforaminal injections in patients who had positive diagnostic nerve root blocks performed before randomization. They included patients with MRI diagnoses of foraminal stenosis and hard disc disease.(1157) Another study compared 5ml lidocaine with 5ml lidocaine and 6mg betamethasone and reported no significant difference between groups at 12 months.(1158) A moderate-quality study compared triamcinolone 10mg/ml (dose was variable and dependent on volume injected) plus 0.5% lidocaine with triamcinolone, 0.5% lidocaine and 2.5mg morphine without any significant difference between the groups. They included patients who had x-rays, myelography, CT scan, and electrophysiology tests that did not reveal any pathology. The patients had undergone medical treatment for at least 12 months including NSAIDs, activity restrictions, physiotherapy, and other medical treatments and failed to respond. The overall improvement was 79.2% improvement to complete, excellent, or good pain control at 12 months.(1159) Another moderate-quality study comparing methylprednisolone 80mg with 5ml 1% lidocaine into the cervical epidural space to injection of the same medications into posterior neck muscles reported decreased pain and increased range of motion at 12 months in the epidural injection group.(1160) Thus, there is quality evidence that epidural steroid injections are not successful for treatment of chronic cervical radiculopathy and these injections are not recommended.\n\nThere are no sham-controlled studies of continuous infusion into the cervical spine. There is a moderate-quality study comparing continuous 0.25% bupivacaine with boluses of methylprednisolone 40mg every 4 to 5 days via catheter with 0.25% bupivacaine with epinephrine with 80mg methylprednisolone acetate with a 4 to 5 day interval between injections. Patients were classified as “resistant” to conventional therapy. They had CT or MRI exams with evidence of herniated nucleus pulposes or cervical spondylosis. Follow up at 6 months did not find statistical difference for the patients with pain <180 days duration. In patients with >180 days duration of pain the study reported improved pain control and number of pain-free hours compared to injection treatment.(1161) These procedures are quite invasive on a cumulative basis and thus are not recommended pending reporting of quality trials, particularly with placebo or sham control."
    },
    {
      "source": "mtus",
      "diagnosis": {
        "index-name": "chronic-cervicothoracic-pain-with-radiculopathy",
        "label-name": "Chronic Cervicothoracic Pain with Radiculopathy"
      },
      "recommendation": "deny",
      "questions": [],
      "mtus-text": "Not Recommended. Continuous infusion of local corticosteroids and local anesthetic for acute, subacute, or chronic cervicothoracic pain with or without radiculopathy.\n\nStrength of Evidence – Not Recommended, Insufficient Evidence (I)\n\n \n\nLevel of Confidence – Moderate\n\n \n\nRationale: There is a lack of quality trials for treatment of patients with acute or subacute cervicothoracic radicular pain. There is quality evidence documenting relatively weak efficacy for lumbar radiculopathy (see Low Back Disorders guideline). However, the risks of adverse effects are greater in the cervical spine than in the lumbar spine and have included quadriplegia.(1154, 1155) Thus epidural, intralaminar, and transforaminal approaches for epidural steroid injections and selective nerve root injections for radicular pain are not recommended.(1156)\n\nRegarding non-radicular pain, there are no quality saline controlled trials although there are two trials with local anesthetic injections. A moderate-quality RCT compared methylprednisolone 40mg with 0.5ml carbocaine to 0.5ml carbocaine and 1ml saline. The authors reported a between-group difference of a 17% reduction in pain symptoms in the steroid group and 16% reduction of pain in the non-steroid group. They performed fluoroscopically guided transforaminal injections in patients who had positive diagnostic nerve root blocks performed before randomization. They included patients with MRI diagnoses of foraminal stenosis and hard disc disease.(1157) Another study compared 5ml lidocaine with 5ml lidocaine and 6mg betamethasone and reported no significant difference between groups at 12 months.(1158) A moderate-quality study compared triamcinolone 10mg/ml (dose was variable and dependent on volume injected) plus 0.5% lidocaine with triamcinolone, 0.5% lidocaine and 2.5mg morphine without any significant difference between the groups. They included patients who had x-rays, myelography, CT scan, and electrophysiology tests that did not reveal any pathology. The patients had undergone medical treatment for at least 12 months including NSAIDs, activity restrictions, physiotherapy, and other medical treatments and failed to respond. The overall improvement was 79.2% improvement to complete, excellent, or good pain control at 12 months.(1159) Another moderate-quality study comparing methylprednisolone 80mg with 5ml 1% lidocaine into the cervical epidural space to injection of the same medications into posterior neck muscles reported decreased pain and increased range of motion at 12 months in the epidural injection group.(1160) Thus, there is quality evidence that epidural steroid injections are not successful for treatment of chronic cervical radiculopathy and these injections are not recommended.\n\nThere are no sham-controlled studies of continuous infusion into the cervical spine. There is a moderate-quality study comparing continuous 0.25% bupivacaine with boluses of methylprednisolone 40mg every 4 to 5 days via catheter with 0.25% bupivacaine with epinephrine with 80mg methylprednisolone acetate with a 4 to 5 day interval between injections. Patients were classified as “resistant” to conventional therapy. They had CT or MRI exams with evidence of herniated nucleus pulposes or cervical spondylosis. Follow up at 6 months did not find statistical difference for the patients with pain <180 days duration. In patients with >180 days duration of pain the study reported improved pain control and number of pain-free hours compared to injection treatment.(1161) These procedures are quite invasive on a cumulative basis and thus are not recommended pending reporting of quality trials, particularly with placebo or sham control."
    },
    {
      "source": "mtus",
      "diagnosis": {
        "index-name": "acute-cervicothoracic-pain-without-radiculopathy",
        "label-name": "Acute Cervicothoracic Pain without Radiculopathy"
      },
      "recommendation": "deny",
      "questions": [],
      "mtus-text": "Not Recommended. Continuous infusion of local corticosteroids and local anesthetic for acute, subacute, or chronic cervicothoracic pain with or without radiculopathy.\n\nStrength of Evidence – Not Recommended, Insufficient Evidence (I)\n\n \n\nLevel of Confidence – Moderate\n\n \n\nRationale: There is a lack of quality trials for treatment of patients with acute or subacute cervicothoracic radicular pain. There is quality evidence documenting relatively weak efficacy for lumbar radiculopathy (see Low Back Disorders guideline). However, the risks of adverse effects are greater in the cervical spine than in the lumbar spine and have included quadriplegia.(1154, 1155) Thus epidural, intralaminar, and transforaminal approaches for epidural steroid injections and selective nerve root injections for radicular pain are not recommended.(1156)\n\nRegarding non-radicular pain, there are no quality saline controlled trials although there are two trials with local anesthetic injections. A moderate-quality RCT compared methylprednisolone 40mg with 0.5ml carbocaine to 0.5ml carbocaine and 1ml saline. The authors reported a between-group difference of a 17% reduction in pain symptoms in the steroid group and 16% reduction of pain in the non-steroid group. They performed fluoroscopically guided transforaminal injections in patients who had positive diagnostic nerve root blocks performed before randomization. They included patients with MRI diagnoses of foraminal stenosis and hard disc disease.(1157) Another study compared 5ml lidocaine with 5ml lidocaine and 6mg betamethasone and reported no significant difference between groups at 12 months.(1158) A moderate-quality study compared triamcinolone 10mg/ml (dose was variable and dependent on volume injected) plus 0.5% lidocaine with triamcinolone, 0.5% lidocaine and 2.5mg morphine without any significant difference between the groups. They included patients who had x-rays, myelography, CT scan, and electrophysiology tests that did not reveal any pathology. The patients had undergone medical treatment for at least 12 months including NSAIDs, activity restrictions, physiotherapy, and other medical treatments and failed to respond. The overall improvement was 79.2% improvement to complete, excellent, or good pain control at 12 months.(1159) Another moderate-quality study comparing methylprednisolone 80mg with 5ml 1% lidocaine into the cervical epidural space to injection of the same medications into posterior neck muscles reported decreased pain and increased range of motion at 12 months in the epidural injection group.(1160) Thus, there is quality evidence that epidural steroid injections are not successful for treatment of chronic cervical radiculopathy and these injections are not recommended.\n\nThere are no sham-controlled studies of continuous infusion into the cervical spine. There is a moderate-quality study comparing continuous 0.25% bupivacaine with boluses of methylprednisolone 40mg every 4 to 5 days via catheter with 0.25% bupivacaine with epinephrine with 80mg methylprednisolone acetate with a 4 to 5 day interval between injections. Patients were classified as “resistant” to conventional therapy. They had CT or MRI exams with evidence of herniated nucleus pulposes or cervical spondylosis. Follow up at 6 months did not find statistical difference for the patients with pain <180 days duration. In patients with >180 days duration of pain the study reported improved pain control and number of pain-free hours compared to injection treatment.(1161) These procedures are quite invasive on a cumulative basis and thus are not recommended pending reporting of quality trials, particularly with placebo or sham control."
    },
    {
      "source": "mtus",
      "diagnosis": {
        "index-name": "subacute-cervicothoracic-pain-without-radiculopathy",
        "label-name": "Subacute Cervicothoracic Pain without Radiculopathy"
      },
      "recommendation": "deny",
      "questions": [],
      "mtus-text": "Not Recommended. Continuous infusion of local corticosteroids and local anesthetic for acute, subacute, or chronic cervicothoracic pain with or without radiculopathy.\n\nStrength of Evidence – Not Recommended, Insufficient Evidence (I)\n\n \n\nLevel of Confidence – Moderate\n\n \n\nRationale: There is a lack of quality trials for treatment of patients with acute or subacute cervicothoracic radicular pain. There is quality evidence documenting relatively weak efficacy for lumbar radiculopathy (see Low Back Disorders guideline). However, the risks of adverse effects are greater in the cervical spine than in the lumbar spine and have included quadriplegia.(1154, 1155) Thus epidural, intralaminar, and transforaminal approaches for epidural steroid injections and selective nerve root injections for radicular pain are not recommended.(1156)\n\nRegarding non-radicular pain, there are no quality saline controlled trials although there are two trials with local anesthetic injections. A moderate-quality RCT compared methylprednisolone 40mg with 0.5ml carbocaine to 0.5ml carbocaine and 1ml saline. The authors reported a between-group difference of a 17% reduction in pain symptoms in the steroid group and 16% reduction of pain in the non-steroid group. They performed fluoroscopically guided transforaminal injections in patients who had positive diagnostic nerve root blocks performed before randomization. They included patients with MRI diagnoses of foraminal stenosis and hard disc disease.(1157) Another study compared 5ml lidocaine with 5ml lidocaine and 6mg betamethasone and reported no significant difference between groups at 12 months.(1158) A moderate-quality study compared triamcinolone 10mg/ml (dose was variable and dependent on volume injected) plus 0.5% lidocaine with triamcinolone, 0.5% lidocaine and 2.5mg morphine without any significant difference between the groups. They included patients who had x-rays, myelography, CT scan, and electrophysiology tests that did not reveal any pathology. The patients had undergone medical treatment for at least 12 months including NSAIDs, activity restrictions, physiotherapy, and other medical treatments and failed to respond. The overall improvement was 79.2% improvement to complete, excellent, or good pain control at 12 months.(1159) Another moderate-quality study comparing methylprednisolone 80mg with 5ml 1% lidocaine into the cervical epidural space to injection of the same medications into posterior neck muscles reported decreased pain and increased range of motion at 12 months in the epidural injection group.(1160) Thus, there is quality evidence that epidural steroid injections are not successful for treatment of chronic cervical radiculopathy and these injections are not recommended.\n\nThere are no sham-controlled studies of continuous infusion into the cervical spine. There is a moderate-quality study comparing continuous 0.25% bupivacaine with boluses of methylprednisolone 40mg every 4 to 5 days via catheter with 0.25% bupivacaine with epinephrine with 80mg methylprednisolone acetate with a 4 to 5 day interval between injections. Patients were classified as “resistant” to conventional therapy. They had CT or MRI exams with evidence of herniated nucleus pulposes or cervical spondylosis. Follow up at 6 months did not find statistical difference for the patients with pain <180 days duration. In patients with >180 days duration of pain the study reported improved pain control and number of pain-free hours compared to injection treatment.(1161) These procedures are quite invasive on a cumulative basis and thus are not recommended pending reporting of quality trials, particularly with placebo or sham control."
    },
    {
      "source": "mtus",
      "diagnosis": {
        "index-name": "chronic-cervicothoracic-pain-without-radiculopathy",
        "label-name": "Chronic Cervicothoracic Pain without Radiculopathy"
      },
      "recommendation": "deny",
      "questions": [],
      "mtus-text": "Not Recommended. Continuous infusion of local corticosteroids and local anesthetic for acute, subacute, or chronic cervicothoracic pain with or without radiculopathy.\n\nStrength of Evidence – Not Recommended, Insufficient Evidence (I)\n\n \n\nLevel of Confidence – Moderate\n\n \n\nRationale: There is a lack of quality trials for treatment of patients with acute or subacute cervicothoracic radicular pain. There is quality evidence documenting relatively weak efficacy for lumbar radiculopathy (see Low Back Disorders guideline). However, the risks of adverse effects are greater in the cervical spine than in the lumbar spine and have included quadriplegia.(1154, 1155) Thus epidural, intralaminar, and transforaminal approaches for epidural steroid injections and selective nerve root injections for radicular pain are not recommended.(1156)\n\nRegarding non-radicular pain, there are no quality saline controlled trials although there are two trials with local anesthetic injections. A moderate-quality RCT compared methylprednisolone 40mg with 0.5ml carbocaine to 0.5ml carbocaine and 1ml saline. The authors reported a between-group difference of a 17% reduction in pain symptoms in the steroid group and 16% reduction of pain in the non-steroid group. They performed fluoroscopically guided transforaminal injections in patients who had positive diagnostic nerve root blocks performed before randomization. They included patients with MRI diagnoses of foraminal stenosis and hard disc disease.(1157) Another study compared 5ml lidocaine with 5ml lidocaine and 6mg betamethasone and reported no significant difference between groups at 12 months.(1158) A moderate-quality study compared triamcinolone 10mg/ml (dose was variable and dependent on volume injected) plus 0.5% lidocaine with triamcinolone, 0.5% lidocaine and 2.5mg morphine without any significant difference between the groups. They included patients who had x-rays, myelography, CT scan, and electrophysiology tests that did not reveal any pathology. The patients had undergone medical treatment for at least 12 months including NSAIDs, activity restrictions, physiotherapy, and other medical treatments and failed to respond. The overall improvement was 79.2% improvement to complete, excellent, or good pain control at 12 months.(1159) Another moderate-quality study comparing methylprednisolone 80mg with 5ml 1% lidocaine into the cervical epidural space to injection of the same medications into posterior neck muscles reported decreased pain and increased range of motion at 12 months in the epidural injection group.(1160) Thus, there is quality evidence that epidural steroid injections are not successful for treatment of chronic cervical radiculopathy and these injections are not recommended.\n\nThere are no sham-controlled studies of continuous infusion into the cervical spine. There is a moderate-quality study comparing continuous 0.25% bupivacaine with boluses of methylprednisolone 40mg every 4 to 5 days via catheter with 0.25% bupivacaine with epinephrine with 80mg methylprednisolone acetate with a 4 to 5 day interval between injections. Patients were classified as “resistant” to conventional therapy. They had CT or MRI exams with evidence of herniated nucleus pulposes or cervical spondylosis. Follow up at 6 months did not find statistical difference for the patients with pain <180 days duration. In patients with >180 days duration of pain the study reported improved pain control and number of pain-free hours compared to injection treatment.(1161) These procedures are quite invasive on a cumulative basis and thus are not recommended pending reporting of quality trials, particularly with placebo or sham control."
    }
  ],
  "references": {
    "mtus-link": "https://app.mdguidelines.com/acoem-section/state-guidelines%2Fca-mtus%2Fcervical-and-thoracic-spine%2Fdiagnostic-and-treatment-recommendations%2Fradicular-pain%2Ftreatment-recommendations",
    "odg-link": ""
  }
}