{
  "treatment": {
    "index-name": "facet-joint-hyaluronic-acid-injections",
    "label-name": "Facet Joint Hyaluronic Acid Injections",
    "treatment-type": "other"
  },
  "body-system": {
    "index-name": "neck-and-upper-back",
    "label-name": "Neck and Upper Back"
  },
  "version": {
    "mtus": "04/18/19",
    "odg": "",
    "policy-doc": "09/06/22",
    "created-by": "Cade",
    "comments": ""
  },
  "policies": [
    {
      "source": "mtus",
      "diagnosis": {
        "index-name": "acute-cervicothoracic-pain-with-radicular-pain-syndromes",
        "label-name": "Acute Cervicothoracic Pain with Radicular Pain Syndromes"
      },
      "recommendation": "deny",
      "questions": [],
      "mtus-text": "Not Recommended. Facet joint injections with hyaluronic acid are not recommended for acute, subacute, or chronic cervicothoracic pain with or without radicular pain syndromes.\n\nStrength of Evidence – Not Recommended, Insufficient Evidence (I)\n\nLevel of Confidence – Low\n\nRationale: There are no sham controlled or quality trials of hyaluronic facet joint injections in cervicothoracic pain. There is one moderate-quality trial evaluating facet hyaluronic facet joint injection compared to steroid facet joint injections that reported some benefit; however, the comparison group has not been shown to be beneficial.(1191) This procedure is invasive, requiring a series of 18 injections performed at 3 levels, so radiation exposure is significant, and is high cost. Additional studies need to be conducted in spinal conditions (see Low Back Disorders guideline)."
    },
    {
      "source": "mtus",
      "diagnosis": {
        "index-name": "subacute-cervicothoracic-pain-with-radicular-pain-syndromes",
        "label-name": "Subacute Cervicothoracic Pain with Radicular Pain Syndromes"
      },
      "recommendation": "deny",
      "questions": [],
      "mtus-text": "Not Recommended. Facet joint injections with hyaluronic acid are not recommended for acute, subacute, or chronic cervicothoracic pain with or without radicular pain syndromes.\n\nStrength of Evidence – Not Recommended, Insufficient Evidence (I)\n\nLevel of Confidence – Low\n\nRationale: There are no sham controlled or quality trials of hyaluronic facet joint injections in cervicothoracic pain. There is one moderate-quality trial evaluating facet hyaluronic facet joint injection compared to steroid facet joint injections that reported some benefit; however, the comparison group has not been shown to be beneficial.(1191) This procedure is invasive, requiring a series of 18 injections performed at 3 levels, so radiation exposure is significant, and is high cost. Additional studies need to be conducted in spinal conditions (see Low Back Disorders guideline)."
    },
    {
      "source": "mtus",
      "diagnosis": {
        "index-name": "chronic-cervicothoracic-pain-with-radicular-pain-syndromes",
        "label-name": "Chronic Cervicothoracic Pain with Radicular Pain Syndromes"
      },
      "recommendation": "deny",
      "questions": [],
      "mtus-text": "Not Recommended. Facet joint injections with hyaluronic acid are not recommended for acute, subacute, or chronic cervicothoracic pain with or without radicular pain syndromes.\n\nStrength of Evidence – Not Recommended, Insufficient Evidence (I)\n\nLevel of Confidence – Low\n\nRationale: There are no sham controlled or quality trials of hyaluronic facet joint injections in cervicothoracic pain. There is one moderate-quality trial evaluating facet hyaluronic facet joint injection compared to steroid facet joint injections that reported some benefit; however, the comparison group has not been shown to be beneficial.(1191) This procedure is invasive, requiring a series of 18 injections performed at 3 levels, so radiation exposure is significant, and is high cost. Additional studies need to be conducted in spinal conditions (see Low Back Disorders guideline)."
    },
    {
      "source": "mtus",
      "diagnosis": {
        "index-name": "cervicothoracic-pain-without-radicular-pain-syndromes",
        "label-name": "Cervicothoracic Pain without Radicular Pain Syndromes"
      },
      "recommendation": "deny",
      "questions": [],
      "mtus-text": "Not Recommended. Facet joint injections with hyaluronic acid are not recommended for acute, subacute, or chronic cervicothoracic pain with or without radicular pain syndromes.\n\nStrength of Evidence – Not Recommended, Insufficient Evidence (I)\n\nLevel of Confidence – Low\n\nRationale: There are no sham controlled or quality trials of hyaluronic facet joint injections in cervicothoracic pain. There is one moderate-quality trial evaluating facet hyaluronic facet joint injection compared to steroid facet joint injections that reported some benefit; however, the comparison group has not been shown to be beneficial.(1191) This procedure is invasive, requiring a series of 18 injections performed at 3 levels, so radiation exposure is significant, and is high cost. Additional studies need to be conducted in spinal conditions (see Low Back Disorders guideline)."
    }
  ],
  "references": {
    "mtus-link": "https://app.mdguidelines.com/acoem-section/state-guidelines%2Fca-mtus%2Fcervical-and-thoracic-spine%2Fdiagnostic-and-treatment-recommendations%2Fradicular-pain%2Ftreatment-recommendations",
    "odg-link": ""
  }
}