{
    "treatment": {
      "index-name": "mri-discography",
      "label-name": "MRI Discography",
      "treatment-type": "other"
    },
    "body-system": {
      "index-name": "neck-and-upper-back",
      "label-name": "Neck and Upper Back"
    },
    "version": {
      "mtus": "04/18/19",
      "odg": "",
      "policy-doc": "06/16/22",
      "created-by": "Siva",
      "comments": "Did not find MRI discography for upper neck in ODG, check double confirm with Dr.Bill"
    },
    "policies": [
      {
        "source": "mtus",
        "diagnosis": {
          "index-name": "herniated-discs",
          "label-name": "Herniated Discs"
        },
        "recommendation": "deny",
        "questions": [],
        "mtus-text": "The role of discography combined with MRI for evaluating herniated discs has not been determined. MRI discography is invasive, has adverse effects, and is costly. Therefore, it is not recommended.   "
      }
    ],
    "references": {
      "mtus-link": "https://app.mdguidelines.com/state-guidelines/ca-mtus/cervical-and-thoracic-spine/diagnostic-and-treatment-recommendations/herniated-discs/diagnostic-recommendations",
      "odg-link": ""
    }
  }