{
  "treatment": {
    "index-name": "nsaids-with-concomitant-prescriptions-of-cytoprotective-medications-(h2-blockers)",
    "label-name": "NSAIDs with Concomitant Prescriptions of Cytoprotective Medications (H2 Blockers)",
    "treatment-type": "other"
  },
  "body-system": {
    "index-name": "neck-and-upper-back",
    "label-name": "Neck and Upper Back"
  },
  "version": {
    "mtus": "04/18/19",
    "odg": "",
    "policy-doc": "09/08/22",
    "created-by": "Cade",
    "comments": ""
  },
  "policies": [
    {
      "source": "mtus",
      "diagnosis": {
        "index-name": "patients-at-risk-for-gi-adverse-effects",
        "label-name": "Patients at Risk for GI Adverse Effects"
      },
      "recommendation": "approve",
      "questions": [],
      "mtus-text": "Recommended. Concomitant prescriptions of cytoprotective medications are recommended for patients at substantially increased risk for gastrointestinal bleeding.\n\nStrength of Evidence (Proton pump inhibitors, misoprostol) – Strongly Recommended, Evidence (A)\n\nStrength of Evidence (Sucralfate) – Moderately Recommended, Evidence (B)\n\nStrength of Evidence (H2 blockers) – Recommended, Evidence (C)\n\nLevel of Confidence – High\n\nIndications: Patients with a high-risk factor profile who also have indications for NSAIDs, cytoprotective medications should be considered, particularly if longer-term treatment is contemplated. Risk factors include prior gastrointestinal bleeding, increased age, diabetes mellitus, and smoking.             \n\nBenefits: Reduced risk of gastrointestinal bleeding when used with an NSAID.\n\nHarms: Misoprostol may cause diarrhea. Other medications typically well tolerated, although as with all medications, allergic intolerances have been reported.\n\nFrequency/Dose/Duration: Frequency as recommended by manufacturer.\n\nIndications for Discontinuation: Intolerance, development of adverse effects, or discontinuation of NSAID."
    }
  ],
  "references": {
    "mtus-link": "https://app.mdguidelines.com/acoem-section/state-guidelines%2Fca-mtus%2Fcervical-and-thoracic-spine%2Fdiagnostic-and-treatment-recommendations%2Fcervicothoracic-pain%2Ftreatment-recommendations%2Fmedications",
    "odg-link": ""
  }
}