{
  "treatment": {
    "index-name": "occupational-therapy",
    "label-name": "Occupational therapy",
    "treatment-type": "other"
  },
  "body-system": {
    "index-name": "neck-and-upper-back",
    "label-name": "Neck and Upper Back"
  },
  "version": {
    "mtus": "04/18/19",
    "odg": "",
    "policy-doc": "08/31/22",
    "created-by": "Bill",
    "comments": ""
  },
  "policies": [
    {
      "source": "mtus",
      "diagnosis": {
        "index-name": "mild-to-moderate-acute-cervical-pain",
        "label-name": "Mild to moderate acute cervical pain"
      },
      "recommendation": "1",
      "questions": [
        {
          "#": "1",
          "question": "Is the request for 1-2 visits of therapy?",
          "option-list": [
            {
              "option": "yes",
              "action": "approve"
            },
            {
              "option": "no",
              "action": "deny"
            }
          ]
        }
      ],
      "mtus-text": "Recommended. One or two visits to physical therapy, occupational therapy, or other professionals to initiate and reinforce an exercise program are recommended for mild to moderate acute, subacute, or chronic cervical and thoracic pain.\n\nStrength of Evidence – Recommended, Insufficient Evidence (I)\n\nLevel of Confidence – Low\n\nIndications:                                  Mild to moderate spine pain that is felt to be mostly manageable by self-care.\n\nBenefits:                                      Increased probability of engaging in an exercise program. Potential reinforcement with provider recommendations.\n\nHarms:                                         Medicalization, prolongation and increased risk of chronicity.\n\nFrequency/Dose/Duration:           One or two visits to initiate and then reinforce an exercise program especially for acute pain. A third appointment may be needed later for a final visit. More appointments may be indicated for establishment and engagement in an active exercise program (see Exercise Section). For subacute or chronic spine pain and/or more severely and/or debilitated patients may need 4 to 6 appointments to initiate and begin to reinforce an exercise program."
    },
    {
      "source": "mtus",
      "diagnosis": {
        "index-name": "mild-to-moderate-subacute-cervical-pain",
        "label-name": "Mild to moderate subacute cervical pain"
      },
      "recommendation": "1",
      "questions": [
        {
          "#": "1",
          "question": "Is the request for 1-2 visits of therapy?",
          "option-list": [
            {
              "option": "yes",
              "action": "approve"
            },
            {
              "option": "no",
              "action": "deny"
            }
          ]
        }
      ],
      "mtus-text": "Recommended. One or two visits to physical therapy, occupational therapy, or other professionals to initiate and reinforce an exercise program are recommended for mild to moderate acute, subacute, or chronic cervical and thoracic pain.\n\nStrength of Evidence – Recommended, Insufficient Evidence (I)\n\nLevel of Confidence – Low\n\nIndications:                                  Mild to moderate spine pain that is felt to be mostly manageable by self-care.\n\nBenefits:                                      Increased probability of engaging in an exercise program. Potential reinforcement with provider recommendations.\n\nHarms:                                         Medicalization, prolongation and increased risk of chronicity.\n\nFrequency/Dose/Duration:           One or two visits to initiate and then reinforce an exercise program especially for acute pain. A third appointment may be needed later for a final visit. More appointments may be indicated for establishment and engagement in an active exercise program (see Exercise Section). For subacute or chronic spine pain and/or more severely and/or debilitated patients may need 4 to 6 appointments to initiate and begin to reinforce an exercise program."
    },
    {
      "source": "mtus",
      "diagnosis": {
        "index-name": "mild-to-moderate-chronic-cervical-pain",
        "label-name": "Mild to moderate chronic cervical pain"
      },
      "recommendation": "1",
      "questions": [
        {
          "#": "1",
          "question": "Is the request for 1-2 visits of therapy?",
          "option-list": [
            {
              "option": "yes",
              "action": "approve"
            },
            {
              "option": "no",
              "action": "deny"
            }
          ]
        }
      ],
      "mtus-text": "Recommended. One or two visits to physical therapy, occupational therapy, or other professionals to initiate and reinforce an exercise program are recommended for mild to moderate acute, subacute, or chronic cervical and thoracic pain.\n\nStrength of Evidence – Recommended, Insufficient Evidence (I)\n\nLevel of Confidence – Low\n\nIndications:                                  Mild to moderate spine pain that is felt to be mostly manageable by self-care.\n\nBenefits:                                      Increased probability of engaging in an exercise program. Potential reinforcement with provider recommendations.\n\nHarms:                                         Medicalization, prolongation and increased risk of chronicity.\n\nFrequency/Dose/Duration:           One or two visits to initiate and then reinforce an exercise program especially for acute pain. A third appointment may be needed later for a final visit. More appointments may be indicated for establishment and engagement in an active exercise program (see Exercise Section). For subacute or chronic spine pain and/or more severely and/or debilitated patients may need 4 to 6 appointments to initiate and begin to reinforce an exercise program.\n\n"
    },
    {
      "source": "mtus",
      "diagnosis": {
        "index-name": "mild-to-moderate-acute-thoracic-pain",
        "label-name": "Mild to moderate acute thoracic pain"
      },
      "recommendation": "1",
      "questions": [
        {
          "#": "1",
          "question": "Is the request for 1-2 visits of therapy?",
          "option-list": [
            {
              "option": "yes",
              "action": "approve"
            },
            {
              "option": "no",
              "action": "deny"
            }
          ]
        }
      ],
      "mtus-text": "\nRecommended. One or two visits to physical therapy, occupational therapy, or other professionals to initiate and reinforce an exercise program are recommended for mild to moderate acute, subacute, or chronic cervical and thoracic pain.\n\nStrength of Evidence – Recommended, Insufficient Evidence (I)\n\nLevel of Confidence – Low\n\nIndications:                                  Mild to moderate spine pain that is felt to be mostly manageable by self-care.\n\nBenefits:                                      Increased probability of engaging in an exercise program. Potential reinforcement with provider recommendations.\n\nHarms:                                         Medicalization, prolongation and increased risk of chronicity.\n\nFrequency/Dose/Duration:           One or two visits to initiate and then reinforce an exercise program especially for acute pain. A third appointment may be needed later for a final visit. More appointments may be indicated for establishment and engagement in an active exercise program (see Exercise Section). For subacute or chronic spine pain and/or more severely and/or debilitated patients may need 4 to 6 appointments to initiate and begin to reinforce an exercise program.\n\n"
    },
    {
      "source": "mtus",
      "diagnosis": {
        "index-name": "mild-to-moderate-subacute-thoracic-pain",
        "label-name": "Mild to moderate subacute thoracic pain"
      },
      "recommendation": "1",
      "questions": [
        {
          "#": "1",
          "question": "Is the request for 1-2 visits of therapy?",
          "option-list": [
            {
              "option": "yes",
              "action": "approve"
            },
            {
              "option": "no",
              "action": "deny"
            }
          ]
        }
      ],
      "mtus-text": "Recommended. One or two visits to physical therapy, occupational therapy, or other professionals to initiate and reinforce an exercise program are recommended for mild to moderate acute, subacute, or chronic cervical and thoracic pain.\n\nStrength of Evidence – Recommended, Insufficient Evidence (I)\n\nLevel of Confidence – Low\n\nIndications:                                  Mild to moderate spine pain that is felt to be mostly manageable by self-care.\n\nBenefits:                                      Increased probability of engaging in an exercise program. Potential reinforcement with provider recommendations.\n\nHarms:                                         Medicalization, prolongation and increased risk of chronicity.\n\nFrequency/Dose/Duration:           One or two visits to initiate and then reinforce an exercise program especially for acute pain. A third appointment may be needed later for a final visit. More appointments may be indicated for establishment and engagement in an active exercise program (see Exercise Section). For subacute or chronic spine pain and/or more severely and/or debilitated patients may need 4 to 6 appointments to initiate and begin to reinforce an exercise program.\n\n"
    },
    {
      "source": "mtus",
      "diagnosis": {
        "index-name": "mild-to-moderate-chronic-thoracic-pain",
        "label-name": "Mild to moderate chronic thoracic pain"
      },
      "recommendation": "1",
      "questions": [
        {
          "#": "1",
          "question": "Is the request for 1-2 visits of therapy?",
          "option-list": [
            {
              "option": "yes",
              "action": "approve"
            },
            {
              "option": "no",
              "action": "deny"
            }
          ]
        }
      ],
      "mtus-text": "Recommended. One or two visits to physical therapy, occupational therapy, or other professionals to initiate and reinforce an exercise program are recommended for mild to moderate acute, subacute, or chronic cervical and thoracic pain.\n\nStrength of Evidence – Recommended, Insufficient Evidence (I)\n\nLevel of Confidence – Low\n\nIndications:                                  Mild to moderate spine pain that is felt to be mostly manageable by self-care.\n\nBenefits:                                      Increased probability of engaging in an exercise program. Potential reinforcement with provider recommendations.\n\nHarms:                                         Medicalization, prolongation and increased risk of chronicity.\n\nFrequency/Dose/Duration:           One or two visits to initiate and then reinforce an exercise program especially for acute pain. A third appointment may be needed later for a final visit. More appointments may be indicated for establishment and engagement in an active exercise program (see Exercise Section). For subacute or chronic spine pain and/or more severely and/or debilitated patients may need 4 to 6 appointments to initiate and begin to reinforce an exercise program.\n\n"
    }
  ],
  "references": {
    "mtus-link": "https://app.mdguidelines.com/acoem-section/state-guidelines%2Fca-mtus%2Fcervical-and-thoracic-spine%2Fdiagnostic-and-treatment-recommendations%2Fcervicothoracic-pain%2Ftreatment-recommendations%2Fallied-health",
    "odg-link": ""
  }
}