{
  "treatment": {
    "index-name": "opioid-dose-limits-in-acute-pain",
    "label-name": "Opioid Dose Limits in Acute Pain",
    "treatment-type": "other"
  },
  "body-system": {
    "index-name": "neck-and-upper-back",
    "label-name": "Neck and Upper Back"
  },
  "version": {
    "mtus": "04/18/19",
    "odg": "",
    "policy-doc": "09/04/22",
    "created-by": "Bill",
    "comments": ""
  },
  "policies": [
    {
      "source": "mtus",
      "diagnosis": {
        "index-name": "acute-pain",
        "label-name": "Acute pain"
      },
      "recommendation": "1",
      "questions": [
        {
          "#": "1",
          "question": "Is the amount of opioid prescribed per day for acute pain less than 50mg morphine equivalent dose (MED)?",
          "option-list": [
            {
              "option": "yes",
              "action": "approve"
            },
            {
              "option": "no",
              "action": "deny"
            }
          ]
        }
      ],
      "mtus-text": "Recommended. Dispense only that which is required. The maximum daily oral dose recommended for opioid-naïve, acute pain patients based on risk of overdose/death is 50mg morphine equivalent dose (MED) (788). In rare cases with documented functional improvement (see Appendix 1 of the Opioids guideline), higher doses may be considered, however, risks are substantially higher and greater monitoring is also recommended (see Subacute/Chronic Opioid recommendations below). Lower doses should be used for patients at higher risk of dependency, addiction and other adverse effects. Monitoring is also recommended and consultation may be considered for those patients on higher doses."
    }
  ],
  "references": {
    "mtus-link": "https://app.mdguidelines.com/acoem-section//state-guidelines/ca-mtus/cervical-and-thoracic-spine/diagnostic-and-treatment-recommendations/cervicothoracic-pain/treatment-recommendations/medications",
    "odg-link": ""
  }
}