{
  "treatment": {
    "index-name": "other-creams-and-ointments",
    "label-name": "Other Creams and Ointments",
    "treatment-type": "other"
  },
  "body-system": {
    "index-name": "neck-and-upper-back",
    "label-name": "Neck and Upper Back"
  },
  "version": {
    "mtus": "04/18/19",
    "odg": "",
    "policy-doc": "09/08/22",
    "created-by": "Cade",
    "comments": ""
  },
  "policies": [
    {
      "source": "mtus",
      "diagnosis": {
        "index-name": "cervicothoracic-pain-acute",
        "label-name": "Cervicothoracic Pain - Acute"
      },
      "recommendation": "no_recommendation",
      "questions": [],
      "mtus-text": "No Recommendation. There is no recommendation for the use of other creams and ointments for treatment of acute, subacute, or chronic cervicothoracic pain as there is no evidence of efficacy.\n\nStrength of Evidence – No Recommendation, Insufficient Evidence (I)\n\nLevel of Confidence – Low\n\nRationale: There are no quality trials of topical creams for cervicothoracic pain. Capsicum compounds have evidence of efficacy in quality studies in the low back, although they do not appear particularly potent. There are no studies of long-term chronic use, thus no information about long-term efficacy or dermal or other toxicity (see Low Back Disorders guideline). "
    },
    {
      "source": "mtus",
      "diagnosis": {
        "index-name": "cervicothoracic-pain-subacute",
        "label-name": "Cervicothoracic Pain - Subacute"
      },
      "recommendation": "no_recommendation",
      "questions": [],
      "mtus-text": "No Recommendation. There is no recommendation for the use of other creams and ointments for treatment of acute, subacute, or chronic cervicothoracic pain as there is no evidence of efficacy.\n\nStrength of Evidence – No Recommendation, Insufficient Evidence (I)\n\nLevel of Confidence – Low\n\nRationale: There are no quality trials of topical creams for cervicothoracic pain. Capsicum compounds have evidence of efficacy in quality studies in the low back, although they do not appear particularly potent. There are no studies of long-term chronic use, thus no information about long-term efficacy or dermal or other toxicity (see Low Back Disorders guideline). "
    },
    {
      "source": "mtus",
      "diagnosis": {
        "index-name": "cervicothoracic-pain-chronic",
        "label-name": "Cervicothoracic Pain - Chronic"
      },
      "recommendation": "no_recommendation",
      "questions": [],
      "mtus-text": "No Recommendation. There is no recommendation for the use of other creams and ointments for treatment of acute, subacute, or chronic cervicothoracic pain as there is no evidence of efficacy.\n\nStrength of Evidence – No Recommendation, Insufficient Evidence (I)\n\nLevel of Confidence – Low\n\nRationale: There are no quality trials of topical creams for cervicothoracic pain. Capsicum compounds have evidence of efficacy in quality studies in the low back, although they do not appear particularly potent. There are no studies of long-term chronic use, thus no information about long-term efficacy or dermal or other toxicity (see Low Back Disorders guideline). "
    }
  ],
  "references": {
    "mtus-link": "https://app.mdguidelines.com/acoem-section/state-guidelines%2Fca-mtus%2Fcervical-and-thoracic-spine%2Fdiagnostic-and-treatment-recommendations%2Fcervicothoracic-pain%2Ftreatment-recommendations%2Fmedications",
    "odg-link": ""
  }
}