{
  "treatment": {
    "index-name": "percutaneous-intradiscal-radiofrequency-thermocoagulation-(pirft)",
    "label-name": "Percutaneous Intradiscal Radiofrequency Thermocoagulation (PIRFT)",
    "treatment-type": "other"
  },
  "body-system": {
    "index-name": "neck-and-upper-back",
    "label-name": "Neck and Upper Back"
  },
  "version": {
    "mtus": "04/18/19",
    "odg": "",
    "policy-doc": "08/30/22",
    "created-by": "Bill",
    "comments": ""
  },
  "policies": [
    {
      "source": "mtus",
      "diagnosis": {
        "index-name": "acute-cervicothoracic-pain-with-or-without-radicular-pain-syndromes",
        "label-name": "Acute cervicothoracic pain with or without radicular pain syndromes"
      },
      "recommendation": "deny",
      "questions": [],
      "mtus-text": "Not Recommended. Percutaneous intradiscal radiofrequency thermocoagulation is not recommended for acute, subacute, or chronic cervicothoracic pain with or without radicular pain syndromes.\nStrength of Evidence – Not Recommended, Insufficient Evidence (I)\nLevel of Confidence – Moderate\n"
    },
    {
      "source": "mtus",
      "diagnosis": {
        "index-name": "subacute-cervicothoracic-pain-with-or-without-radicular-pain-syndromes",
        "label-name": "Subacute cervicothoracic pain with or without radicular pain syndromes"
      },
      "recommendation": "deny",
      "questions": [],
      "mtus-text": "https://app.mdguidelines.com/acoem-section/state-guidelines%2Fca-mtus%2Fcervical-and-thoracic-spine%2Fdiagnostic-and-treatment-recommendations%2Fradicular-pain%2Ftreatment-recommendations"
    },
    {
      "source": "mtus",
      "diagnosis": {
        "index-name": "chronic-cervicothoracic-pain-with-or-without-radicular-pain-syndromes",
        "label-name": "Chronic cervicothoracic pain with or without radicular pain syndromes"
      },
      "recommendation": "deny",
      "questions": [],
      "mtus-text": "https://app.mdguidelines.com/acoem-section/state-guidelines%2Fca-mtus%2Fcervical-and-thoracic-spine%2Fdiagnostic-and-treatment-recommendations%2Fradicular-pain%2Ftreatment-recommendations"
    }
  ],
  "references": {
    "mtus-link": "https://app.mdguidelines.com/acoem-section/state-guidelines%2Fca-mtus%2Fcervical-and-thoracic-spine%2Fdiagnostic-and-treatment-recommendations%2Fradicular-pain%2Ftreatment-recommendations\n",
    "odg-link": ""
  }
}