{
  "treatment": {
    "index-name": "repeat-mri-imaging-(without-significant-clinical-deterioration-in-signs-and/or-symptoms)",
    "label-name": "Repeat MRI Imaging (Without Significant Clinical Deterioration in Signs and/or Symptoms)",
    "treatment-type": "other"
  },
  "body-system": {
    "index-name": "neck-and-upper-back",
    "label-name": "Neck and Upper Back"
  },
  "version": {
    "mtus": "04/18/19",
    "odg": "",
    "policy-doc": "09/08/22",
    "created-by": "Cade",
    "comments": ""
  },
  "policies": [
    {
      "source": "mtus",
      "diagnosis": {
        "index-name": "absence-of-significant-new-radicular-symptoms-and/or-signs",
        "label-name": "Absence of Significant New Radicular Symptoms and/or Signs"
      },
      "recommendation": "1",
      "questions": [
        {
          "#": "1",
          "question": "Is the patient's previous MRI more than 6 months old?",
          "option-list": [
            {
              "option": "yes",
              "action": "2"
            },
            {
              "option": "no",
              "action": "deny"
            }
          ]
        },
        {
          "#": "2",
          "question": "Is there an agreement on the part of the patient and surgeon that surgery will be performed? (Cervical disc herniations are known to resorb spontaneously, and surgery would be predicated on persisting nerve root or cord compression).",
          "option-list": [
            {
              "option": "yes",
              "action": "approve"
            },
            {
              "option": "no",
              "action": "deny"
            }
          ]
        }
      ],
      "mtus-text": "Not Recommended. Repeat MRI imaging in the absence of significant new radicular or myelopathy symptoms and/or signs is not recommended. An exception would be agreement on the part of the patient and surgeon that surgery will be performed, and the previous MRI is more than 6 months old. Cervical disc herniations are known to resorb spontaneously, and surgery would be predicated on persisting nerve root or cord compression.(348)\n\nStrength of Evidence – Not Recommended, Insufficient Evidence (I)\n\nLevel of Confidence – Moderate"
    },
    {
      "source": "mtus",
      "diagnosis": {
        "index-name": "absence-of-significant-new-myelopathy-symptoms-and/or-signs",
        "label-name": "Absence of Significant New Myelopathy Symptoms and/or Signs"
      },
      "recommendation": "1",
      "questions": [
        {
          "#": "1",
          "question": "Is the patient's previous MRI more than 6 months old?",
          "option-list": [
            {
              "option": "yes",
              "action": "2"
            },
            {
              "option": "no",
              "action": "deny"
            }
          ]
        },
        {
          "#": "2",
          "question": "Is there an agreement on the part of the patient and surgeon that surgery will be performed? (Cervical disc herniations are known to resorb spontaneously, and surgery would be predicated on persisting nerve root or cord compression).",
          "option-list": [
            {
              "option": "yes",
              "action": "approve"
            },
            {
              "option": "no",
              "action": "deny"
            }
          ]
        }
      ],
      "mtus-text": "Not Recommended. Repeat MRI imaging in the absence of significant new radicular or myelopathy symptoms and/or signs is not recommended. An exception would be agreement on the part of the patient and surgeon that surgery will be performed, and the previous MRI is more than 6 months old. Cervical disc herniations are known to resorb spontaneously, and surgery would be predicated on persisting nerve root or cord compression.(348)\n\nStrength of Evidence – Not Recommended, Insufficient Evidence (I)\n\nLevel of Confidence – Moderate"
    }
  ],
  "references": {
    "mtus-link": "https://app.mdguidelines.com/acoem-section/state-guidelines%2Fca-mtus%2Fcervical-and-thoracic-spine%2Fdiagnostic-and-treatment-recommendations%2Fcervicothoracic-pain%2Fdiagnostic-recommendations%2Fmri",
    "odg-link": ""
  }
}