{
  "treatment": {
    "index-name": "surface-emg",
    "label-name": "Surface EMG",
    "treatment-type": "other"
  },
  "body-system": {
    "index-name": "neck-and-upper-back",
    "label-name": "Neck and Upper Back"
  },
  "version": {
    "mtus": "04/18/19",
    "odg": "",
    "policy-doc": "08/25/22",
    "created-by": "Cade",
    "comments": ""
  },
  "policies": [
    {
      "source": "mtus",
      "diagnosis": {
        "index-name": "cervical-pain",
        "label-name": "Cervical Pain"
      },
      "recommendation": "deny",
      "questions": [],
      "mtus-text": "Not Recommended.  Surface EMG is not recommended to diagnose cervical or thoracic pain.\n\nStrength of Evidence – Not Recommended, Insufficient Evidence (I)\n\n Level of Confidence – High                             \n\nRationale: There are no quality studies demonstrating that use of surface EMG results in improved diagnosis or evaluation of patients with cervical or thoracic pain. Available studies in the lumbar spine have methodological weaknesses, including poor descriptions of patients, small sample sizes, types of machine, electrode placement, and analysis of the output making outcomes difficult to compare across studies.(379, 383, 389, 393, 394)\n\nThe American Association of Neuromuscular and Electrodiagnostic Medicine’s position is that there are no clinical indications for the use of sEMG in the diagnosis and treatment of disorders of nerve and muscle, although potential future uses are possible.(395, 396) Surface EMG is not invasive, has few adverse events, is moderately costly, but has a lack of quality evidence of benefits for the clinical evaluation or treatment of spine disorders and thus is not recommended. "
    },
    {
      "source": "mtus",
      "diagnosis": {
        "index-name": "thoracic-pain",
        "label-name": "Thoracic Pain"
      },
      "recommendation": "deny",
      "questions": [],
      "mtus-text": "Not Recommended.  Surface EMG is not recommended to diagnose cervical or thoracic pain.\n\nStrength of Evidence – Not Recommended, Insufficient Evidence (I)\n\n Level of Confidence – High                             \n\nRationale:  There are no quality studies demonstrating that use of surface EMG results in improved diagnosis or evaluation of patients with cervical or thoracic pain. Available studies in the lumbar spine have methodological weaknesses, including poor descriptions of patients, small sample sizes, types of machine, electrode placement, and analysis of the output making outcomes difficult to compare across studies.(379, 383, 389, 393, 394)\n\nThe American Association of Neuromuscular and Electrodiagnostic Medicine’s position is that there are no clinical indications for the use of sEMG in the diagnosis and treatment of disorders of nerve and muscle, although potential future uses are possible.(395, 396) Surface EMG is not invasive, has few adverse events, is moderately costly, but has a lack of quality evidence of benefits for the clinical evaluation or treatment of spine disorders and thus is not recommended."
    }
  ],
  "references": {
    "mtus-link": "https://app.mdguidelines.com/acoem-section/state-guidelines%2Fca-mtus%2Fcervical-and-thoracic-spine%2Fdiagnostic-and-treatment-recommendations%2Fcervicothoracic-pain%2Fdiagnostic-recommendations%2Felectromyography",
    "odg-link": ""
  }
}