{
  "treatment": {
    "index-name": "cervical-discectomy-with-fusion-for-chronic-radiculopathy",
    "label-name": "Cervical Discectomy with Fusion for Chronic Radiculopathy",
    "treatment-type": "surgery"
  },
  "body-system": {
    "index-name": "neck-and-upper-back",
    "label-name": "Neck and Upper Back"
  },
  "version": {
    "mtus": "04/18/19",
    "odg": "",
    "policy-doc": "08/24/22",
    "created-by": "Bill",
    "comments": ""
  },
  "policies": [
    {
      "source": "mtus",
      "diagnosis": {
        "index-name": "chronic-radiculopathy",
        "label-name": "Chronic Radiculopathy"
      },
      "recommendation": "1",
      "questions": [
        {
          "#": "1",
          "question": "Does the patient have chronic radiculopathy?",
          "option-list": [
            {
              "option": "yes",
              "action": "2"
            },
            {
              "option": "no",
              "action": "deny"
            }
          ]
        },
        {
          "#": "2",
          "question": "Does the patient have ongoing nerve root compression?",
          "option-list": [
            {
              "option": "yes",
              "action": "3"
            },
            {
              "option": "no",
              "action": "deny"
            }
          ]
        },
        {
          "#": "3",
          "question": "Does the patient have significant pain and functional limitation after at least 6 months of time and appropriate non-operative treatment?",
          "option-list": [
            {
              "option": "yes",
              "action": "approve"
            },
            {
              "option": "no",
              "action": "deny"
            }
          ]
        }
      ],
      "mtus-text": "Recommended. Cervical discectomy with fusion is recommended for patients with chronic radiculopathy due to ongoing nerve root compression who continue to have significant pain and functional limitation after at least 6 months of time and appropriate non-operative treatment. The decision to use an anterior or posterior approach and what technique to achieve a fusion (which procedure) to use should be left to the surgeon.\nStrength of Evidence – Recommended, Insufficient Evidence (I)\nLevel of Confidence – Moderate        \nBenefits:                                                 Reduction in spine and extremity pain and neurological compromise if present.\nHarms:                                                   Operative complications, rare severe outcomes (e.g., paralysis, fatalities), increased further re-operative risk, cost, increased risk of disability.\n"
    }
  ],
  "references": {
    "mtus-link": "https://app.mdguidelines.com/acoem-section/state-guidelines%2Fca-mtus%2Fcervical-and-thoracic-spine%2Fdiagnostic-and-treatment-recommendations%2Fradicular-pain%2Ftreatment-recommendations",
    "odg-link": ""
  }
}