{
  "treatment": {
    "index-name": "cervical-discectomy-for-acute-radiculopathy",
    "label-name": "Cervical Discectomy for Acute Radiculopathy",
    "treatment-type": "surgery"
  },
  "body-system": {
    "index-name": "neck-and-upper-back",
    "label-name": "Neck and Upper Back"
  },
  "version": {
    "mtus": "04/18/19",
    "odg": "",
    "policy-doc": "08/24/22",
    "created-by": "Cade",
    "comments": ""
  },
  "policies": [
    {
      "source": "mtus",
      "diagnosis": {
        "index-name": "acute-radiculopathy",
        "label-name": "Acute Radiculopathy"
      },
      "recommendation": "1",
      "questions": [
        {
          "#": "1",
          "question": "Is there objective evidence of progressive neurologic deficit or myelopathy present?",
          "option-list": [
            {
              "option": "yes",
              "action": "approve"
            },
            {
              "option": "no",
              "action": "2"
            }
          ]
        },
        {
          "#": "2",
          "question": "Is the acute radiculopathy under 4 weeks duration?",
          "option-list": [
            {
              "option": "yes",
              "action": "deny"
            },
            {
              "option": "no",
              "action": "approve"
            }
          ]
        }
      ],
      "mtus-text": "Not Recommended. Cervical discectomy is not recommended for acute radiculopathy (under 4 week’s duration) unless objective evidence of a progressive neurological deficit or myelopathy is present. Sufficient time for natural resolution and non-operative therapy is required. The excellent outcomes reported in the quality studies strongly suggest there is no need to rush surgery other than surgical emergencies.(361-364)\n\nStrength of Evidence – Not Recommended, Insufficient Evidence (I)\n\nLevel of Confidence – Moderate"
    }
  ],
  "references": {
    "mtus-link": "https://app.mdguidelines.com/acoem-section/state-guidelines%2Fca-mtus%2Fcervical-and-thoracic-spine%2Fdiagnostic-and-treatment-recommendations%2Fradicular-pain%2Ftreatment-recommendations",
    "odg-link": ""
  }
}