{
  "treatment": {
    "index-name": "bone-scanning-with-spect",
    "label-name": "Bone Scanning with SPECT",
    "treatment-type": "other"
  },
  "body-system": {
    "index-name": "hip-and-groin-disorders",
    "label-name": "Hip and Groin Disorders"
  },
  "version": {
    "mtus": "10/07/19",
    "odg": "",
    "policy-doc": "01/13/23",
    "created-by": "Cade",
    "comments": ""
  },
  "policies": [
    {
      "source": "mtus",
      "diagnosis": {
        "index-name": "acute-osteonecrosis",
        "label-name": "Acute Osteonecrosis"
      },
      "recommendation": "1",
      "questions": [
        {
          "#": "1",
          "question": "Does the patient have suspicion of osteonecrosis, or other increased bone metabolism? Note: Generally, the patient should have already had an MRI, but there should be additional concerns for other problems such as other joint involvement.",
          "option-list": [
            {
              "option": "yes",
              "action": "approve"
            },
            {
              "option": "no",
              "action": "deny"
            }
          ]
        }
      ],
      "mtus-text": "Recommended.\n\nBone scanning, often with SPECT, is recommended for select use in patients with acute, subacute, or chronic pain to assist in the diagnosis of osteonecrosis and other conditions with increased polyosthotic bone metabolism, particularly when more than one joint needs to be evaluated.\n\nStrength of Evidence – Recommended, Evidence (C)\n\n Level of Confidence – Moderate\n\nIndications:  Patients with suspicion of osteonecrosis, or other increased bone metabolism, generally having already had MRI, but with concerns for other problems such as other joint involvement.              \n\nBenefits:   Identification of site of increased bone metabolism and screens for wider involvement in other joints.\n\nHarms:   Negligible. Some radiation exposure\n\nFrequency/Dose/Duration:  Generally one evaluation  \n\nRationale:   Bone scanning with SPECT is helpful to identify areas of increased bone metabolism [1248]; thus, its primary use is for osteonecrosis cases (typically identified on radiographs) for which there are concerns for other joint involvement. Bone scanning is minimally invasive, has no adverse effects aside from radiation exposure, but is costly. It is selectively recommended for evaluation of patients with concerns of wider involvement. The threshold for use should generally be low, as wider involvement of osteonecrosis may further emphasize a need for risk factor modification and imaging monitoring of other joints."
    },
    {
      "source": "mtus",
      "diagnosis": {
        "index-name": "subacute-osteonecrosis",
        "label-name": "Subacute Osteonecrosis"
      },
      "recommendation": "1",
      "questions": [
        {
          "#": "1",
          "question": "Does the patient have suspicion of osteonecrosis, or other increased bone metabolism? Note: Generally, the patient should have already had an MRI, but there should be additional concerns for other problems such as other joint involvement.",
          "option-list": [
            {
              "option": "yes",
              "action": "approve"
            },
            {
              "option": "no",
              "action": "deny"
            }
          ]
        }
      ],
      "mtus-text": "Recommended.\n\nBone scanning, often with SPECT, is recommended for select use in patients with acute, subacute, or chronic pain to assist in the diagnosis of osteonecrosis and other conditions with increased polyosthotic bone metabolism, particularly when more than one joint needs to be evaluated.\n\nStrength of Evidence – Recommended, Evidence (C)\n\n Level of Confidence – Moderate\n\nIndications:  Patients with suspicion of osteonecrosis, or other increased bone metabolism, generally having already had MRI, but with concerns for other problems such as other joint involvement.              \n\nBenefits:   Identification of site of increased bone metabolism and screens for wider involvement in other joints.\n\nHarms:   Negligible. Some radiation exposure\n\nFrequency/Dose/Duration:  Generally one evaluation  \n\nRationale:   Bone scanning with SPECT is helpful to identify areas of increased bone metabolism [1248]; thus, its primary use is for osteonecrosis cases (typically identified on radiographs) for which there are concerns for other joint involvement. Bone scanning is minimally invasive, has no adverse effects aside from radiation exposure, but is costly. It is selectively recommended for evaluation of patients with concerns of wider involvement. The threshold for use should generally be low, as wider involvement of osteonecrosis may further emphasize a need for risk factor modification and imaging monitoring of other joints."
    },
    {
      "source": "mtus",
      "diagnosis": {
        "index-name": "chronic-osteonecrosis",
        "label-name": "Chronic Osteonecrosis"
      },
      "recommendation": "1",
      "questions": [
        {
          "#": "1",
          "question": "Does the patient have suspicion of osteonecrosis, or other increased bone metabolism? Note: Generally, the patient should have already had an MRI, but there should be additional concerns for other problems such as other joint involvement.",
          "option-list": [
            {
              "option": "yes",
              "action": "approve"
            },
            {
              "option": "no",
              "action": "deny"
            }
          ]
        }
      ],
      "mtus-text": "Recommended.\n\nBone scanning, often with SPECT, is recommended for select use in patients with acute, subacute, or chronic pain to assist in the diagnosis of osteonecrosis and other conditions with increased polyosthotic bone metabolism, particularly when more than one joint needs to be evaluated.\n\nStrength of Evidence – Recommended, Evidence (C)\n\n Level of Confidence – Moderate\n\nIndications:  Patients with suspicion of osteonecrosis, or other increased bone metabolism, generally having already had MRI, but with concerns for other problems such as other joint involvement.              \n\nBenefits:   Identification of site of increased bone metabolism and screens for wider involvement in other joints.\n\nHarms:   Negligible. Some radiation exposure\n\nFrequency/Dose/Duration:  Generally one evaluation  \n\nRationale:   Bone scanning with SPECT is helpful to identify areas of increased bone metabolism [1248]; thus, its primary use is for osteonecrosis cases (typically identified on radiographs) for which there are concerns for other joint involvement. Bone scanning is minimally invasive, has no adverse effects aside from radiation exposure, but is costly. It is selectively recommended for evaluation of patients with concerns of wider involvement. The threshold for use should generally be low, as wider involvement of osteonecrosis may further emphasize a need for risk factor modification and imaging monitoring of other joints."
    }
  ],
  "references": {
    "mtus-link": "https://app.mdguidelines.com/acoem-section/state-guidelines%2Fca-mtus%2Fhip-and-groin-disorders%2Fhip-osteonecrosis%2Fdiagnostic-recommendations%2Fbone-scans",
    "odg-link": ""
  }
}