{
  "treatment": {
    "index-name": "eutectic-mixture-of-local-anesthetics-(emla)",
    "label-name": "Eutectic Mixture of Local Anesthetics (EMLA)",
    "treatment-type": "other"
  },
  "body-system": {
    "index-name": "hip-and-groin-disorders",
    "label-name": "Hip and Groin Disorders"
  },
  "version": {
    "mtus": "10/07/19",
    "odg": "",
    "policy-doc": "01/15/23",
    "created-by": "Cade",
    "comments": ""
  },
  "policies": [
    {
      "source": "mtus",
      "diagnosis": {
        "index-name": "hip-osteoarthrosis",
        "label-name": "Hip Osteoarthrosis"
      },
      "recommendation": "deny",
      "questions": [],
      "mtus-text": "Not Recommended.\n\nEutectic mixture of local anesthetics (EMLA) is not recommended to treat hip OA.\n\nStrength of Evidence – Not Recommended, Insufficient Evidence (I)\n\nLevel of Confidence – Low\n\nRationale:  There is no evidence of efficacy and the target tissue is too deep to support a probable basis for efficacy. Topical applications of anesthetic agents over large areas are thought to carry significant risk of potentially fatal adverse effects [758]. These topical agents are not recommended for treatment of hip OA."
    }
  ],
  "references": {
    "mtus-link": "https://app.mdguidelines.com/acoem-section/state-guidelines%2Fca-mtus%2Fhip-and-groin-disorders%2Fhip-osteoarthrosis%2Ftreatment-recommendations%2Fmedications%2Ftopical-medications",
    "odg-link": ""
  }
}