{
  "treatment": {
    "index-name": "glucosamine-sulfate-intra-muscular-injections",
    "label-name": "Glucosamine Sulfate Intra-muscular Injections",
    "treatment-type": "other"
  },
  "body-system": {
    "index-name": "hip-and-groin-disorders",
    "label-name": "Hip and Groin Disorders"
  },
  "version": {
    "mtus": "10/07/19",
    "odg": "",
    "policy-doc": "01/16/23",
    "created-by": "Cade",
    "comments": ""
  },
  "policies": [
    {
      "source": "mtus",
      "diagnosis": {
        "index-name": "hip-osteoarthrosis",
        "label-name": "Hip Osteoarthrosis"
      },
      "recommendation": "no_recommendation",
      "questions": [],
      "mtus-text": "No Recommendation.\n\nThere is no recommendation for or against the use of glucosamine sulfate intra-muscular injections for the treatment of hip osteoarthrosis.\n\nStrength of Evidence – No Recommendation, Insufficient Evidence (I)\n\nLevel of Confidence – Low\n\nRationale:   There are no quality studies to address hip OA and thus there is no recommendation."
    }
  ],
  "references": {
    "mtus-link": "https://app.mdguidelines.com/acoem-section/state-guidelines%2Fca-mtus%2Fhip-and-groin-disorders%2Fhip-osteoarthrosis%2Ftreatment-recommendations%2Finjections",
    "odg-link": ""
  }
}