{
  "treatment": {
    "index-name": "hydrotherapy-(aquatic-therapy)",
    "label-name": "Hydrotherapy (Aquatic Therapy)",
    "treatment-type": "other"
  },
  "body-system": {
    "index-name": "hip-and-groin-disorders",
    "label-name": "Hip and Groin Disorders"
  },
  "version": {
    "mtus": "10/07/19",
    "odg": "",
    "policy-doc": "01/13/23",
    "created-by": "Cade",
    "comments": ""
  },
  "policies": [
    {
      "source": "mtus",
      "diagnosis": {
        "index-name": "hip-osteoarthrosis",
        "label-name": "Hip Osteoarthrosis"
      },
      "recommendation": "1",
      "questions": [
        {
          "#": "1",
          "question": "Does this patient have hip osteoarthrosis and meets the referral criteria for supervised exercise therapy?",
          "option-list": [
            {
              "option": "yes",
              "action": "2"
            },
            {
              "option": "no",
              "action": "deny"
            }
          ]
        },
        {
          "#": "2",
          "question": "Is the patient motivated and has no preclusions that may inhibit effective participation in self-administered aquatic exercise? ",
          "option-list": [
            {
              "option": "yes",
              "action": "approve"
            },
            {
              "option": "no",
              "action": "3"
            }
          ]
        },
        {
          "#": "3",
          "question": "Does the patient have co-morbidities (e.g., extreme obesity, significant degenerative joint disease, etc.) that preclude effective participation in a weight-bearing physical activity and will transition to either a land-based program or a self-administered water-based program? ",
          "option-list": [
            {
              "option": "yes",
              "action": "approve"
            },
            {
              "option": "no",
              "action": "deny"
            }
          ]
        }
      ],
      "mtus-text": "Moderately Recommended.\n\nA trial of aquatic therapy is moderately recommended for patients with hip osteoarthrosis who meet the referral criteria for supervised exercise therapy and have co-morbidities (e.g., extreme obesity, significant degenerative joint disease, etc.) that preclude effective participation in a weight-bearing physical activity and who will transition to either a land-based program or a self-administered water-based program.\n\nStrength of Evidence – Moderately Recommended, Evidence (B)\n\nLevel of Confidence – Moderate\n\nIndications:  Self-administered exercise among those motivated towards aquatic exercise. Supervised program among those with co-morbidities warranting aquatic exercise (e.g., extreme obesity, significant degenerative joint disease) and will either transition to land-based program or self-administered water-based exercise program.\n\nBenefits:  Improved physical fitness, mood, self-esteem and motor performance.\n\nHarms:  Negligible\n\nFrequency/Dose/Duration:  Begin with 3 to 4 visits a week, with demonstrated evidence of functional improvement within the first 2 weeks to justify additional visits. The program should include up to 4 weeks of aquatic therapy with progression towards a land-based, self-directed physical activity or self-directed aquatic therapy program by 6 weeks [587]. For some patients with hip osteoarthrosis, aquatic exercise may be the preferred method. In these few cases, the program should become self managed and if any membership to a pool is covered, coverage should be continued if it can be documented that the patient is using the facility at least 3 times per week and following the prescribed exercise program.\n\nIndications for Discontinuation:  Non-tolerance, failure to progress, or reaching a 4- to 6-week timeframe.\n\nRationale:  A trial suggested improved pain and quality of life after 6 weeks of aquatic therapy [587]. Another moderate quality trial reported improvements in pain compared with a non-interventional control [564]. Aerobic exercise is beneficial for treatment of hip osteoarthrosis compared to no program [587]; however, evidence of superiority to land-based programs is lacking [573, 588-590]. Instead, the quality literature appears to document comparable efficacy between land- and water-based exercise programs [573, 588, 589]. Aquatic programs are performed in lukewarm rather than higher temperature. As noted previously, other forms of exercise have been shown to be effective in the treatment of hip OA, but for a few select patients who are unable to tolerate those land-based therapies, aquatic therapy is moderate cost, not invasive, and has little potential for adverse effects."
    }
  ],
  "references": {
    "mtus-link": "https://app.mdguidelines.com/acoem-section/state-guidelines%2Fca-mtus%2Fhip-and-groin-disorders%2Fhip-osteoarthrosis%2Ftreatment-recommendations%2Factivity-exercise",
    "odg-link": ""
  }
}