{
  "treatment": {
    "index-name": "local-glucocorticosteroid-injections",
    "label-name": "Local Glucocorticosteroid Injections",
    "treatment-type": "other"
  },
  "body-system": {
    "index-name": "hip-and-groin-disorders",
    "label-name": "Hip and Groin Disorders"
  },
  "version": {
    "mtus": "10/07/19",
    "odg": "",
    "policy-doc": "01/16/23",
    "created-by": "Cade",
    "comments": ""
  },
  "policies": [
    {
      "source": "mtus",
      "diagnosis": {
        "index-name": "hip-impingement",
        "label-name": "Hip Impingement"
      },
      "recommendation": "1",
      "questions": [
        {
          "#": "1",
          "question": "Has the condition not resolved over a period of a few weeks of treatment with activity modification and NSAIDs?",
          "option-list": [
            {
              "option": "yes",
              "action": "approve"
            },
            {
              "option": "no",
              "action": "deny"
            }
          ]
        }
      ],
      "mtus-text": "Recommended.\n\nLocal glucocorticosteroid injections are recommended for treatment of “hip impingement” or labral tears [33, 34, 42, 1747, 1748]. (See NSAID frequency, dose discontinuation information, as well as exercise frequencies and information inferred from treatment of osteoarthrosis.)\n\nStrength of Evidence – Recommended, Insufficient Evidence (I)\n\nLevel of Confidence – Low\n\nIndications:    Hip impingement and/or labral tears generally not resolving over a period of a few weeks of treatment with activity modification and NSAIDs. This is generally a greater consideration among the elderly with a chronic or relapsing course [496] and/or those who are thought to have a significant inflammatory component.\n\nBenefits:   Improved symptoms\n\nHarms:    Rare infection\n\nFrequency/Dose/Duration:    Generally, only one injection is performed. A second injection may be considered if there is improvement that is incomplete.\n\nRationale:    There are no quality studies that address glucocorticosteroid injection treatment for femoroacetabular/hip impingement. A trial of conservative therapy has been recommended [43, 1710, 1712, 1720, 1731, 1749]. Reduction, modification, or elimination of activities that significantly provoke symptoms is also recommended [42, 43, 45, 1710, 1712, 1747]. Glucocorticosteroid injection is invasive, has low adverse effects, is moderately costly, has no quality evidence of efficacy, and thus is selectively recommended."
    },
    {
      "source": "mtus",
      "diagnosis": {
        "index-name": "labral-tear",
        "label-name": "Labral Tear"
      },
      "recommendation": "1",
      "questions": [
        {
          "#": "1",
          "question": "Has the condition not resolved over a period of a few weeks of treatment with activity modification and NSAIDs?",
          "option-list": [
            {
              "option": "yes",
              "action": "approve"
            },
            {
              "option": "no",
              "action": "deny"
            }
          ]
        }
      ],
      "mtus-text": "Recommended.\n\nLocal glucocorticosteroid injections are recommended for treatment of “hip impingement” or labral tears [33, 34, 42, 1747, 1748]. (See NSAID frequency, dose discontinuation information, as well as exercise frequencies and information inferred from treatment of osteoarthrosis.)\n\nStrength of Evidence – Recommended, Insufficient Evidence (I)\n\nLevel of Confidence – Low\n\nIndications:    Hip impingement and/or labral tears generally not resolving over a period of a few weeks of treatment with activity modification and NSAIDs. This is generally a greater consideration among the elderly with a chronic or relapsing course [496] and/or those who are thought to have a significant inflammatory component.\n\nBenefits:   Improved symptoms\n\nHarms:    Rare infection\n\nFrequency/Dose/Duration:    Generally, only one injection is performed. A second injection may be considered if there is improvement that is incomplete.\n\nRationale:    There are no quality studies that address glucocorticosteroid injection treatment for femoroacetabular/hip impingement. A trial of conservative therapy has been recommended [43, 1710, 1712, 1720, 1731, 1749]. Reduction, modification, or elimination of activities that significantly provoke symptoms is also recommended [42, 43, 45, 1710, 1712, 1747]. Glucocorticosteroid injection is invasive, has low adverse effects, is moderately costly, has no quality evidence of efficacy, and thus is selectively recommended."
    }
  ],
  "references": {
    "mtus-link": "https://app.mdguidelines.com/acoem-section/state-guidelines%2Fca-mtus%2Fhip-and-groin-disorders%2Fhip-impingement-labral-tears%2Ftreatment-recommendations",
    "odg-link": ""
  }
}