{
  "treatment": {
    "index-name": "non-weight-bearing-activities",
    "label-name": "Non-weight-bearing Activities",
    "treatment-type": "other"
  },
  "body-system": {
    "index-name": "hip-and-groin-disorders",
    "label-name": "Hip and Groin Disorders"
  },
  "version": {
    "mtus": "10/07/19",
    "odg": "",
    "policy-doc": "01/17/23",
    "created-by": "Cade",
    "comments": ""
  },
  "policies": [
    {
      "source": "mtus",
      "diagnosis": {
        "index-name": "hip-osteonecrosis",
        "label-name": "Hip Osteonecrosis"
      },
      "recommendation": "no_recommendation",
      "questions": [],
      "mtus-text": "No Recommendation.\n\nThere is no recommendation for or against the institution of non-weight-bearing activities for patients with osteonecrosis.\n\nStrength of Evidence – No Recommendation, Insufficient Evidence (I)\n\nLevel of Confidence – Low\n\nRationale:   Although there is a longstanding theory that non-weight bearing status may be helpful for osteonecrosis, there is no quality evidence that non-weight-bearing status is an effective treatment [1223, 1292, 1296] and non-weight-bearing status has significant adverse effects that include venous thromboses, pulmonary emboli and debility. Thus, there is no recommendation for or against a prescription of non-weight-bearing status."
    }
  ],
  "references": {
    "mtus-link": "https://app.mdguidelines.com/acoem-section/state-guidelines%2Fca-mtus%2Fhip-and-groin-disorders%2Fhip-osteonecrosis%2Ftreatment-recommendations%2Factivity-modification",
    "odg-link": ""
  }
}