{
  "treatment": {
    "index-name": "occupational-therapy",
    "label-name": "Occupational Therapy",
    "treatment-type": "other"
  },
  "body-system": {
    "index-name": "hip-and-groin-disorders",
    "label-name": "Hip and Groin Disorders"
  },
  "version": {
    "mtus": "10/07/19",
    "odg": "",
    "policy-doc": "01/17/23",
    "created-by": "Cade",
    "comments": ""
  },
  "policies": [
    {
      "source": "mtus",
      "diagnosis": {
        "index-name": "hip-osteoarthrosis",
        "label-name": "Hip Osteoarthrosis"
      },
      "recommendation": "1",
      "questions": [
        {
          "#": "1",
          "question": "Is the patient in need of a structured exercise program?",
          "option-list": [
            {
              "option": "yes",
              "action": "approve"
            },
            {
              "option": "no",
              "action": "2"
            }
          ]
        },
        {
          "#": "2",
          "question": "Is the patient in need of increasing activity levels under supervision, including post-operatively?",
          "option-list": [
            {
              "option": "yes",
              "action": "approve"
            },
            {
              "option": "no",
              "action": "deny"
            }
          ]
        }
      ],
      "mtus-text": "Recommended.\n\nPhysical therapy and occupational therapy are recommended for treatment of hip OA.\n\nStrength of Evidence – Recommended, Insufficient Evidence (I)\n\nLevel of Confidence – High\n\nIndications:   Patients in need of structured exercise program. Also, those in need of increasing activity levels under supervision, including post-operatively. See exercise recommendations.             \n\nBenefits:   Self-perceived quality of life, faster recovery, and shortened hospitalization time (which decreases costs). Quicker recovery and return to work with accelerated independence.\n\nHarms:  Negligible\n\nFrequency/Dose/Duration:   Two to three appointments/week for 2-3 weeks to start. Additional sets of appointments should be based on documented incremental functional gain.\n\nIndications for Discontinuation:   Achievement of plateau, maximum improvement, non-compliance, intolerance.\n\nRationale:   Physical and occupational therapy are used to treat patients, especially those who need assistance with the institution and progression of exercise programs and adaptive strategies for success with meaningful occupations. There are no quality studies of efficacy, but there are many studies of the interventions employed by therapists showing varying degrees of efficacy. Therapy is not invasive, has low adverse effects, is moderate to high cost in aggregate, is often helpful for patient treatment and recovery and is thus recommended."
    }
  ],
  "references": {
    "mtus-link": "https://app.mdguidelines.com/acoem-section/state-guidelines%2Fca-mtus%2Fhip-and-groin-disorders%2Fhip-osteoarthrosis%2Ftreatment-recommendations%2Fallied-health",
    "odg-link": ""
  }
}