{
  "treatment": {
    "index-name": "progressive-exercise",
    "label-name": "Progressive Exercise",
    "treatment-type": "other"
  },
  "body-system": {
    "index-name": "hip-and-groin-disorders",
    "label-name": "Hip and Groin Disorders"
  },
  "version": {
    "mtus": "10/07/19",
    "odg": "",
    "policy-doc": "01/15/23",
    "created-by": "Cade",
    "comments": ""
  },
  "policies": [
    {
      "source": "mtus",
      "diagnosis": {
        "index-name": "acute-greater-trochanteric-pain-syndrome",
        "label-name": "Acute Greater Trochanteric Pain Syndrome"
      },
      "recommendation": "approve",
      "questions": [],
      "mtus-text": "Recommended.\n\nProgressive, eccentric exercise is recommended for greater trochanteric pain syndrome, trochanteric bursitis, and gluteus medius tendinosis and tears, particularly to address any strength deficits in the lateral hip musculature.\n\nStrength of Evidence – Recommended, Insufficient Evidence (I)\n\nLevel of Confidence – Moderate\n\nIndications:    Most patients may benefit from a course of therapy, but particularly those with strength deficits and/or significant functional impairments.\n\nBenefits:   Improve rate of recovery and address functional deficits.\n\nHarms:   Negligible\n\nFrequency/Dose/Duration:    Generally 1-2 appointments/week, with sets of 6-8 appointments ordered. Another set of appointments is a consideration if there is lack of complete objective recovery or failure to reach an acceptable plateau. Another set of 6-8 appointments would rarely be indicated if there was ongoing objective evidence of improvement after 12-16 appointments.\n\nIndications for Discontinuation:   Full recovery, completion of a course of therapy and reaching a plateau in healing, non-compliance\n\nRationale:    There are no quality studies of exercise. Exercise has low adverse effects, is generally low to moderate cost depending on the numbers of appointments, is able to address functional deficits, and is thus recommended."
    },
    {
      "source": "mtus",
      "diagnosis": {
        "index-name": "subacute-greater-trochanteric-pain-syndrome",
        "label-name": "Subacute Greater Trochanteric Pain Syndrome"
      },
      "recommendation": "approve",
      "questions": [],
      "mtus-text": "Recommended.\n\nProgressive, eccentric exercise is recommended for greater trochanteric pain syndrome, trochanteric bursitis, and gluteus medius tendinosis and tears, particularly to address any strength deficits in the lateral hip musculature.\n\nStrength of Evidence – Recommended, Insufficient Evidence (I)\n\nLevel of Confidence – Moderate\n\nIndications:    Most patients may benefit from a course of therapy, but particularly those with strength deficits and/or significant functional impairments.\n\nBenefits:   Improve rate of recovery and address functional deficits.\n\nHarms:   Negligible\n\nFrequency/Dose/Duration:    Generally 1-2 appointments/week, with sets of 6-8 appointments ordered. Another set of appointments is a consideration if there is lack of complete objective recovery or failure to reach an acceptable plateau. Another set of 6-8 appointments would rarely be indicated if there was ongoing objective evidence of improvement after 12-16 appointments.\n\nIndications for Discontinuation:   Full recovery, completion of a course of therapy and reaching a plateau in healing, non-compliance\n\nRationale:    There are no quality studies of exercise. Exercise has low adverse effects, is generally low to moderate cost depending on the numbers of appointments, is able to address functional deficits, and is thus recommended."
    },
    {
      "source": "mtus",
      "diagnosis": {
        "index-name": "chronic-greater-trochanteric-pain-syndrome",
        "label-name": "Chronic Greater Trochanteric Pain Syndrome"
      },
      "recommendation": "approve",
      "questions": [],
      "mtus-text": "Recommended.\n\nProgressive, eccentric exercise is recommended for greater trochanteric pain syndrome, trochanteric bursitis, and gluteus medius tendinosis and tears, particularly to address any strength deficits in the lateral hip musculature.\n\nStrength of Evidence – Recommended, Insufficient Evidence (I)\n\nLevel of Confidence – Moderate\n\nIndications:    Most patients may benefit from a course of therapy, but particularly those with strength deficits and/or significant functional impairments.\n\nBenefits:   Improve rate of recovery and address functional deficits.\n\nHarms:   Negligible\n\nFrequency/Dose/Duration:    Generally 1-2 appointments/week, with sets of 6-8 appointments ordered. Another set of appointments is a consideration if there is lack of complete objective recovery or failure to reach an acceptable plateau. Another set of 6-8 appointments would rarely be indicated if there was ongoing objective evidence of improvement after 12-16 appointments.\n\nIndications for Discontinuation:   Full recovery, completion of a course of therapy and reaching a plateau in healing, non-compliance\n\nRationale:    There are no quality studies of exercise. Exercise has low adverse effects, is generally low to moderate cost depending on the numbers of appointments, is able to address functional deficits, and is thus recommended."
    },
    {
      "source": "mtus",
      "diagnosis": {
        "index-name": "trochanteric-bursitis",
        "label-name": "Trochanteric Bursitis"
      },
      "recommendation": "approve",
      "questions": [],
      "mtus-text": "Recommended.\n\nProgressive, eccentric exercise is recommended for greater trochanteric pain syndrome, trochanteric bursitis, and gluteus medius tendinosis and tears, particularly to address any strength deficits in the lateral hip musculature.\n\nStrength of Evidence – Recommended, Insufficient Evidence (I)\n\nLevel of Confidence – Moderate\n\nIndications:    Most patients may benefit from a course of therapy, but particularly those with strength deficits and/or significant functional impairments.\n\nBenefits:   Improve rate of recovery and address functional deficits.\n\nHarms:   Negligible\n\nFrequency/Dose/Duration:    Generally 1-2 appointments/week, with sets of 6-8 appointments ordered. Another set of appointments is a consideration if there is lack of complete objective recovery or failure to reach an acceptable plateau. Another set of 6-8 appointments would rarely be indicated if there was ongoing objective evidence of improvement after 12-16 appointments.\n\nIndications for Discontinuation:   Full recovery, completion of a course of therapy and reaching a plateau in healing, non-compliance\n\nRationale:    There are no quality studies of exercise. Exercise has low adverse effects, is generally low to moderate cost depending on the numbers of appointments, is able to address functional deficits, and is thus recommended."
    },
    {
      "source": "mtus",
      "diagnosis": {
        "index-name": "gluteus-medius-tears-(with-accompanying-clinical-bursitis)",
        "label-name": "Gluteus Medius Tears (with Accompanying Clinical Bursitis)"
      },
      "recommendation": "approve",
      "questions": [],
      "mtus-text": "Recommended.\n\nProgressive, eccentric exercise is recommended for greater trochanteric pain syndrome, trochanteric bursitis, and gluteus medius tendinosis and tears, particularly to address any strength deficits in the lateral hip musculature.\n\nStrength of Evidence – Recommended, Insufficient Evidence (I)\n\nLevel of Confidence – Moderate\n\nIndications:    Most patients may benefit from a course of therapy, but particularly those with strength deficits and/or significant functional impairments.\n\nBenefits:   Improve rate of recovery and address functional deficits.\n\nHarms:   Negligible\n\nFrequency/Dose/Duration:    Generally 1-2 appointments/week, with sets of 6-8 appointments ordered. Another set of appointments is a consideration if there is lack of complete objective recovery or failure to reach an acceptable plateau. Another set of 6-8 appointments would rarely be indicated if there was ongoing objective evidence of improvement after 12-16 appointments.\n\nIndications for Discontinuation:   Full recovery, completion of a course of therapy and reaching a plateau in healing, non-compliance\n\nRationale:    There are no quality studies of exercise. Exercise has low adverse effects, is generally low to moderate cost depending on the numbers of appointments, is able to address functional deficits, and is thus recommended."
    }
  ],
  "references": {
    "mtus-link": "https://app.mdguidelines.com/acoem-section/state-guidelines%2Fca-mtus%2Fhip-and-groin-disorders%2Fgluteus-medius-tendinosis%2Ftreatment-recommendations",
    "odg-link": ""
  }
}