{
  "treatment": {
    "index-name": "sympathetic-electrotherapy",
    "label-name": "Sympathetic Electrotherapy",
    "treatment-type": "other"
  },
  "body-system": {
    "index-name": "hip-and-groin-disorders",
    "label-name": "Hip and Groin Disorders"
  },
  "version": {
    "mtus": "10/07/19",
    "odg": "",
    "policy-doc": "01/14/23",
    "created-by": "Cade",
    "comments": ""
  },
  "policies": [
    {
      "source": "mtus",
      "diagnosis": {
        "index-name": "hip-osteoarthrosis",
        "label-name": "Hip Osteoarthrosis"
      },
      "recommendation": "no_recommendation",
      "questions": [],
      "mtus-text": "No Recommendation.\n\nThere is no recommendation for or against the use of electrical therapies outside of research settings for the treatment of hip osteoarthrosis or acute, subacute, or chronic hip pain.\n\nStrength of Evidence – No Recommendation, Insufficient Evidence (I)\n\nLevel of Confidence – Low\n\nRationale:   There are no quality studies for any of these therapies in occupational populations with hip pain. There is one moderate quality study of de qi suggesting lack of efficacy [913]. There is one quality study suggesting efficacy of iontophoresis with sodium salicylate for hip pain in children with sickle cell disease [915]; however, applicability to occupational populations and others is unclear. These therapies are mostly non-invasive with low adverse effects, but are moderate to high cost when examined in aggregate. There is no recommendation for or against the use of these therapies. There are other treatments that are effective."
    },
    {
      "source": "mtus",
      "diagnosis": {
        "index-name": "other-hip-pain",
        "label-name": "Other Hip Pain"
      },
      "recommendation": "no_recommendation",
      "questions": [],
      "mtus-text": "No Recommendation.\n\nThere is no recommendation for or against the use of electrical therapies outside of research settings for the treatment of hip osteoarthrosis or acute, subacute, or chronic hip pain.\n\nStrength of Evidence – No Recommendation, Insufficient Evidence (I)\n\nLevel of Confidence – Low\n\nRationale:   There are no quality studies for any of these therapies in occupational populations with hip pain. There is one moderate quality study of de qi suggesting lack of efficacy [913]. There is one quality study suggesting efficacy of iontophoresis with sodium salicylate for hip pain in children with sickle cell disease [915]; however, applicability to occupational populations and others is unclear. These therapies are mostly non-invasive with low adverse effects, but are moderate to high cost when examined in aggregate. There is no recommendation for or against the use of these therapies. There are other treatments that are effective."
    }
  ],
  "references": {
    "mtus-link": "https://app.mdguidelines.com/acoem-section/state-guidelines%2Fca-mtus%2Fhip-and-groin-disorders%2Fhip-osteoarthrosis%2Ftreatment-recommendations%2Felectrical-therapies",
    "odg-link": ""
  }
}