{
  "treatment": {
    "index-name": "tai-chi",
    "label-name": "Tai Chi",
    "treatment-type": "other"
  },
  "body-system": {
    "index-name": "hip-and-groin-disorders",
    "label-name": "Hip and Groin Disorders"
  },
  "version": {
    "mtus": "10/07/19",
    "odg": "",
    "policy-doc": "01/15/23",
    "created-by": "Cade",
    "comments": ""
  },
  "policies": [
    {
      "source": "mtus",
      "diagnosis": {
        "index-name": "hip-osteoarthrosis",
        "label-name": "Hip Osteoarthrosis"
      },
      "recommendation": "1",
      "questions": [
        {
          "#": "1",
          "question": "Is the patient motivated to try and adhere to a program of Tai Chi?",
          "option-list": [
            {
              "option": "yes",
              "action": "approve"
            },
            {
              "option": "no",
              "action": "deny"
            }
          ]
        }
      ],
      "mtus-text": "Recommended.\n\nStrength of Evidence – Recommended, Insufficient Evidence (I)\n\nLevel of Confidence – Low\n\nIndications:  Hip OA patients who are motivated to try and adhere to a program of Tai Chi.\n\nBenefits:  Modest reductions in pain.\n\nHarms:  None reported. May reduce compliance with aerobic and strengthening exercises due to time commitment.\n\nFrequency/Dose/Duration:   Generally at least 3 times/week\n\nIndications for Discontinuation:   Non-compliance, non-tolerance, disinterest\n\nRationale:   There are a few quality trials of Tai Chi for treatment of hip OA [585, 596], but none documenting unequivocal efficacy and one suggests superiority of hydrotherapy [585]. Thus, Tai Chi may be reasonable for a highly motivated patient who is interested in Tai Chi as the primary exercise modality."
    }
  ],
  "references": {
    "mtus-link": "https://app.mdguidelines.com/acoem-section/state-guidelines%2Fca-mtus%2Fhip-and-groin-disorders%2Fhip-osteoarthrosis%2Ftreatment-recommendations%2Factivity-exercise",
    "odg-link": ""
  }
}