{
  "treatment": {
    "index-name": "tumor-necrosis-factor-alpha-blockers",
    "label-name": "Tumor Necrosis Factor-Alpha Blockers",
    "treatment-type": "other"
  },
  "body-system": {
    "index-name": "hip-and-groin-disorders",
    "label-name": "Hip and Groin Disorders"
  },
  "version": {
    "mtus": "10/07/19",
    "odg": "",
    "policy-doc": "01/17/23",
    "created-by": "Cade",
    "comments": ""
  },
  "policies": [
    {
      "source": "mtus",
      "diagnosis": {
        "index-name": "hip-osteoarthrosis",
        "label-name": "Hip Osteoarthrosis"
      },
      "recommendation": "deny",
      "questions": [],
      "mtus-text": "Not Recommended.\n\nTumor necrosis factor-alpha blockers are not recommended for treatment of osteoarthrosis or acute, subacute, or chronic hip pain, including other non-inflammatory hip disorders.\n\nStrength of Evidence – Not Recommended, Insufficient Evidence (I)\n\nLevel of Confidence – Low\n\nRationale:   One moderately quality trial suggests no significant outcomes differences, although there was less osteolysis. Because the treatment is invasive, has adverse effects, is high cost, and there are no clear clinical benefits, it is not recommended."
    },
    {
      "source": "mtus",
      "diagnosis": {
        "index-name": "other-hip-pain",
        "label-name": "Other Hip Pain"
      },
      "recommendation": "deny",
      "questions": [],
      "mtus-text": "Not Recommended.\n\nTumor necrosis factor-alpha blockers are not recommended for treatment of osteoarthrosis or acute, subacute, or chronic hip pain, including other non-inflammatory hip disorders.\n\nStrength of Evidence – Not Recommended, Insufficient Evidence (I)\n\nLevel of Confidence – Low\n\nRationale:   One moderately quality trial suggests no significant outcomes differences, although there was less osteolysis. Because the treatment is invasive, has adverse effects, is high cost, and there are no clear clinical benefits, it is not recommended."
    }
  ],
  "references": {
    "mtus-link": "https://app.mdguidelines.com/acoem-section/state-guidelines%2Fca-mtus%2Fhip-and-groin-disorders%2Fhip-osteoarthrosis%2Ftreatment-recommendations%2Fmedications%2Ftnf-blockers",
    "odg-link": ""
  }
}