{
  "treatment": {
    "index-name": "weight-loss",
    "label-name": "Weight Loss",
    "treatment-type": "other"
  },
  "body-system": {
    "index-name": "hip-and-groin-disorders",
    "label-name": "Hip and Groin Disorders"
  },
  "version": {
    "mtus": "10/07/19",
    "odg": "",
    "policy-doc": "01/13/23",
    "created-by": "Cade",
    "comments": ""
  },
  "policies": [
    {
      "source": "mtus",
      "diagnosis": {
        "index-name": "meralgia-paresthetica",
        "label-name": "Meralgia Paresthetica"
      },
      "recommendation": "approve",
      "questions": [],
      "mtus-text": "Recommended.\n\nWeight loss for patients who are overweight or obese, avoidance of aggravating exposures, and the wearing of loose clothing and tool belts is recommended for treatment of meralgia paresthetica.\n\nStrength of Evidence – Recommended, Insufficient Evidence (I)\n\nLevel of Confidence – Moderate\n\nIndications:    All patients with meralgia paresthetica\n\nBenefits:    Generally this is the most effective treatment strategy.\n\nHarms:     Negligible\n\nFrequency/Dose/Duration:    Duration is generally until recovered.\n\nRationale:     There are no quality studies to evaluate, diagnose, or treat the condition, thus treatments are empiric. The diagnosis is usually made on clinical grounds and imaging is generally not indicated. Weight loss is recommended for those who are overweight or obese. Patients should also avoid aggravating exposures, toolbelts, and wear loose clothing."
    }
  ],
  "references": {
    "mtus-link": "https://app.mdguidelines.com/acoem-section/state-guidelines%2Fca-mtus%2Fhip-and-groin-disorders%2Fmeralgia-paresthetica%2Ftreatment-recommendations",
    "odg-link": ""
  }
}