{
  "treatment": {
    "index-name": "alternative-treatments",
    "label-name": "Alternative Treatments",
    "treatment-type": "other"
  },
  "body-system": {
    "index-name": "low-back",
    "label-name": "Low Back"
  },
  "version": {
    "mtus": "11/23/21",
    "odg": "",
    "policy-doc": "09/12/22",
    "created-by": "Cade",
    "comments": ""
  },
  "policies": [
    {
      "source": "mtus",
      "diagnosis": {
        "index-name": "acute-low-back-pain",
        "label-name": "Acute Low Back Pain"
      },
      "recommendation": "deny",
      "questions": [],
      "mtus-text": "Not Recommended. Complementary or alternative treatments or dietary supplements, etc. (other than those specifically described below) are not recommended for treatment of acute, subacute, or chronic low back pain.\n\nStrength of Evidence – Not Recommended, Insufficient Evidence (I)\n\nLevel of Confidence – Low\n\nRationale for Recommendation - Except where described elsewhere, quality studies regarding complementary or alternative interventions or dietary supplements have not been identified or do not exist. Available trials frequently have significant methodological weaknesses. These interventions are not proven efficacious for the treatment of acute, subacute, or chronic LBP or for radicular pain syndromes or other back-related problems. There are other interventions shown to be efficacious."
    },
    {
      "source": "mtus",
      "diagnosis": {
        "index-name": "subacute-low-back-pain",
        "label-name": "Subacute Low Back Pain"
      },
      "recommendation": "deny",
      "questions": [],
      "mtus-text": "Not Recommended. Complementary or alternative treatments or dietary supplements, etc. (other than those specifically described below) are not recommended for treatment of acute, subacute, or chronic low back pain.\n\nStrength of Evidence – Not Recommended, Insufficient Evidence (I)\n\nLevel of Confidence – Low\n\nRationale for Recommendation - Except where described elsewhere, quality studies regarding complementary or alternative interventions or dietary supplements have not been identified or do not exist. Available trials frequently have significant methodological weaknesses. These interventions are not proven efficacious for the treatment of acute, subacute, or chronic LBP or for radicular pain syndromes or other back-related problems. There are other interventions shown to be efficacious."
    },
    {
      "source": "mtus",
      "diagnosis": {
        "index-name": "chronic-low-back-pain",
        "label-name": "Chronic Low Back Pain"
      },
      "recommendation": "deny",
      "questions": [],
      "mtus-text": "Not Recommended. Complementary or alternative treatments or dietary supplements, etc. (other than those specifically described below) are not recommended for treatment of acute, subacute, or chronic low back pain.\n\nStrength of Evidence – Not Recommended, Insufficient Evidence (I)\n\nLevel of Confidence – Low\n\nRationale for Recommendation - Except where described elsewhere, quality studies regarding complementary or alternative interventions or dietary supplements have not been identified or do not exist. Available trials frequently have significant methodological weaknesses. These interventions are not proven efficacious for the treatment of acute, subacute, or chronic LBP or for radicular pain syndromes or other back-related problems. There are other interventions shown to be efficacious."
    }
  ],
  "references": {
    "mtus-link": "https://app.mdguidelines.com/acoem-section/state-guidelines%2Fca-mtus%2Flow-back-disorders-november-2021%2Frecommendations%2Flow-back-pain-radicular-pain%2Ftreatment-recommendations%2Fmedications",
    "odg-link": ""
  }
}