{
  "treatment": {
    "index-name": "antibiotics",
    "label-name": "Antibiotics",
    "treatment-type": "other"
  },
  "body-system": {
    "index-name": "low-back",
    "label-name": "Low Back"
  },
  "version": {
    "mtus": "11/23/21",
    "odg": "",
    "policy-doc": "09/08/22",
    "created-by": "Bill",
    "comments": ""
  },
  "policies": [
    {
      "source": "mtus",
      "diagnosis": {
        "index-name": "acute-low-back-pain",
        "label-name": "Acute Low Back Pain"
      },
      "recommendation": "no_recommendation",
      "questions": [],
      "mtus-text": "No Recommendation. There is no recommendation for antibiotics for treatment of chronic low back pain with Modic I changes lacking objective signs of infection.\n \nStrength of Evidence – No Recommendation, Insufficient Evidence (I)\nLevel of Confidence – Low\nRationale – There are two quality studies of the efficacy of antibiotics for the narrow indication of chronic LBP with Modic changes (883) and these studies conflict regarding efficacy; thus, there is no recommendation.  Antibiotics are not invasive, have relatively low adverse effects, and are low to moderate cost for 100 days treatment. However, with conflicting evidence of efficacy, there is no recommendation for or against use of antibiotics for treatment of LBP absent evidence of infection\n"
    },
    {
      "source": "mtus",
      "diagnosis": {
        "index-name": "subacute-low-back-pain",
        "label-name": "Subacute Low Back Pain"
      },
      "recommendation": "no_recommendation",
      "questions": [],
      "mtus-text": "No Recommendation. There is no recommendation for antibiotics for treatment of chronic low back pain with Modic I changes lacking objective signs of infection.\n \nStrength of Evidence – No Recommendation, Insufficient Evidence (I)\nLevel of Confidence – Low\nRationale – There are two quality studies of the efficacy of antibiotics for the narrow indication of chronic LBP with Modic changes (883) and these studies conflict regarding efficacy; thus, there is no recommendation.  Antibiotics are not invasive, have relatively low adverse effects, and are low to moderate cost for 100 days treatment. However, with conflicting evidence of efficacy, there is no recommendation for or against use of antibiotics for treatment of LBP absent evidence of infection"
    },
    {
      "source": "mtus",
      "diagnosis": {
        "index-name": "other-chronic-low-back-pain",
        "label-name": "Other Chronic Low Back Pain"
      },
      "recommendation": "no_recommendation",
      "questions": [],
      "mtus-text": "No Recommendation. There is no recommendation for antibiotics for treatment of chronic low back pain with Modic I changes lacking objective signs of infection.\n \nStrength of Evidence – No Recommendation, Insufficient Evidence (I)\nLevel of Confidence – Low\nRationale – There are two quality studies of the efficacy of antibiotics for the narrow indication of chronic LBP with Modic changes (883) and these studies conflict regarding efficacy; thus, there is no recommendation.  Antibiotics are not invasive, have relatively low adverse effects, and are low to moderate cost for 100 days treatment. However, with conflicting evidence of efficacy, there is no recommendation for or against use of antibiotics for treatment of LBP absent evidence of infection\n\n"
    },
    {
      "source": "mtus",
      "diagnosis": {
        "index-name": "radicular-low-back-pain",
        "label-name": "Radicular Low Back Pain"
      },
      "recommendation": "no_recommendation",
      "questions": [],
      "mtus-text": "No Recommendation. There is no recommendation for antibiotics for treatment of chronic low back pain with Modic I changes lacking objective signs of infection.\n \nStrength of Evidence – No Recommendation, Insufficient Evidence (I)\nLevel of Confidence – Low\nRationale – There are two quality studies of the efficacy of antibiotics for the narrow indication of chronic LBP with Modic changes (883) and these studies conflict regarding efficacy; thus, there is no recommendation.  Antibiotics are not invasive, have relatively low adverse effects, and are low to moderate cost for 100 days treatment. However, with conflicting evidence of efficacy, there is no recommendation for or against use of antibiotics for treatment of LBP absent evidence of infection"
    },
    {
      "source": "mtus",
      "diagnosis": {
        "index-name": "chronic-low-back-pain-with-modic-i-changes",
        "label-name": "Chronic Low Back Pain with Modic I Changes"
      },
      "recommendation": "no_recommendation",
      "questions": [],
      "mtus-text": "No Recommendation. There is no recommendation for antibiotics for treatment of chronic low back pain with Modic I changes lacking objective signs of infection.\n \nStrength of Evidence – No Recommendation, Insufficient Evidence (I)\nLevel of Confidence – Low\nRationale – There are two quality studies of the efficacy of antibiotics for the narrow indication of chronic LBP with Modic changes (883) and these studies conflict regarding efficacy; thus, there is no recommendation.  Antibiotics are not invasive, have relatively low adverse effects, and are low to moderate cost for 100 days treatment. However, with conflicting evidence of efficacy, there is no recommendation for or against use of antibiotics for treatment of LBP absent evidence of infection\n\n"
    }
  ],
  "references": {
    "mtus-link": "https://app.mdguidelines.com/acoem-section/state-guidelines%2Fca-mtus%2Flow-back-disorders-november-2021%2Frecommendations%2Flow-back-pain-radicular-pain%2Ftreatment-recommendations%2Fmedications",
    "odg-link": ""
  }
}