{
  "treatment": {
    "index-name": "exercise-prescriptions",
    "label-name": "Exercise Prescriptions",
    "treatment-type": "other"
  },
  "body-system": {
    "index-name": "low-back",
    "label-name": "Low Back"
  },
  "version": {
    "mtus": "11/23/21",
    "odg": "",
    "policy-doc": "09/12/22",
    "created-by": "Cade",
    "comments": ""
  },
  "policies": [
    {
      "source": "mtus",
      "diagnosis": {
        "index-name": "acute-low-back-pain",
        "label-name": "Acute Low Back Pain"
      },
      "recommendation": "approve",
      "questions": [],
      "mtus-text": "Moderately Recommended. An exercise prescription is moderately recommended for treatment of acute, subacute, chronic, post-operative and radicular low back pain.\n\nStrength of Evidence – Moderately Recommended, Evidence (B)\n\nLevel of Confidence – High\n\nIndications – All patients with LBP appear to benefit from an exercise prescription.\n\nFrequency/Duration – If a supervised program is felt to be needed, recommended frequency is 1 to 3 sessions a week for up to 4 weeks as long as objective functional improvement and symptom reduction is occurring. If self-directed, daily exercise is recommended. An exercise prescription should address specific treatment goals and be time limited with transition to an independent exercise program as part of a healthy lifestyle (no longer considered treatment). The purpose of supervised exercise therapy is symptom reduction, functional improvement, and educating the patient so that he or she can independently manage the program. Evaluation for an exercise prescription involves consideration of five critical components:\n\n1. stage of (theoretical) tissue healing (acute, subacute, chronic),\n2. severity of symptoms (mild, moderate, severe),\n3. identification of the presence or absence of a directional preference\n4. degree and type of deconditioning (flexibility, strength, aerobic, muscular endurance), and\n5. psychosocial factors (e.g., medication dependence, fear-avoidance, secondary gain, mood disorders).\n\nHarms – None reported in quality studies. Theoretical risk of myocardial infarction, angina and musculoskeletal injury in a severely deconditioned patient.\n\nBenefits – Improvement in low back pain, improved cardiovascular fitness."
    },
    {
      "source": "mtus",
      "diagnosis": {
        "index-name": "subacute-low-back-pain",
        "label-name": "Subacute Low Back Pain"
      },
      "recommendation": "approve",
      "questions": [],
      "mtus-text": "Moderately Recommended. An exercise prescription is moderately recommended for treatment of acute, subacute, chronic, post-operative and radicular low back pain.\n\nStrength of Evidence – Moderately Recommended, Evidence (B)\n\nLevel of Confidence – High\n\nIndications – All patients with LBP appear to benefit from an exercise prescription.\n\nFrequency/Duration – If a supervised program is felt to be needed, recommended frequency is 1 to 3 sessions a week for up to 4 weeks as long as objective functional improvement and symptom reduction is occurring. If self-directed, daily exercise is recommended. An exercise prescription should address specific treatment goals and be time limited with transition to an independent exercise program as part of a healthy lifestyle (no longer considered treatment). The purpose of supervised exercise therapy is symptom reduction, functional improvement, and educating the patient so that he or she can independently manage the program. Evaluation for an exercise prescription involves consideration of five critical components:\n\n1. stage of (theoretical) tissue healing (acute, subacute, chronic),\n2. severity of symptoms (mild, moderate, severe),\n3. identification of the presence or absence of a directional preference\n4. degree and type of deconditioning (flexibility, strength, aerobic, muscular endurance), and\n5. psychosocial factors (e.g., medication dependence, fear-avoidance, secondary gain, mood disorders).\n\nHarms – None reported in quality studies. Theoretical risk of myocardial infarction, angina and musculoskeletal injury in a severely deconditioned patient.\n\nBenefits – Improvement in low back pain, improved cardiovascular fitness."
    },
    {
      "source": "mtus",
      "diagnosis": {
        "index-name": "chronic-low-back-pain",
        "label-name": "Chronic Low Back Pain"
      },
      "recommendation": "approve",
      "questions": [],
      "mtus-text": "Moderately Recommended. An exercise prescription is moderately recommended for treatment of acute, subacute, chronic, post-operative and radicular low back pain.\n\nStrength of Evidence – Moderately Recommended, Evidence (B)\n\nLevel of Confidence – High\n\nIndications – All patients with LBP appear to benefit from an exercise prescription.\n\nFrequency/Duration – If a supervised program is felt to be needed, recommended frequency is 1 to 3 sessions a week for up to 4 weeks as long as objective functional improvement and symptom reduction is occurring. If self-directed, daily exercise is recommended. An exercise prescription should address specific treatment goals and be time limited with transition to an independent exercise program as part of a healthy lifestyle (no longer considered treatment). The purpose of supervised exercise therapy is symptom reduction, functional improvement, and educating the patient so that he or she can independently manage the program. Evaluation for an exercise prescription involves consideration of five critical components:\n\n1. stage of (theoretical) tissue healing (acute, subacute, chronic),\n2. severity of symptoms (mild, moderate, severe),\n3. identification of the presence or absence of a directional preference\n4. degree and type of deconditioning (flexibility, strength, aerobic, muscular endurance), and\n5. psychosocial factors (e.g., medication dependence, fear-avoidance, secondary gain, mood disorders).\n\nHarms – None reported in quality studies. Theoretical risk of myocardial infarction, angina and musculoskeletal injury in a severely deconditioned patient.\n\nBenefits – Improvement in low back pain, improved cardiovascular fitness."
    },
    {
      "source": "mtus",
      "diagnosis": {
        "index-name": "radicular-low-back-pain",
        "label-name": "Radicular Low Back Pain"
      },
      "recommendation": "approve",
      "questions": [],
      "mtus-text": "Moderately Recommended. An exercise prescription is moderately recommended for treatment of acute, subacute, chronic, post-operative and radicular low back pain.\n\nStrength of Evidence – Moderately Recommended, Evidence (B)\n\nLevel of Confidence – High\n\nIndications – All patients with LBP appear to benefit from an exercise prescription.\n\nFrequency/Duration – If a supervised program is felt to be needed, recommended frequency is 1 to 3 sessions a week for up to 4 weeks as long as objective functional improvement and symptom reduction is occurring. If self-directed, daily exercise is recommended. An exercise prescription should address specific treatment goals and be time limited with transition to an independent exercise program as part of a healthy lifestyle (no longer considered treatment). The purpose of supervised exercise therapy is symptom reduction, functional improvement, and educating the patient so that he or she can independently manage the program. Evaluation for an exercise prescription involves consideration of five critical components:\n\n1. stage of (theoretical) tissue healing (acute, subacute, chronic),\n2. severity of symptoms (mild, moderate, severe),\n3. identification of the presence or absence of a directional preference\n4. degree and type of deconditioning (flexibility, strength, aerobic, muscular endurance), and\n5. psychosocial factors (e.g., medication dependence, fear-avoidance, secondary gain, mood disorders).\n\nHarms – None reported in quality studies. Theoretical risk of myocardial infarction, angina and musculoskeletal injury in a severely deconditioned patient.\n\nBenefits – Improvement in low back pain, improved cardiovascular fitness."
    }
  ],
  "references": {
    "mtus-link": "https://app.mdguidelines.com/acoem-section/state-guidelines%2Fca-mtus%2Flow-back-disorders-november-2021%2Frecommendations%2Flow-back-pain-radicular-pain%2Ftreatment-recommendations%2Factivity-modification-and-exercise",
    "odg-link": ""
  }
}