{
  "treatment": {
    "index-name": "herbal-treatments",
    "label-name": "Herbal Treatments",
    "treatment-type": "other"
  },
  "body-system": {
    "index-name": "low-back",
    "label-name": "Low Back"
  },
  "version": {
    "mtus": "11/23/21",
    "odg": "",
    "policy-doc": "09/13/22",
    "created-by": "Cade",
    "comments": ""
  },
  "policies": [
    {
      "source": "mtus",
      "diagnosis": {
        "index-name": "acute-low-back-pain",
        "label-name": "Acute Low Back Pain"
      },
      "recommendation": "no_recommendation",
      "questions": [],
      "mtus-text": "No Recommendation. There is no recommendation for or against the use of Harpagoside, Camphora molmol, Melaleuca alternifolia, Angelica sinensis, Aloe vera, Thymus officinalis, Menthe piperita, Arnica montana, Curcuma longa, Tanacetum parthenium, or Zingiber officinale,(1155) for treatment of acute, subacute, or chronic low back pain.\n\nStrength of Evidence – No Recommendation, Insufficient Evidence (I)"
    },
    {
      "source": "mtus",
      "diagnosis": {
        "index-name": "subacute-low-back-pain",
        "label-name": "Subacute Low Back Pain"
      },
      "recommendation": "no_recommendation",
      "questions": [],
      "mtus-text": "No Recommendation. There is no recommendation for or against the use of Harpagoside, Camphora molmol, Melaleuca alternifolia, Angelica sinensis, Aloe vera, Thymus officinalis, Menthe piperita, Arnica montana, Curcuma longa, Tanacetum parthenium, or Zingiber officinale,(1155) for treatment of acute, subacute, or chronic low back pain.\n\nStrength of Evidence – No Recommendation, Insufficient Evidence (I)"
    },
    {
      "source": "mtus",
      "diagnosis": {
        "index-name": "chronic-low-back-pain",
        "label-name": "Chronic Low Back Pain"
      },
      "recommendation": "no_recommendation",
      "questions": [],
      "mtus-text": "No Recommendation. There is no recommendation for or against the use of Harpagoside, Camphora molmol, Melaleuca alternifolia, Angelica sinensis, Aloe vera, Thymus officinalis, Menthe piperita, Arnica montana, Curcuma longa, Tanacetum parthenium, or Zingiber officinale,(1155) for treatment of acute, subacute, or chronic low back pain.\n\nStrength of Evidence – No Recommendation, Insufficient Evidence (I)"
    }
  ],
  "references": {
    "mtus-link": "https://app.mdguidelines.com/acoem-section/state-guidelines%2Fca-mtus%2Flow-back-disorders-november-2021%2Frecommendations%2Flow-back-pain-radicular-pain%2Ftreatment-recommendations%2Fmedications",
    "odg-link": ""
  }
}