{
  "treatment": {
    "index-name": "hyperbaric-oxygen",
    "label-name": "Hyperbaric Oxygen",
    "treatment-type": "other"
  },
  "body-system": {
    "index-name": "low-back",
    "label-name": "Low Back"
  },
  "version": {
    "mtus": "11/23/21",
    "odg": "",
    "policy-doc": "09/13/22",
    "created-by": "Cade",
    "comments": ""
  },
  "policies": [
    {
      "source": "mtus",
      "diagnosis": {
        "index-name": "chronic-low-back-pain",
        "label-name": "Chronic Low Back Pain"
      },
      "recommendation": "deny",
      "questions": [],
      "mtus-text": "Not Recommended. Hyperbaric oxygen is not recommended for treatment of chronic low back pain.\n\nStrength of Evidence – Not Recommended, Insufficient Evidence (I)\n\nLevel of Confidence – Moderate"
    }
  ],
  "references": {
    "mtus-link": "https://app.mdguidelines.com/acoem-section/state-guidelines%2Fca-mtus%2Flow-back-disorders-november-2021%2Frecommendations%2Flow-back-pain-radicular-pain%2Ftreatment-recommendations%2Fallied-health",
    "odg-link": ""
  }
}