{
  "treatment": {
    "index-name": "iontophoresis",
    "label-name": "Iontophoresis",
    "treatment-type": "other"
  },
  "body-system": {
    "index-name": "low-back",
    "label-name": "Low Back"
  },
  "version": {
    "mtus": "11/23/21",
    "odg": "",
    "policy-doc": "09/13/22",
    "created-by": "Cade",
    "comments": ""
  },
  "policies": [
    {
      "source": "mtus",
      "diagnosis": {
        "index-name": "low-back-pain",
        "label-name": "Low Back Pain"
      },
      "recommendation": "no_recommendation",
      "questions": [],
      "mtus-text": "No Recommendation. There is no recommendation for or against iontophoresis for treatment of acute, subacute, or chronic low back pain or radicular pain syndromes or other back-related conditions.\n\nStrength of Evidence – No Recommendation, Insufficient Evidence (I)\n\nRationale for Recommendation - Iontophoresis is not shown to be efficacious for the treatment of acute, subacute, or chronic LBP or radicular pain syndromes or other back-related problems. It is not invasive and is not low cost. There are other interventions shown to be efficacious."
    }
  ],
  "references": {
    "mtus-link": "https://app.mdguidelines.com/acoem-section/state-guidelines%2Fca-mtus%2Flow-back-disorders-november-2021%2Frecommendations%2Flow-back-pain-radicular-pain%2Ftreatment-recommendations%2Fallied-health",
    "odg-link": ""
  }
}