{
  "treatment": {
    "index-name": "kyphoplasty",
    "label-name": "Kyphoplasty",
    "treatment-type": "other"
  },
  "body-system": {
    "index-name": "low-back",
    "label-name": "Low Back"
  },
  "version": {
    "mtus": "11/23/21",
    "odg": "",
    "policy-doc": "09/13/22",
    "created-by": "Cade",
    "comments": ""
  },
  "policies": [
    {
      "source": "mtus",
      "diagnosis": {
        "index-name": "low-back-pain-due-to-vertebral-compression-fractures",
        "label-name": "Low Back Pain Due to Vertebral Compression Fractures"
      },
      "recommendation": "no_recommendation",
      "questions": [],
      "mtus-text": "No Recommendation. There is no recommendation for or against the use of kyphoplasty for the treatment of low back or thoracic pain due to vertebral compression fractures.\n\nIndications – Vertebral body compression fractures among patients with severe pain; patients who have had fractures despite bisphosphonate therapy may also be candidates. May be helpful in cases of multiple myeloma and multiple compressions for pain control.\n\nStrength of Evidence – No Recommendation, Insufficient Evidence (I)\n\nLevel of Confidence – Low\n\nRationale for Recommendation - There are no quality studies comparing kyphoplasty with a sham procedure. There is one moderate-quality study comparing kyphoplasty with an unstructured, unblinded, non-interventional control that included cancer patients.(2175) This study also differentially utilized passive treatments between the two groups, such as bed rest and braces that may have confounded the results. The other moderate-quality study compared two types of cement and found the calcium phosphate cement to be inferior for burst fractures.(2173) There are comparative clinical trials and other low-quality studies suggesting benefit.(2166, 2176, 2177) These have been compiled into meta-analyses with a conclusion of efficacy (as well as efficacy of vertebroplasty).(2178-2180) Yet, as kyphoplasty is similar to vertebroplasty, and two high-quality, sham-controlled trials for vertebroplasty are now reported documenting a lack of benefit,(2131, 2132) and despite the Wardlaw study which included patients with neoplasia, it appears reasonable to assume the same lack of benefit will eventually be shown for kyphoplasty for treatment of non-cancer patients. It remains unclear whether there are highly selected, unusual patients such as those severely affected, patients with 3 or more simultaneous compression fractures, or patients with pathologic fractures due to neoplasms,(2147) who may derive benefit from this procedure. Kyphoplasty has also been found to be associated with subsequent, adjacent vertebral compression fractures.(2160, 2181, 2182-2184, 2399-2402) Kyphoplasty is invasive, has complications, and is costly. There is no recommendation for or against kyphoplasty other than for highly selected patients who have failed other interventions (including quality medical management), and in whom there are no other options available, whose significant pain is not resolving, and especially those for whom bisphosphonate therapy has failed."
    }
  ],
  "references": {
    "mtus-link": "https://app.mdguidelines.com/acoem-section/state-guidelines%2Fca-mtus%2Flow-back-disorders-november-2021%2Frecommendations%2Fspinal-fractures%2Ftreatment-recommendations",
    "odg-link": ""
  }
}