{
  "treatment": {
    "index-name": "medical-foods",
    "label-name": "Medical Foods",
    "treatment-type": "other"
  },
  "body-system": {
    "index-name": "low-back",
    "label-name": "Low Back"
  },
  "version": {
    "mtus": "11/23/21",
    "odg": "",
    "policy-doc": "09/09/22",
    "created-by": "Cade",
    "comments": ""
  },
  "policies": [
    {
      "source": "mtus",
      "diagnosis": {
        "index-name": "acute-low-back-pain",
        "label-name": "Acute Low Back Pain"
      },
      "recommendation": "no_recommendation",
      "questions": [],
      "mtus-text": "No Recommendation. There is no recommendation for or against use of medical foods, including theramine, for treatment of acute, subacute, chronic, radicular and post-operative low back pain.\n\nStrength of Evidence – No Recommendation, Insufficient Evidence (I)\n\nRationale for Recommendation - There are no placebo-controlled trials identified. There is one moderate-quality trial comparing theramine with low dose naproxen.(1154) This may have biases similar to a non-treatment or wait-listed control group. Theramine is not invasive, has low adverse effects but cost quickly becomes high. In the absence of trials demonstrating efficacy, there is no recommendation for or against theramine."
    },
    {
      "source": "mtus",
      "diagnosis": {
        "index-name": "subacute-low-back-pain",
        "label-name": "Subacute Low Back Pain"
      },
      "recommendation": "no_recommendation",
      "questions": [],
      "mtus-text": "No Recommendation. There is no recommendation for or against use of medical foods, including theramine, for treatment of acute, subacute, chronic, radicular and post-operative low back pain.\n\nStrength of Evidence – No Recommendation, Insufficient Evidence (I)\n\nRationale for Recommendation - There are no placebo-controlled trials identified. There is one moderate-quality trial comparing theramine with low dose naproxen.(1154) This may have biases similar to a non-treatment or wait-listed control group. Theramine is not invasive, has low adverse effects but cost quickly becomes high. In the absence of trials demonstrating efficacy, there is no recommendation for or against theramine."
    },
    {
      "source": "mtus",
      "diagnosis": {
        "index-name": "chronic-low-back-pain",
        "label-name": "Chronic Low Back Pain"
      },
      "recommendation": "no_recommendation",
      "questions": [],
      "mtus-text": "No Recommendation. There is no recommendation for or against use of medical foods, including theramine, for treatment of acute, subacute, chronic, radicular and post-operative low back pain.\n\nStrength of Evidence – No Recommendation, Insufficient Evidence (I)\n\nRationale for Recommendation - There are no placebo-controlled trials identified. There is one moderate-quality trial comparing theramine with low dose naproxen.(1154) This may have biases similar to a non-treatment or wait-listed control group. Theramine is not invasive, has low adverse effects but cost quickly becomes high. In the absence of trials demonstrating efficacy, there is no recommendation for or against theramine."
    },
    {
      "source": "mtus",
      "diagnosis": {
        "index-name": "radicular-low-back-pain",
        "label-name": "Radicular Low Back Pain"
      },
      "recommendation": "deny",
      "questions": [],
      "mtus-text": "No Recommendation. There is no recommendation for or against use of medical foods, including theramine, for treatment of acute, subacute, chronic, radicular and post-operative low back pain.\n\nStrength of Evidence – No Recommendation, Insufficient Evidence (I)\n\nRationale for Recommendation - There are no placebo-controlled trials identified. There is one moderate-quality trial comparing theramine with low dose naproxen.(1154) This may have biases similar to a non-treatment or wait-listed control group. Theramine is not invasive, has low adverse effects but cost quickly becomes high. In the absence of trials demonstrating efficacy, there is no recommendation for or against theramine."
    }
  ],
  "references": {
    "mtus-link": "https://app.mdguidelines.com/acoem-section/state-guidelines%2Fca-mtus%2Flow-back-disorders-november-2021%2Frecommendations%2Flow-back-pain-radicular-pain%2Ftreatment-recommendations%2Fmedications",
    "odg-link": ""
  }
}