{
  "treatment": {
    "index-name": "myeloscopy",
    "label-name": "Myeloscopy",
    "treatment-type": "other"
  },
  "body-system": {
    "index-name": "low-back",
    "label-name": "Low Back"
  },
  "version": {
    "mtus": "11/23/21",
    "odg": "",
    "policy-doc": "09/09/22",
    "created-by": "Cade",
    "comments": ""
  },
  "policies": [
    {
      "source": "mtus",
      "diagnosis": {
        "index-name": "diagnosing-acute-low-back-pain",
        "label-name": "Diagnosing Acute Low Back Pain"
      },
      "recommendation": "deny",
      "questions": [],
      "mtus-text": "Not Recommended. Myeloscopy is not recommended for diagnosing acute, subacute, or chronic low back pain, spinal stenosis, radicular pain syndromes, or post-surgical back pain problems.\n\nStrength of Evidence – Not Recommended, Insufficient Evidence (I)\n\nLevel of Confidence – Low\n\nRationale for Recommendation - Currently, while there are studies suggesting different levels of neurological impingement are identified with myeloscopy, there are no quality controlled studies identifying the utility of this diagnostic procedure for improving long-term outcomes. A few reported studies have used this procedure in conjunction with adhesiolysis (see surgical treatments section of this Guideline). Myeloscopy has not been shown to be beneficial in large scale, medium- to long-term studies sufficient. (516, 517) It is invasive, has likely complications, and is costly. Well-designed multi-center studies are needed prior to recommending this procedure."
    },
    {
      "source": "mtus",
      "diagnosis": {
        "index-name": "diagnosing-subacute-low-back-pain",
        "label-name": "Diagnosing Subacute Low Back Pain"
      },
      "recommendation": "deny",
      "questions": [],
      "mtus-text": "Not Recommended. Myeloscopy is not recommended for diagnosing acute, subacute, or chronic low back pain, spinal stenosis, radicular pain syndromes, or post-surgical back pain problems.\n\nStrength of Evidence – Not Recommended, Insufficient Evidence (I)\n\nLevel of Confidence – Low\n\nRationale for Recommendation - Currently, while there are studies suggesting different levels of neurological impingement are identified with myeloscopy, there are no quality controlled studies identifying the utility of this diagnostic procedure for improving long-term outcomes. A few reported studies have used this procedure in conjunction with adhesiolysis (see surgical treatments section of this Guideline). Myeloscopy has not been shown to be beneficial in large scale, medium- to long-term studies sufficient. (516, 517) It is invasive, has likely complications, and is costly. Well-designed multi-center studies are needed prior to recommending this procedure."
    },
    {
      "source": "mtus",
      "diagnosis": {
        "index-name": "diagnosing-chronic-low-back-pain",
        "label-name": "Diagnosing Chronic Low Back Pain"
      },
      "recommendation": "deny",
      "questions": [],
      "mtus-text": "Not Recommended. Myeloscopy is not recommended for diagnosing acute, subacute, or chronic low back pain, spinal stenosis, radicular pain syndromes, or post-surgical back pain problems.\n\nStrength of Evidence – Not Recommended, Insufficient Evidence (I)\n\nLevel of Confidence – Low\n\nRationale for Recommendation - Currently, while there are studies suggesting different levels of neurological impingement are identified with myeloscopy, there are no quality controlled studies identifying the utility of this diagnostic procedure for improving long-term outcomes. A few reported studies have used this procedure in conjunction with adhesiolysis (see surgical treatments section of this Guideline). Myeloscopy has not been shown to be beneficial in large scale, medium- to long-term studies sufficient. (516, 517) It is invasive, has likely complications, and is costly. Well-designed multi-center studies are needed prior to recommending this procedure."
    },
    {
      "source": "mtus",
      "diagnosis": {
        "index-name": "diagnosing-spinal-stenosis",
        "label-name": "Diagnosing Spinal Stenosis"
      },
      "recommendation": "deny",
      "questions": [],
      "mtus-text": "Not Recommended. Myeloscopy is not recommended for diagnosing acute, subacute, or chronic low back pain, spinal stenosis, radicular pain syndromes, or post-surgical back pain problems.\n\nStrength of Evidence – Not Recommended, Insufficient Evidence (I)\n\nLevel of Confidence – Low\n\nRationale for Recommendation - Currently, while there are studies suggesting different levels of neurological impingement are identified with myeloscopy, there are no quality controlled studies identifying the utility of this diagnostic procedure for improving long-term outcomes. A few reported studies have used this procedure in conjunction with adhesiolysis (see surgical treatments section of this Guideline). Myeloscopy has not been shown to be beneficial in large scale, medium- to long-term studies sufficient. (516, 517) It is invasive, has likely complications, and is costly. Well-designed multi-center studies are needed prior to recommending this procedure."
    },
    {
      "source": "mtus",
      "diagnosis": {
        "index-name": "diagnosing-radicular-pain-syndromes",
        "label-name": "Diagnosing Radicular Pain Syndromes"
      },
      "recommendation": "deny",
      "questions": [],
      "mtus-text": "Not Recommended. Myeloscopy is not recommended for diagnosing acute, subacute, or chronic low back pain, spinal stenosis, radicular pain syndromes, or post-surgical back pain problems.\n\nStrength of Evidence – Not Recommended, Insufficient Evidence (I)\n\nLevel of Confidence – Low\n\nRationale for Recommendation - Currently, while there are studies suggesting different levels of neurological impingement are identified with myeloscopy, there are no quality controlled studies identifying the utility of this diagnostic procedure for improving long-term outcomes. A few reported studies have used this procedure in conjunction with adhesiolysis (see surgical treatments section of this Guideline). Myeloscopy has not been shown to be beneficial in large scale, medium- to long-term studies sufficient. (516, 517) It is invasive, has likely complications, and is costly. Well-designed multi-center studies are needed prior to recommending this procedure."
    }
  ],
  "references": {
    "mtus-link": "https://app.mdguidelines.com/acoem-section/state-guidelines%2Fca-mtus%2Flow-back-disorders-november-2021%2Frecommendations%2Flow-back-pain-radicular-pain%2Fdiagnostic-recommendations%2Fmyeloscopy",
    "odg-link": ""
  }
}