{
  "treatment": {
    "index-name": "nmes",
    "label-name": "NMES",
    "treatment-type": "other"
  },
  "body-system": {
    "index-name": "low-back",
    "label-name": "Low Back"
  },
  "version": {
    "mtus": "11/23/21",
    "odg": "",
    "policy-doc": "09/09/22",
    "created-by": "Cade",
    "comments": ""
  },
  "policies": [
    {
      "source": "mtus",
      "diagnosis": {
        "index-name": "acute-low-back-pain",
        "label-name": "Acute Low Back Pain"
      },
      "recommendation": "deny",
      "questions": [],
      "mtus-text": "Not Recommended. TENS and NMES are not recommended for treatment of acute or subacute low back pain or acute radicular pain syndromes.\n\nStrength of Evidence – Not Recommended, Insufficient Evidence (I)\n\nLevel of Confidence – Moderate"
    },
    {
      "source": "mtus",
      "diagnosis": {
        "index-name": "subacute-low-back-pain",
        "label-name": "Subacute Low Back Pain"
      },
      "recommendation": "deny",
      "questions": [],
      "mtus-text": "Not Recommended. TENS and NMES are not recommended for treatment of acute or subacute low back pain or acute radicular pain syndromes.\n\nStrength of Evidence – Not Recommended, Insufficient Evidence (I)\n\nLevel of Confidence – Moderate"
    },
    {
      "source": "mtus",
      "diagnosis": {
        "index-name": "acute-radicular-pain-syndromes",
        "label-name": "Acute Radicular Pain Syndromes"
      },
      "recommendation": "deny",
      "questions": [],
      "mtus-text": "Not Recommended. TENS and NMES are not recommended for treatment of acute or subacute low back pain or acute radicular pain syndromes.\n\nStrength of Evidence – Not Recommended, Insufficient Evidence (I)\n\nLevel of Confidence – Moderate"
    },
    {
      "source": "mtus",
      "diagnosis": {
        "index-name": "chronic-low-back-pain",
        "label-name": "Chronic Low Back Pain"
      },
      "recommendation": "no_recommendation",
      "questions": [],
      "mtus-text": "No Recommendation. There is no recommendation for or against the use of NMES for chronic low back pain or chronic radicular pain syndrome as an adjunct for more efficacious treatments.\n\nStrength of Evidence – No Recommendation, Insufficient Evidence (I)\n\nLevel of Confidence – Low\n\nRationale for Recommendations - There are quality studies evaluating the utility of TENS, particularly for chronic LBP. There is insufficient evidence on NMES and thus no recommendations regarding this treatment. There was no quality study identified evaluating acute LBP, and one with a minority of patients having subacute LBP.(1543) There are studies evaluating TENS for sciatica patients. In reviewing these studies, there is not clear evidence of benefit. Of the high-quality studies for chronic LBP, 3(1524, 1544, 1545) suggest benefit and 2(1048, 1546) suggest no benefit. While the highest quality study(1545) did find benefit, not all of the higher quality trials did, thus the evidence conflicts. There is no study finding strong evidence of major benefits, thus any benefit appears likely to be modest.\n\nTENS is not invasive, has no significant adverse effects, and is moderately costly. It has no clear benefits and is not recommended for treatment of acute, subacute, or chronic LBP or radicular pain syndromes. In rare cases where more efficacious strategies have been exhausted, it may be reasonable to prescribe TENS for select subacute LBP patients, but only as an adjunct to a conditioning program."
    },
    {
      "source": "mtus",
      "diagnosis": {
        "index-name": "chronic-radicular-pain-syndromes",
        "label-name": "Chronic Radicular Pain Syndromes"
      },
      "recommendation": "no_recommendation",
      "questions": [],
      "mtus-text": "No Recommendation. There is no recommendation for or against the use of NMES for chronic low back pain or chronic radicular pain syndrome as an adjunct for more efficacious treatments.\n\nStrength of Evidence – No Recommendation, Insufficient Evidence (I)\n\nLevel of Confidence – Low\n\nRationale for Recommendations - There are quality studies evaluating the utility of TENS, particularly for chronic LBP. There is insufficient evidence on NMES and thus no recommendations regarding this treatment. There was no quality study identified evaluating acute LBP, and one with a minority of patients having subacute LBP.(1543) There are studies evaluating TENS for sciatica patients. In reviewing these studies, there is not clear evidence of benefit. Of the high-quality studies for chronic LBP, 3(1524, 1544, 1545) suggest benefit and 2(1048, 1546) suggest no benefit. While the highest quality study(1545) did find benefit, not all of the higher quality trials did, thus the evidence conflicts. There is no study finding strong evidence of major benefits, thus any benefit appears likely to be modest.\n\nTENS is not invasive, has no significant adverse effects, and is moderately costly. It has no clear benefits and is not recommended for treatment of acute, subacute, or chronic LBP or radicular pain syndromes. In rare cases where more efficacious strategies have been exhausted, it may be reasonable to prescribe TENS for select subacute LBP patients, but only as an adjunct to a conditioning program."
    }
  ],
  "references": {
    "mtus-link": "https://app.mdguidelines.com/acoem-section/state-guidelines%2Fca-mtus%2Flow-back-disorders-november-2021%2Frecommendations%2Flow-back-pain-radicular-pain%2Ftreatment-recommendations%2Fallied-health",
    "odg-link": ""
  }
}