{
  "treatment": {
    "index-name": "nsaids-with-concomitant-prescriptions-of-cytoprotective-medications-(sucralfate)",
    "label-name": "NSAIDs with Concomitant Prescriptions of Cytoprotective Medications (Sucralfate)",
    "treatment-type": "other"
  },
  "body-system": {
    "index-name": "low-back",
    "label-name": "Low Back"
  },
  "version": {
    "mtus": "11/23/21",
    "odg": "",
    "policy-doc": "09/09/22",
    "created-by": "Cade",
    "comments": ""
  },
  "policies": [
    {
      "source": "mtus",
      "diagnosis": {
        "index-name": "patients-at-risk-for-gi-adverse-effects",
        "label-name": "Patients at Risk for GI Adverse Effects"
      },
      "recommendation": "approve",
      "questions": [],
      "mtus-text": "Recommended. Concomitant prescriptions of cytoprotective medications are recommended for patients treated with non-selective NSAIDs at substantially increased risk for gastrointestinal bleeding. There are four commonly used cytoprotective classes of drugs: misoprostol, sucralfate, histamine Type 2 receptor blockers (famotidine, ranitidine, cimetidine, etc.), and proton pump inhibitors (esomeprazole, lansoprazole, omeprazole, pantoprazole, rabeprazole).(807) There also are combination products of NSAIDs/misoprostol.\n\nStrength of Evidence – Strongly Recommended, Evidence (A) – Proton pump inhibitors, misoprostol\n\nModerately Recommended, Evidence (B) – Sucralfate\n\nRecommended, Evidence (C) – H2 blockers\n\nLevel of Confidence – High\n\nIndications – For patients with a high-risk factor profile who also have indications for NSAIDs, cytoprotective medications should be considered, particularly if longer term treatment with non-selective COX inhibiting NSAIDs is contemplated. At-risk patients include those with a history of prior gastrointestinal bleeding, the elderly, diabetics, and cigarette smokers.\n\nFrequency/Duration – Frequency as recommended by manufacturer.\n\nIndications for Discontinuation – Intolerance, development of adverse effects, or discontinuation of NSAID.\n\nBenefits – Reduced risk of gastrointestinal bleeding when used with an NSAID.\n\nHarms – Misoprostol may cause diarrhea. Other medications typically well tolerated, although as with all medications, allergic intolerances have been reported."
    }
  ],
  "references": {
    "mtus-link": "https://app.mdguidelines.com/acoem-section/state-guidelines%2Fca-mtus%2Flow-back-disorders-november-2021%2Frecommendations%2Flow-back-pain-radicular-pain%2Ftreatment-recommendations%2Fmedications",
    "odg-link": ""
  }
}