{
  "treatment": {
    "index-name": "pilates",
    "label-name": "Pilates",
    "treatment-type": "other"
  },
  "body-system": {
    "index-name": "low-back",
    "label-name": "Low Back"
  },
  "version": {
    "mtus": "11/23/21",
    "odg": "",
    "policy-doc": "09/11/22",
    "created-by": "Cade",
    "comments": ""
  },
  "policies": [
    {
      "source": "mtus",
      "diagnosis": {
        "index-name": "acute-low-back-pain",
        "label-name": "Acute Low Back Pain"
      },
      "recommendation": "no_recommendation",
      "questions": [],
      "mtus-text": "No Recommendation. There is no recommendation for or against the use of Pilates for treatment of acute, subacute, chronic or post-operative back pain.\n\nStrength of Evidence – No Recommendation, Insufficient Evidence (I)\n\nLevel of Confidence – Low\n\nRationale for Recommendations - All quality studies of yoga address chronic LBP and none address efficacy for acute or subacute LBP. Different types of yoga have been assessed. There are some small studies that are likely underpowered.(787-789) The sizable studies generally show efficacy compared with an educational book,(789, 790) usual care,(791) breathing exercises and relaxation,(792, 793) and self-directed medical care.(794) However, yoga was not found superior to stretching classes,(652) raising questions about whether yoga may be inferior to aerobic and strengthening exercise. Due to these weaknesses the recommendation is downgraded to “C” level evidence.(788, 790) Patient motivation, compliance and adherence must be high and there is much self-selection in the studies. Yoga is not invasive, has low potential for adverse effects, and is low cost (self-administered is very low cost). It is recommended for highly select and motivated patients.\n\nTai Chi has been assessed in one study and some evidence of efficacy is suggested. As Tai Chi is not invasive, has few adverse effects and is low cost, it is recommended for highly select and motivated patients.\n\nThe few studies on Pilates have poor compliance rates and other methodological challenges(709, 795) that limit conclusions and result in no recommendation."
    },
    {
      "source": "mtus",
      "diagnosis": {
        "index-name": "subacute-low-back-pain",
        "label-name": "Subacute Low Back Pain"
      },
      "recommendation": "no_recommendation",
      "questions": [],
      "mtus-text": "No Recommendation. There is no recommendation for or against the use of Pilates for treatment of acute, subacute, chronic or post-operative back pain.\n\nStrength of Evidence – No Recommendation, Insufficient Evidence (I)\n\nLevel of Confidence – Low\n\nRationale for Recommendations - All quality studies of yoga address chronic LBP and none address efficacy for acute or subacute LBP. Different types of yoga have been assessed. There are some small studies that are likely underpowered.(787-789) The sizable studies generally show efficacy compared with an educational book,(789, 790) usual care,(791) breathing exercises and relaxation,(792, 793) and self-directed medical care.(794) However, yoga was not found superior to stretching classes,(652) raising questions about whether yoga may be inferior to aerobic and strengthening exercise. Due to these weaknesses the recommendation is downgraded to “C” level evidence.(788, 790) Patient motivation, compliance and adherence must be high and there is much self-selection in the studies. Yoga is not invasive, has low potential for adverse effects, and is low cost (self-administered is very low cost). It is recommended for highly select and motivated patients.\n\nTai Chi has been assessed in one study and some evidence of efficacy is suggested. As Tai Chi is not invasive, has few adverse effects and is low cost, it is recommended for highly select and motivated patients.\n\nThe few studies on Pilates have poor compliance rates and other methodological challenges(709, 795) that limit conclusions and result in no recommendation."
    },
    {
      "source": "mtus",
      "diagnosis": {
        "index-name": "chronic-low-back-pain",
        "label-name": "Chronic Low Back Pain"
      },
      "recommendation": "no_recommendation",
      "questions": [],
      "mtus-text": "No Recommendation. There is no recommendation for or against the use of Pilates for treatment of acute, subacute, chronic or post-operative back pain.\n\nStrength of Evidence – No Recommendation, Insufficient Evidence (I)\n\nLevel of Confidence – Low\n\nRationale for Recommendations - All quality studies of yoga address chronic LBP and none address efficacy for acute or subacute LBP. Different types of yoga have been assessed. There are some small studies that are likely underpowered.(787-789) The sizable studies generally show efficacy compared with an educational book,(789, 790) usual care,(791) breathing exercises and relaxation,(792, 793) and self-directed medical care.(794) However, yoga was not found superior to stretching classes,(652) raising questions about whether yoga may be inferior to aerobic and strengthening exercise. Due to these weaknesses the recommendation is downgraded to “C” level evidence.(788, 790) Patient motivation, compliance and adherence must be high and there is much self-selection in the studies. Yoga is not invasive, has low potential for adverse effects, and is low cost (self-administered is very low cost). It is recommended for highly select and motivated patients.\n\nTai Chi has been assessed in one study and some evidence of efficacy is suggested. As Tai Chi is not invasive, has few adverse effects and is low cost, it is recommended for highly select and motivated patients.\n\nThe few studies on Pilates have poor compliance rates and other methodological challenges(709, 795) that limit conclusions and result in no recommendation."
    }
  ],
  "references": {
    "mtus-link": "https://app.mdguidelines.com/acoem-section/state-guidelines%2Fca-mtus%2Flow-back-disorders-november-2021%2Frecommendations%2Flow-back-pain-radicular-pain%2Ftreatment-recommendations%2Factivity-modification-and-exercise",
    "odg-link": ""
  }
}