{
  "treatment": {
    "index-name": "prolotherapy-injections",
    "label-name": "Prolotherapy Injections",
    "treatment-type": "other"
  },
  "body-system": {
    "index-name": "low-back",
    "label-name": "Low Back"
  },
  "version": {
    "mtus": "11/23/21",
    "odg": "",
    "policy-doc": "09/11/22",
    "created-by": "Cade",
    "comments": ""
  },
  "policies": [
    {
      "source": "mtus",
      "diagnosis": {
        "index-name": "acute-low-back-pain",
        "label-name": "Acute Low Back Pain"
      },
      "recommendation": "deny",
      "questions": [],
      "mtus-text": "Strongly Not Recommended. Prolotherapy injections are strongly not recommended for treatment of acute, subacute, or chronic low back pain or any radicular pain syndrome.\n\nStrength of Evidence – Strongly Not Recommended, Evidence (A)\n\nLevel of Confidence – High\n\nRationale for Recommendation - Although there is considerable heterogeneity in the available literature, the highest quality studies showed no benefit of prolotherapy injections.(690, 1771, 1781-1783) \n\nProlotherapy injections are invasive and have a stated purpose of causing irritation. There are reports of deaths from accidental intrathecal injections,(1771) post-procedure “lumbar puncture headaches,”(1783, 1784) and increased LBP (88%).(690) The intravenous injections (e.g., diazepam, midazolam) given to tolerate the procedure and large volumes of lidocaine used may increase the risks from these procedures. These injections are costly. As the highest quality studies fail to show benefits, these injections are not recommended for the treatment of LBP."
    },
    {
      "source": "mtus",
      "diagnosis": {
        "index-name": "subacute-low-back-pain",
        "label-name": "Subacute Low Back Pain"
      },
      "recommendation": "deny",
      "questions": [],
      "mtus-text": "Strongly Not Recommended. Prolotherapy injections are strongly not recommended for treatment of acute, subacute, or chronic low back pain or any radicular pain syndrome.\n\nStrength of Evidence – Strongly Not Recommended, Evidence (A)\n\nLevel of Confidence – High\n\nRationale for Recommendation - Although there is considerable heterogeneity in the available literature, the highest quality studies showed no benefit of prolotherapy injections.(690, 1771, 1781-1783) \n\nProlotherapy injections are invasive and have a stated purpose of causing irritation. There are reports of deaths from accidental intrathecal injections,(1771) post-procedure “lumbar puncture headaches,”(1783, 1784) and increased LBP (88%).(690) The intravenous injections (e.g., diazepam, midazolam) given to tolerate the procedure and large volumes of lidocaine used may increase the risks from these procedures. These injections are costly. As the highest quality studies fail to show benefits, these injections are not recommended for the treatment of LBP."
    },
    {
      "source": "mtus",
      "diagnosis": {
        "index-name": "chronic-low-back-pain",
        "label-name": "Chronic Low Back Pain"
      },
      "recommendation": "deny",
      "questions": [],
      "mtus-text": "Strongly Not Recommended. Prolotherapy injections are strongly not recommended for treatment of acute, subacute, or chronic low back pain or any radicular pain syndrome.\n\nStrength of Evidence – Strongly Not Recommended, Evidence (A)\n\nLevel of Confidence – High\n\nRationale for Recommendation - Although there is considerable heterogeneity in the available literature, the highest quality studies showed no benefit of prolotherapy injections.(690, 1771, 1781-1783) \n\nProlotherapy injections are invasive and have a stated purpose of causing irritation. There are reports of deaths from accidental intrathecal injections,(1771) post-procedure “lumbar puncture headaches,”(1783, 1784) and increased LBP (88%).(690) The intravenous injections (e.g., diazepam, midazolam) given to tolerate the procedure and large volumes of lidocaine used may increase the risks from these procedures. These injections are costly. As the highest quality studies fail to show benefits, these injections are not recommended for the treatment of LBP."
    },
    {
      "source": "mtus",
      "diagnosis": {
        "index-name": "radicular-pain-syndromes",
        "label-name": "Radicular Pain Syndromes"
      },
      "recommendation": "deny",
      "questions": [],
      "mtus-text": "Strongly Not Recommended. Prolotherapy injections are strongly not recommended for treatment of acute, subacute, or chronic low back pain or any radicular pain syndrome.\n\nStrength of Evidence – Strongly Not Recommended, Evidence (A)\n\nLevel of Confidence – High\n\nRationale for Recommendation - Although there is considerable heterogeneity in the available literature, the highest quality studies showed no benefit of prolotherapy injections.(690, 1771, 1781-1783) \n\nProlotherapy injections are invasive and have a stated purpose of causing irritation. There are reports of deaths from accidental intrathecal injections,(1771) post-procedure “lumbar puncture headaches,”(1783, 1784) and increased LBP (88%).(690) The intravenous injections (e.g., diazepam, midazolam) given to tolerate the procedure and large volumes of lidocaine used may increase the risks from these procedures. These injections are costly. As the highest quality studies fail to show benefits, these injections are not recommended for the treatment of LBP."
    }
  ],
  "references": {
    "mtus-link": "https://app.mdguidelines.com/acoem-section/state-guidelines%2Fca-mtus%2Flow-back-disorders-november-2021%2Frecommendations%2Flow-back-pain-radicular-pain%2Ftreatment-recommendations%2Finjection-therapies",
    "odg-link": ""
  }
}