{
  "treatment": {
    "index-name": "routine-use-of-cryotherapies",
    "label-name": "Routine Use of Cryotherapies",
    "treatment-type": "other"
  },
  "body-system": {
    "index-name": "low-back",
    "label-name": "Low Back"
  },
  "version": {
    "mtus": "11/23/21",
    "odg": "",
    "policy-doc": "09/12/22",
    "created-by": "Cade",
    "comments": ""
  },
  "policies": [
    {
      "source": "mtus",
      "diagnosis": {
        "index-name": "low-back-pain",
        "label-name": "Low Back Pain"
      },
      "recommendation": "1",
      "questions": [
        {
          "#": "1",
          "question": "Is the routine cryotherapy in a health care provider office and/or use of a high-tech device?",
          "option-list": [
            {
              "option": "yes",
              "action": "deny"
            },
            {
              "option": "no",
              "action": "approve"
            }
          ]
        }
      ],
      "mtus-text": "Not Recommended. Routine use of cryotherapies in health care provider offices or home use of a high-tech device is not recommended for treatment of low back pain. However, single use of low-tech cryotherapy (ice in a plastic bag) for severe exacerbations is reasonable.\n\nStrength of Evidence – Not Recommended, Insufficient Evidence (I)\n\nLevel of Confidence – Moderate\n\nRationale for Recommendations\n\nOne trial with scant results suggests ice better than heat or alternating ice-heat for chronic LBP,(1419) thus, precluding strong conclusions. Self-applications of cryotherapies using towels or reusable devices are not invasive, are without complications, and do not have any appreciable costs. These are recommended as potential distractants or counter-irritants. Other forms of cryotherapy can be considerably more expensive, including chemicals or cryotherapeutic applications in clinical settings, and are not recommended."
    }
  ],
  "references": {
    "mtus-link": "https://app.mdguidelines.com/acoem-section/state-guidelines%2Fca-mtus%2Flow-back-disorders-november-2021%2Frecommendations%2Flow-back-pain-radicular-pain%2Ftreatment-recommendations%2Fallied-health",
    "odg-link": ""
  }
}