{
  "treatment": {
    "index-name": "screening-patients-prior-to-initiation-of-opioids",
    "label-name": "Screening Patients Prior to Initiation of Opioids",
    "treatment-type": "other"
  },
  "body-system": {
    "index-name": "low-back",
    "label-name": "Low Back"
  },
  "version": {
    "mtus": "11/23/21",
    "odg": "",
    "policy-doc": "09/12/22",
    "created-by": "Cade",
    "comments": ""
  },
  "policies": [
    {
      "source": "mtus",
      "diagnosis": {
        "index-name": "low-back-pain",
        "label-name": "Low Back Pain"
      },
      "recommendation": "approve",
      "questions": [],
      "mtus-text": "Recommended. Initial screening of patients is recommended with more detailed screening for: i) requiring continuation of opioids beyond 2 weeks for those with an acute severe injury, and ii) at consideration of initiation for severe pain but no objective evidence. Screening should include history(ies) of depression, anxiety, personality disorder, other psychiatric disorder, substance abuse, sedating medication use (e.g., anti-histamine/anti-H1 blocker(963)), benzodiazepine use, opioid dependence, alcohol abuse, current tobacco use, other substance use history, COPD, PTSD, other psychotropic medications, (severe) obesity, cognitive impairment, balance problems/fall risk, osteoporosis, and renal failure (see Appendix 1 of Opioids Guideline). Those who screen positive, especially to multiple criteria, are recommended to: i) undergo greater scrutiny for appropriateness of opioids (may include psychological evaluation), ii) consideration of consultation and examination(s) for complicating conditions and/or appropriateness of opioids, and iii) if opioids are prescribed, more frequent assessments for compliance, achievement of functional gains,(244, 992, 993) adverse effects, and symptoms and signs of aberrancy.\n\nStrength of Evidence - Recommended, Insufficient Evidence (I)\n\nLevel of Confidence – High\n\nHarms – Negligible. If a consultation is needed, there are additional costs that are incurred.\n\nBenefits – Improved identification of more appropriate candidates for opioids. Identification of patients at increased risk of adverse effects. In cases where a patient has an elevated, but potentially acceptable risk, the provider may be alerted to improve surveillance for complications and aberrant behaviors."
    }
  ],
  "references": {
    "mtus-link": "https://app.mdguidelines.com/acoem-section/state-guidelines%2Fca-mtus%2Flow-back-disorders-november-2021%2Frecommendations%2Flow-back-pain-radicular-pain%2Ftreatment-recommendations%2Fmedications",
    "odg-link": ""
  }
}