{
  "treatment": {
    "index-name": "screening-patients-prior-to-continuation-of-opioids",
    "label-name": "Screening Patients Prior to Continuation of Opioids",
    "treatment-type": "other"
  },
  "body-system": {
    "index-name": "low-back",
    "label-name": "Low Back"
  },
  "version": {
    "mtus": "11/23/21",
    "odg": "",
    "policy-doc": "09/12/22",
    "created-by": "Cade",
    "comments": ""
  },
  "policies": [
    {
      "source": "mtus",
      "diagnosis": {
        "index-name": "low-back-pain",
        "label-name": "Low Back Pain"
      },
      "recommendation": "approve",
      "questions": [],
      "mtus-text": "Recommended. Screening of patients is recommended for patients requiring continuation of opioids beyond the second post-operative week. Screening should include history(ies) of: depression, anxiety, personality disorder, pain disorder, other psychiatric disorder, substance abuse history, sedating medication use (e.g., anti-histamine/anti-H1 blocker), benzodiazepine use, opioid dependence, alcohol abuse, current tobacco use, and other substance use history, COPD, PTSD, other psychotropic medications, (severe) obesity, cognitive impairment, balance problems/fall risk, osteoporosis, and renal failure (see Appendix 1 of Opioids Guideline). Those who screen positive, especially to multiple criteria, are recommended to: i) undergo greater scrutiny for appropriateness of opioids (e.g., may include psychological and/or pain evaluation), ii) compliance with active therapies (e.g., ambulation and other exercise after arthroplasty), iii) consider consultation examination(s) for complicating conditions and/or appropriateness of opioids, and iv) if ongoing opioids are prescribed, ensure more frequent assessments for treatment compliance, achievement of functional gains,(244, 992, 993) and symptoms and signs of aberrancy.\n\nStrength of Evidence - Recommended, Insufficient Evidence (I)\n\nLevel of Confidence – High\n\nHarms – Negligible. If a consultation is needed, there are additional costs that are incurred.\n\nBenefits – Identification of patients at increased risk of adverse effects. Improved identification of more appropriate and safe candidates for opioids compared with attempting post-operative pain control with non-opioids. This should reduce adverse effects. In cases where someone has elevated, but potentially acceptable risk, this may alert the provider to improve surveillance for complications and aberrant behaviors."
    }
  ],
  "references": {
    "mtus-link": "https://app.mdguidelines.com/acoem-section/state-guidelines%2Fca-mtus%2Flow-back-disorders-november-2021%2Frecommendations%2Flow-back-pain-radicular-pain%2Ftreatment-recommendations%2Fmedications",
    "odg-link": ""
  }
}