{
  "treatment": {
    "index-name": "standing-or-weight-bearing-mri",
    "label-name": "Standing or Weight-bearing MRI",
    "treatment-type": "other"
  },
  "body-system": {
    "index-name": "low-back",
    "label-name": "Low Back"
  },
  "version": {
    "mtus": "11/23/21",
    "odg": "",
    "policy-doc": "09/09/22",
    "created-by": "Cade",
    "comments": ""
  },
  "policies": [
    {
      "source": "mtus",
      "diagnosis": {
        "index-name": "lower-back-pain",
        "label-name": "Lower Back Pain"
      },
      "recommendation": "deny",
      "questions": [],
      "mtus-text": "Not Recommended. Standing or weight-bearing MRI is not recommended for back or radicular pain syndrome conditions as, in the absence of studies demonstrating improved patient outcomes, this technology is experimental.\n\nStrength of Evidence – Not Recommended, Insufficient Evidence (I)\n\nLevel of Confidence – Moderate"
    },
    {
      "source": "mtus",
      "diagnosis": {
        "index-name": "radicular-pain-syndromes",
        "label-name": "Radicular Pain Syndromes"
      },
      "recommendation": "deny",
      "questions": [],
      "mtus-text": "Not Recommended. Standing or weight-bearing MRI is not recommended for back or radicular pain syndrome conditions as, in the absence of studies demonstrating improved patient outcomes, this technology is experimental.\n\nStrength of Evidence – Not Recommended, Insufficient Evidence (I)\n\nLevel of Confidence – Moderate"
    }
  ],
  "references": {
    "mtus-link": "https://app.mdguidelines.com/acoem-section/state-guidelines%2Fca-mtus%2Flow-back-disorders-november-2021%2Frecommendations%2Flow-back-pain-radicular-pain%2Fdiagnostic-recommendations%2Fmagnetic-resonance-imaging",
    "odg-link": ""
  }
}