{
  "treatment": {
    "index-name": "strengthening-exercises",
    "label-name": "Strengthening Exercises",
    "treatment-type": "other"
  },
  "body-system": {
    "index-name": "low-back",
    "label-name": "Low Back"
  },
  "version": {
    "mtus": "11/23/21",
    "odg": "",
    "policy-doc": "09/12/22",
    "created-by": "Cade",
    "comments": ""
  },
  "policies": [
    {
      "source": "mtus",
      "diagnosis": {
        "index-name": "acute-(late-recovery)-low-back-pain",
        "label-name": "Acute (Late Recovery) Low Back Pain"
      },
      "recommendation": "1",
      "questions": [
        {
          "#": "1",
          "question": "Does the injured worker have acute LBP that resolves rapidly or acute LBP in the acute treatment phase when strengthening could aggravate the pain?",
          "option-list": [
            {
              "option": "yes",
              "action": "deny"
            },
            {
              "option": "no",
              "action": "approve"
            }
          ]
        }
      ],
      "mtus-text": "Recommended. Strengthening exercises are recommended for patients with acute (late recovery), subacute, chronic, or post-operative low back pain. Specific strengthening exercises, such as stabilization exercises, are helpful for the prevention and treatment (including post-operative treatment) of low back pain.(618-621)\n\nStrength of Evidence – Recommended, Evidence (C)\n\nLevel of Confidence – High\n\nIndications – Nearly all LBP patients other than those with acute LBP that resolves rapidly or acute LBP in the acute treatment phase when strengthening could aggravate the pain. As evidence of efficacy of aerobic exercises appears greater (see above), these exercises should be added after aerobic exercises have already been instituted and additional treatment is needed or in situations where both are felt to be required. Exercises should be taught and then performed by the patient in a home exercise program. For those patients who do not improve, follow-up appointments to verify technique and compliance (by exercise log books) are recommended. Some patients, particularly those lacking motivation to be in a home exercise program or those with fear avoidant behaviors may benefit from a supervised exercise program, although strong questions about long-term compliance are apparent among such patients particularly with chronic LBP. More intensive programs with more intensive exercises and direct supervision with active coaching appear warranted for chronic LBP.\n\nFrequency/Duration – Home program frequency is 1 to 2 times a day for acute LBP, and 2 to 3 times a day for subacute or chronic LBP. Supervised treatment frequency and duration is dependent of symptom severity and acuity and the presence of comorbid conditions and yellow flags (see recommendations under General Exercise Approaches and Recommendation).\n\nIndications for Discontinuation – Indications to discontinue strengthening exercises include development of a strain in the course of treatment or failure to improve.\n\nBenefits – Improvement in LBP, improved strength and fitness.\n\nHarms – Increased pain, especially short-term; theoretical risk of musculoskeletal injury."
    },
    {
      "source": "mtus",
      "diagnosis": {
        "index-name": "subacute-low-back-pain",
        "label-name": "Subacute Low Back Pain"
      },
      "recommendation": "approve",
      "questions": [],
      "mtus-text": "Recommended. Strengthening exercises are recommended for patients with acute (late recovery), subacute, chronic, or post-operative low back pain. Specific strengthening exercises, such as stabilization exercises, are helpful for the prevention and treatment (including post-operative treatment) of low back pain.(618-621)\n\nStrength of Evidence – Recommended, Evidence (C)\n\nLevel of Confidence – High\n\nIndications – Nearly all LBP patients other than those with acute LBP that resolves rapidly or acute LBP in the acute treatment phase when strengthening could aggravate the pain. As evidence of efficacy of aerobic exercises appears greater (see above), these exercises should be added after aerobic exercises have already been instituted and additional treatment is needed or in situations where both are felt to be required. Exercises should be taught and then performed by the patient in a home exercise program. For those patients who do not improve, follow-up appointments to verify technique and compliance (by exercise log books) are recommended. Some patients, particularly those lacking motivation to be in a home exercise program or those with fear avoidant behaviors may benefit from a supervised exercise program, although strong questions about long-term compliance are apparent among such patients particularly with chronic LBP. More intensive programs with more intensive exercises and direct supervision with active coaching appear warranted for chronic LBP.\n\nFrequency/Duration – Home program frequency is 1 to 2 times a day for acute LBP, and 2 to 3 times a day for subacute or chronic LBP. Supervised treatment frequency and duration is dependent of symptom severity and acuity and the presence of comorbid conditions and yellow flags (see recommendations under General Exercise Approaches and Recommendation).\n\nIndications for Discontinuation – Indications to discontinue strengthening exercises include development of a strain in the course of treatment or failure to improve.\n\nBenefits – Improvement in LBP, improved strength and fitness.\n\nHarms – Increased pain, especially short-term; theoretical risk of musculoskeletal injury."
    },
    {
      "source": "mtus",
      "diagnosis": {
        "index-name": "chronic-low-back-pain",
        "label-name": "Chronic Low Back Pain"
      },
      "recommendation": "approve",
      "questions": [],
      "mtus-text": "Recommended. Strengthening exercises are recommended for patients with acute (late recovery), subacute, chronic, or post-operative low back pain. Specific strengthening exercises, such as stabilization exercises, are helpful for the prevention and treatment (including post-operative treatment) of low back pain.(618-621)\n\nStrength of Evidence – Recommended, Evidence (C)\n\nLevel of Confidence – High\n\nIndications – Nearly all LBP patients other than those with acute LBP that resolves rapidly or acute LBP in the acute treatment phase when strengthening could aggravate the pain. As evidence of efficacy of aerobic exercises appears greater (see above), these exercises should be added after aerobic exercises have already been instituted and additional treatment is needed or in situations where both are felt to be required. Exercises should be taught and then performed by the patient in a home exercise program. For those patients who do not improve, follow-up appointments to verify technique and compliance (by exercise log books) are recommended. Some patients, particularly those lacking motivation to be in a home exercise program or those with fear avoidant behaviors may benefit from a supervised exercise program, although strong questions about long-term compliance are apparent among such patients particularly with chronic LBP. More intensive programs with more intensive exercises and direct supervision with active coaching appear warranted for chronic LBP.\n\nFrequency/Duration – Home program frequency is 1 to 2 times a day for acute LBP, and 2 to 3 times a day for subacute or chronic LBP. Supervised treatment frequency and duration is dependent of symptom severity and acuity and the presence of comorbid conditions and yellow flags (see recommendations under General Exercise Approaches and Recommendation).\n\nIndications for Discontinuation – Indications to discontinue strengthening exercises include development of a strain in the course of treatment or failure to improve.\n\nBenefits – Improvement in LBP, improved strength and fitness.\n\nHarms – Increased pain, especially short-term; theoretical risk of musculoskeletal injury."
    }
  ],
  "references": {
    "mtus-link": "https://app.mdguidelines.com/acoem-section/state-guidelines%2Fca-mtus%2Flow-back-disorders-november-2021%2Frecommendations%2Flow-back-pain-radicular-pain%2Ftreatment-recommendations%2Factivity-modification-and-exercise",
    "odg-link": ""
  }
}