{
  "treatment": {
    "index-name": "taping",
    "label-name": "Taping",
    "treatment-type": "other"
  },
  "body-system": {
    "index-name": "low-back",
    "label-name": "Low Back"
  },
  "version": {
    "mtus": "11/23/21",
    "odg": "",
    "policy-doc": "09/11/22",
    "created-by": "Cade",
    "comments": ""
  },
  "policies": [
    {
      "source": "mtus",
      "diagnosis": {
        "index-name": "acute-low-back-pain",
        "label-name": "Acute Low Back Pain"
      },
      "recommendation": "deny",
      "questions": [],
      "mtus-text": "Not Recommended. Kinesiotaping and taping are not recommended for treatment of acute, subacute, or chronic low back pain or radicular pain syndromes or other back-related conditions.\n\nStrength of Evidence – Not Recommended, Evidence (C)\n\nLevel of Confidence – Moderate\n\nRationale for Recommendation - There are no consistent quality studies demonstrating kinesiotaping and taping are efficacious for the treatment of acute, subacute, or chronic LBP or radicular pain syndromes or other back-related problems. One moderate-quality study suggested it may be effective, however, three found it ineffective.(1249-1252) The theory is that taping supports the muscles, although most of the spine muscles are small and deep, thus the rationale for taping the back seems limited. Taping has occasionally been used as a technique to teach posture. However, there are concerns about the value of this technique as there also is some controversy regarding appropriate postures for work and lifting. These interventions are not invasive, but there are generally minor adverse effects among patients who do not tolerate tape or the adhesives. However, tape is expensive and there are other interventions shown to be efficacious."
    },
    {
      "source": "mtus",
      "diagnosis": {
        "index-name": "subacute-low-back-pain",
        "label-name": "Subacute Low Back Pain"
      },
      "recommendation": "deny",
      "questions": [],
      "mtus-text": "Not Recommended. Kinesiotaping and taping are not recommended for treatment of acute, subacute, or chronic low back pain or radicular pain syndromes or other back-related conditions.\n\nStrength of Evidence – Not Recommended, Evidence (C)\n\nLevel of Confidence – Moderate\n\nRationale for Recommendation - There are no consistent quality studies demonstrating kinesiotaping and taping are efficacious for the treatment of acute, subacute, or chronic LBP or radicular pain syndromes or other back-related problems. One moderate-quality study suggested it may be effective, however, three found it ineffective.(1249-1252) The theory is that taping supports the muscles, although most of the spine muscles are small and deep, thus the rationale for taping the back seems limited. Taping has occasionally been used as a technique to teach posture. However, there are concerns about the value of this technique as there also is some controversy regarding appropriate postures for work and lifting. These interventions are not invasive, but there are generally minor adverse effects among patients who do not tolerate tape or the adhesives. However, tape is expensive and there are other interventions shown to be efficacious."
    },
    {
      "source": "mtus",
      "diagnosis": {
        "index-name": "chronic-low-back-pain",
        "label-name": "Chronic Low Back Pain"
      },
      "recommendation": "deny",
      "questions": [],
      "mtus-text": "Not Recommended. Kinesiotaping and taping are not recommended for treatment of acute, subacute, or chronic low back pain or radicular pain syndromes or other back-related conditions.\n\nStrength of Evidence – Not Recommended, Evidence (C)\n\nLevel of Confidence – Moderate\n\nRationale for Recommendation - There are no consistent quality studies demonstrating kinesiotaping and taping are efficacious for the treatment of acute, subacute, or chronic LBP or radicular pain syndromes or other back-related problems. One moderate-quality study suggested it may be effective, however, three found it ineffective.(1249-1252) The theory is that taping supports the muscles, although most of the spine muscles are small and deep, thus the rationale for taping the back seems limited. Taping has occasionally been used as a technique to teach posture. However, there are concerns about the value of this technique as there also is some controversy regarding appropriate postures for work and lifting. These interventions are not invasive, but there are generally minor adverse effects among patients who do not tolerate tape or the adhesives. However, tape is expensive and there are other interventions shown to be efficacious."
    },
    {
      "source": "mtus",
      "diagnosis": {
        "index-name": "radicular-pain-syndromes",
        "label-name": "Radicular Pain Syndromes"
      },
      "recommendation": "deny",
      "questions": [],
      "mtus-text": "Not Recommended. Kinesiotaping and taping are not recommended for treatment of acute, subacute, or chronic low back pain or radicular pain syndromes or other back-related conditions.\n\nStrength of Evidence – Not Recommended, Evidence (C)\n\nLevel of Confidence – Moderate\n\nRationale for Recommendation - There are no consistent quality studies demonstrating kinesiotaping and taping are efficacious for the treatment of acute, subacute, or chronic LBP or radicular pain syndromes or other back-related problems. One moderate-quality study suggested it may be effective, however, three found it ineffective.(1249-1252) The theory is that taping supports the muscles, although most of the spine muscles are small and deep, thus the rationale for taping the back seems limited. Taping has occasionally been used as a technique to teach posture. However, there are concerns about the value of this technique as there also is some controversy regarding appropriate postures for work and lifting. These interventions are not invasive, but there are generally minor adverse effects among patients who do not tolerate tape or the adhesives. However, tape is expensive and there are other interventions shown to be efficacious."
    },
    {
      "source": "mtus",
      "diagnosis": {
        "index-name": "other-back-related-conditions",
        "label-name": "Other Back-related Conditions"
      },
      "recommendation": "deny",
      "questions": [],
      "mtus-text": "Not Recommended. Kinesiotaping and taping are not recommended for treatment of acute, subacute, or chronic low back pain or radicular pain syndromes or other back-related conditions.\n\nStrength of Evidence – Not Recommended, Evidence (C)\n\nLevel of Confidence – Moderate\n\nRationale for Recommendation - There are no consistent quality studies demonstrating kinesiotaping and taping are efficacious for the treatment of acute, subacute, or chronic LBP or radicular pain syndromes or other back-related problems. One moderate-quality study suggested it may be effective, however, three found it ineffective.(1249-1252) The theory is that taping supports the muscles, although most of the spine muscles are small and deep, thus the rationale for taping the back seems limited. Taping has occasionally been used as a technique to teach posture. However, there are concerns about the value of this technique as there also is some controversy regarding appropriate postures for work and lifting. These interventions are not invasive, but there are generally minor adverse effects among patients who do not tolerate tape or the adhesives. However, tape is expensive and there are other interventions shown to be efficacious."
    }
  ],
  "references": {
    "mtus-link": "https://app.mdguidelines.com/acoem-section/acoem%2Fdisorders%2Flow-back-disorders%2Frecommendations%2Flow-back-pain-radicular-pain%2Ftreatment-recommendations%2Fallied-health",
    "odg-link": ""
  }
}