{
  "treatment": {
    "index-name": "thiocolchicoside",
    "label-name": "Thiocolchicoside",
    "treatment-type": "other"
  },
  "body-system": {
    "index-name": "low-back",
    "label-name": "Low Back"
  },
  "version": {
    "mtus": "11/23/21",
    "odg": "",
    "policy-doc": "09/11/22",
    "created-by": "Cade",
    "comments": ""
  },
  "policies": [
    {
      "source": "mtus",
      "diagnosis": {
        "index-name": "acute-low-back-pain",
        "label-name": "Acute Low Back Pain"
      },
      "recommendation": "no_recommendation",
      "questions": [],
      "mtus-text": "No Recommendation. There is no recommendation for or against the use of thiocolchicoside for the treatment of acute, subacute, or chronic low back pain.\n\nStrength of Evidence – No Recommendation, Insufficient Evidence (I)\n\nRationale for Recommendations - The results from studies of colchicine are conflicting and there is no clear evidence of lasting benefit.(936-938) Newer results with thiocolchicoside are more impressive,(939, 940) but need to be replicated by a different group. Intravenous or intramuscular colchicine is invasive, moderately expensive, has potentially serious adverse effects, and has not been shown to be superior to placebo. Oral colchicine is not invasive, has adverse effects, is not costly, but has not been shown to be superior to placebo."
    },
    {
      "source": "mtus",
      "diagnosis": {
        "index-name": "subacute-low-back-pain",
        "label-name": "Subacute Low Back Pain"
      },
      "recommendation": "no_recommendation",
      "questions": [],
      "mtus-text": "No Recommendation. There is no recommendation for or against the use of thiocolchicoside for the treatment of acute, subacute, or chronic low back pain.\n\nStrength of Evidence – No Recommendation, Insufficient Evidence (I)\n\nRationale for Recommendations - The results from studies of colchicine are conflicting and there is no clear evidence of lasting benefit.(936-938) Newer results with thiocolchicoside are more impressive,(939, 940) but need to be replicated by a different group. Intravenous or intramuscular colchicine is invasive, moderately expensive, has potentially serious adverse effects, and has not been shown to be superior to placebo. Oral colchicine is not invasive, has adverse effects, is not costly, but has not been shown to be superior to placebo."
    },
    {
      "source": "mtus",
      "diagnosis": {
        "index-name": "chronic-low-back-pain",
        "label-name": "Chronic Low Back Pain"
      },
      "recommendation": "no_recommendation",
      "questions": [],
      "mtus-text": "No Recommendation. There is no recommendation for or against the use of thiocolchicoside for the treatment of acute, subacute, or chronic low back pain.\n\nStrength of Evidence – No Recommendation, Insufficient Evidence (I)\n\nRationale for Recommendations - The results from studies of colchicine are conflicting and there is no clear evidence of lasting benefit.(936-938) Newer results with thiocolchicoside are more impressive,(939, 940) but need to be replicated by a different group. Intravenous or intramuscular colchicine is invasive, moderately expensive, has potentially serious adverse effects, and has not been shown to be superior to placebo. Oral colchicine is not invasive, has adverse effects, is not costly, but has not been shown to be superior to placebo."
    }
  ],
  "references": {
    "mtus-link": "https://app.mdguidelines.com/acoem-section/state-guidelines%2Fca-mtus%2Flow-back-disorders-november-2021%2Frecommendations%2Flow-back-pain-radicular-pain%2Ftreatment-recommendations%2Fmedications",
    "odg-link": ""
  }
}