{
  "treatment": {
    "index-name": "topiramate",
    "label-name": "Topiramate",
    "treatment-type": "other"
  },
  "body-system": {
    "index-name": "low-back",
    "label-name": "Low Back"
  },
  "version": {
    "mtus": "11/23/21",
    "odg": "",
    "policy-doc": "09/08/22",
    "created-by": "Bill",
    "comments": ""
  },
  "policies": [
    {
      "source": "mtus",
      "diagnosis": {
        "index-name": "chronic-low-back-pain",
        "label-name": "Chronic Low Back Pain"
      },
      "recommendation": "1",
      "questions": [
        {
          "#": "1",
          "question": "Does the patient have chronic low back pain?",
          "option-list": [
            {
              "option": "yes",
              "action": "2"
            },
            {
              "option": "no",
              "action": "deny"
            }
          ]
        },
        {
          "#": "2",
          "question": "Has the patient failed other modalities such as  NSAIDs, aerobic exercise, specific stretching exercise, strengthening exercise, anti-depressants, and distractants?",
          "option-list": [
            {
              "option": "yes",
              "action": "approve"
            },
            {
              "option": "no",
              "action": "deny"
            }
          ]
        }
      ],
      "mtus-text": "Recommended. Topiramate is recommended for chronic non-neuropathic pain or low back pain among patients with depression or anxiety.\n\nStrength of Evidence – Recommended, Evidence (C)\n\nLevel of Confidence – Low\n\nIndications for Initiation – Chronic LBP patients with depression or anxiety. Failure of multiple other modalities including trials of different NSAIDs, aerobic exercise, specific stretching exercise, strengthening exercise, anti-depressants, and distractants.\n\nFrequency/Dose – This medication is initiated by gradually increasing the dose – beginning at 50mg and increasing by 50mg/day each week.(922) The most appropriate steady dose is unclear, but appears to be 300mg. Patients should be carefully monitored for the development of adverse events.\n\nIndications for Discontinuation – Resolution, development of adverse effects, lack of improvement, or failure to adhere to a functional restoration program. Careful monitoring of employed patients is indicated due in part to elevated risks for central nervous system- (CNS) sedating adverse effects.\n\nBenefits – Modest reductions in pain and may improve psychological profile. Potential to spare need for more impairing medications.\n\nHarms – Sedative effects are the highest risks especially in safety-sensitive or cognitively demanding positions.\n\n"
    }
  ],
  "references": {
    "mtus-link": "https://app.mdguidelines.com/acoem-section/state-guidelines%2Fca-mtus%2Flow-back-disorders-november-2021%2Frecommendations%2Flow-back-pain-radicular-pain%2Ftreatment-recommendations%2Fmedications\n",
    "odg-link": ""
  }
}