{
  "treatment": {
    "index-name": "trigger-point-injections-using-glucocorticosteroids",
    "label-name": "Trigger Point Injections Using Glucocorticosteroids",
    "treatment-type": "other"
  },
  "body-system": {
    "index-name": "low-back",
    "label-name": "Low Back"
  },
  "version": {
    "mtus": "11/23/21",
    "odg": "",
    "policy-doc": "09/11/22",
    "created-by": "Cade",
    "comments": ""
  },
  "policies": [
    {
      "source": "mtus",
      "diagnosis": {
        "index-name": "low-back-pain",
        "label-name": "Low Back Pain"
      },
      "recommendation": "deny",
      "questions": [],
      "mtus-text": "Not Recommended. Glucocorticosteroids are not recommended for use in trigger point injections.(1705)\n\nStrength of Evidence - Not Recommended, Evidence (C)\n\nLevel of Confidence –Moderate\n\nRationale for Recommendations - The literature on this subject is relatively heterogeneous. The main subject of these studies may be arbitrarily categorized into LBP,(1492) trigger points,(1706) or tender points.(1707, 1708) Nevertheless, there are quality studies for subacute and chronic LBP patients. There are no quality studies evaluating this treatment in acute LBP, and the one study that might have included acute LBP patients can be reasonably concluded to suggest that this treatment is not recommended in that population.(1707) These injections are invasive, have rare adverse effects,(1492) and are moderately costly depending on the number administered. There are no studies evaluating these injections on a longer term basis, though there are studies suggesting benefits lasting up to 14 days.(1492) There is no evidence that a steroid is required for efficacy of these injections, particularly those that are tender point injections (see also Shoulder Disorders guideline). As glucocorticosteroids also have adverse effects, their use in these injections is not recommended."
    }
  ],
  "references": {
    "mtus-link": "https://app.mdguidelines.com/acoem-section/state-guidelines%2Fca-mtus%2Flow-back-disorders-november-2021%2Frecommendations%2Flow-back-pain-radicular-pain%2Ftreatment-recommendations%2Finjection-therapies",
    "odg-link": ""
  }
}