{
  "treatment": {
    "index-name": "ultrasound",
    "label-name": "Ultrasound",
    "treatment-type": "other"
  },
  "body-system": {
    "index-name": "low-back",
    "label-name": "Low Back"
  },
  "version": {
    "mtus": "11/23/21",
    "odg": "",
    "policy-doc": "09/11/22",
    "created-by": "Cade",
    "comments": ""
  },
  "policies": [
    {
      "source": "mtus",
      "diagnosis": {
        "index-name": "diagnosing-low-back-pain",
        "label-name": "Diagnosing Low Back Pain"
      },
      "recommendation": "deny",
      "questions": [],
      "mtus-text": "Not Recommended. Diagnostic ultrasound is not recommended for diagnosing low back pain.\n\nStrength of Evidence – Not Recommended, Insufficient Evidence (I)\n\nLevel of Confidence – High\n\nRationale for Recommendation - Ultrasound has not been shown to result in improved patient outcomes or diagnoses other than minor applications. Ultrasound has been used to train patients to preferentially activate their transverse abdominis muscle.(440) However, altered long-term outcomes in a sizable patient population have not been shown. Ultrasound is not invasive, does not have adverse effects, and is moderately costly. There are other imaging techniques which are currently shown to be useful for diagnosis in patients with LBP. For most imaging purposes, CT and MRI are superior."
    },
    {
      "source": "mtus",
      "diagnosis": {
        "index-name": "low-back-pain",
        "label-name": "Low Back Pain"
      },
      "recommendation": "1",
      "questions": [
        {
          "#": "1",
          "question": "Is there deeper heating desirable?",
          "option-list": [
            {
              "option": "yes",
              "action": "2"
            },
            {
              "option": "no",
              "action": "deny"
            }
          ]
        },
        {
          "#": "2",
          "question": "Is this treatment being used as an adjunct to exercise?",
          "option-list": [
            {
              "option": "yes",
              "action": "no_recommendation"
            },
            {
              "option": "no",
              "action": "deny"
            }
          ]
        }
      ],
      "mtus-text": "No Recommendation. There is no recommendation for or against the use of ultrasound for treatment of low back pain. In situations where deeper heating is desirable, a limited trial of ultrasound is reasonable for treatment of acute low back pain, but only if performed as an adjunct with exercise.\n\nStrength of Evidence – No Recommendation, Insufficient Evidence (I)\n\nRationale for Recommendation - There is one small study,(1455) but no large-size quality studies of ultrasound for the treatment of LBP. Most studies used ultrasound as either part of a group of interventions, as a control or as a sham treatment that also limits the ability to develop guidance. Ultrasound is not invasive, has few adverse effects, but is moderately costly. Therefore, there is no recommendation for or against its use in treatment of LBP."
    }
  ],
  "references": {
    "mtus-link": "https://app.mdguidelines.com/acoem-section/state-guidelines%2Fca-mtus%2Flow-back-disorders-november-2021%2Frecommendations%2Flow-back-pain-radicular-pain%2Fdiagnostic-recommendations%2Fultrasound,https://app.mdguidelines.com/acoem-section/state-guidelines%2Fca-mtus%2Flow-back-disorders-november-2021%2Frecommendations%2Flow-back-pain-radicular-pain%2Ftreatment-recommendations%2Fallied-health",
    "odg-link": ""
  }
}