{
  "treatment": {
    "index-name": "urine-drug-screening-with-opioid-use",
    "label-name": "Urine Drug Screening with Opioid Use",
    "treatment-type": "other"
  },
  "body-system": {
    "index-name": "low-back",
    "label-name": "Low Back"
  },
  "version": {
    "mtus": "11/23/21",
    "odg": "",
    "policy-doc": "09/12/22",
    "created-by": "Cade",
    "comments": ""
  },
  "policies": [
    {
      "source": "mtus",
      "diagnosis": {
        "index-name": "low-back-pain",
        "label-name": "Low Back Pain"
      },
      "recommendation": "1",
      "questions": [
        {
          "#": "1",
          "question": "Is the worker on opioids and has subacute or chronic low back pain?",
          "option-list": [
            {
              "option": "yes",
              "action": "approve"
            },
            {
              "option": "no",
              "action": "deny"
            }
          ]
        }
      ],
      "mtus-text": "Recommended. Baseline and random urine drug screening, qualitative and quantitative, is recommended for patients prescribed opioids for the treatment of subacute or chronic pain to evaluate presence or absence of the drug, its metabolites, and other substance(s) use. In certain situations, other screenings (e.g., hair particularly for information regarding remote use(1034-1039) or blood (for acute toxicity) may be appropriate.\n\nStrength of Evidence - Recommended, Evidence (C)\n\nLevel of Confidence – High\n\nIndications – All patients on opioids for subacute or chronic pain.\n\nFrequency – Screening is recommended at baseline, randomly at least twice and up to 4 times a year and at termination. More intensive screening is recommended for those consuming more than 50mg MED (see above). Federal guidelines recommend at least 8 tests a year among those utilizing opioid treatment programs.(1040) Screening should also be performed “for cause” (e.g., provider suspicion of substance misuse including over-sedating, drug intoxication, motor vehicle crash, other accidents and injuries, driving while intoxicated, premature prescription renewals, self-directed dose changes, lost or stolen prescriptions, using more than one provider for prescriptions, non-pain use of medication, using alcohol for pain treatment or excessive alcohol use, missed appointments, hoarding of medications, and selling medications). Standard urine drug/toxicology screening processes should be followed (consult a qualified medical review officer).(1040-1043) If there is an aberrant drug screen result (either positive for unexpected drugs or unexpected metabolites or unexpectedly negative results), there should be a careful evaluation of whether there is a plausible explanation (e.g., drug not tested, drug metabolite not tested, laboratory cutpoint and dosing interval would not capture the drug/metabolite, laboratory error). In the absence of a plausible explanation, those patients with aberrant test results should have the opioid discontinued or weaned.(1009)\n\nHarms – No adverse clinical effects if properly interpreted.\n\nBenefits – Identifies aberrant medication(s) and substance(s) use. Such uses are high-risk for opioid events including fatalities (see tables below). It provides objective evidence to cease an opioid trial or ongoing treatment. Identifies patients who may be diverting medication (those screening negative for prescribed medication)."
    }
  ],
  "references": {
    "mtus-link": "https://app.mdguidelines.com/acoem-section/state-guidelines%2Fca-mtus%2Flow-back-disorders-november-2021%2Frecommendations%2Flow-back-pain-radicular-pain%2Ftreatment-recommendations%2Fmedications",
    "odg-link": ""
  }
}