{
  "treatment": {
    "index-name": "videofluoroscopy",
    "label-name": "Videofluoroscopy",
    "treatment-type": "other"
  },
  "body-system": {
    "index-name": "low-back",
    "label-name": "Low Back"
  },
  "version": {
    "mtus": "11/23/21",
    "odg": "",
    "policy-doc": "09/13/22",
    "created-by": "Cade",
    "comments": ""
  },
  "policies": [
    {
      "source": "mtus",
      "diagnosis": {
        "index-name": "evaluating-acute-low-back-pain",
        "label-name": "Evaluating Acute Low Back Pain"
      },
      "recommendation": "deny",
      "questions": [],
      "mtus-text": "Not Recommended. Videofluoroscopy is not recommended for the assessment of acute, subacute, or chronic low back pain.\n\nStrength of Evidence – Not Recommended, Insufficient Evidence (I)\n\nLevel of Confidence – Moderate\n\nRationale for Recommendation - There are no studies demonstrating improved clinical outcomes attributable to videofluoroscopy. There are no validated criteria for the utilization of videofluoroscopy to evaluate lumbar spine conditions. Other diagnostic tests have been shown to be effective in the evaluation of acute, subacute, and chronic LBP. One pilot study of videofluoroscopy suggested some differences between young healthy individuals and older individuals with spondylolisthesis.(455) However, there was no difference between young individuals and those with chronic LBP. Thus, as this study contains uncontrolled confounders, there are no quality studies evaluating videofluoroscopy for the evaluation of acute, subacute, or chronic LBP or radicular pain syndromes. The added expense of videofluoroscopy has not been shown to positively influence patient management. It is not invasive, has little potential for adverse effects, but is costly. It involves considerable radiation exposure. The clinical relevance of instability demonstrated via videofluoroscopy has not been established."
    },
    {
      "source": "mtus",
      "diagnosis": {
        "index-name": "evaluating-subacute-low-back-pain",
        "label-name": "Evaluating Subacute Low Back Pain"
      },
      "recommendation": "deny",
      "questions": [],
      "mtus-text": "Not Recommended. Videofluoroscopy is not recommended for the assessment of acute, subacute, or chronic low back pain.\n\nStrength of Evidence – Not Recommended, Insufficient Evidence (I)\n\nLevel of Confidence – Moderate\n\nRationale for Recommendation - There are no studies demonstrating improved clinical outcomes attributable to videofluoroscopy. There are no validated criteria for the utilization of videofluoroscopy to evaluate lumbar spine conditions. Other diagnostic tests have been shown to be effective in the evaluation of acute, subacute, and chronic LBP. One pilot study of videofluoroscopy suggested some differences between young healthy individuals and older individuals with spondylolisthesis.(455) However, there was no difference between young individuals and those with chronic LBP. Thus, as this study contains uncontrolled confounders, there are no quality studies evaluating videofluoroscopy for the evaluation of acute, subacute, or chronic LBP or radicular pain syndromes. The added expense of videofluoroscopy has not been shown to positively influence patient management. It is not invasive, has little potential for adverse effects, but is costly. It involves considerable radiation exposure. The clinical relevance of instability demonstrated via videofluoroscopy has not been established."
    },
    {
      "source": "mtus",
      "diagnosis": {
        "index-name": "evaluating-chronic-low-back-pain",
        "label-name": "Evaluating Chronic Low Back Pain"
      },
      "recommendation": "deny",
      "questions": [],
      "mtus-text": "Not Recommended. Videofluoroscopy is not recommended for the assessment of acute, subacute, or chronic low back pain.\n\nStrength of Evidence – Not Recommended, Insufficient Evidence (I)\n\nLevel of Confidence – Moderate\n\nRationale for Recommendation - There are no studies demonstrating improved clinical outcomes attributable to videofluoroscopy. There are no validated criteria for the utilization of videofluoroscopy to evaluate lumbar spine conditions. Other diagnostic tests have been shown to be effective in the evaluation of acute, subacute, and chronic LBP. One pilot study of videofluoroscopy suggested some differences between young healthy individuals and older individuals with spondylolisthesis.(455) However, there was no difference between young individuals and those with chronic LBP. Thus, as this study contains uncontrolled confounders, there are no quality studies evaluating videofluoroscopy for the evaluation of acute, subacute, or chronic LBP or radicular pain syndromes. The added expense of videofluoroscopy has not been shown to positively influence patient management. It is not invasive, has little potential for adverse effects, but is costly. It involves considerable radiation exposure. The clinical relevance of instability demonstrated via videofluoroscopy has not been established."
    },
    {
      "source": "mtus",
      "diagnosis": {
        "index-name": "assessment-of-acute-low-back-pain",
        "label-name": "Assessment of Acute Low Back Pain"
      },
      "recommendation": "deny",
      "questions": [],
      "mtus-text": "Not Recommended. Videofluoroscopy is not recommended for the assessment of acute, subacute, or chronic low back pain.\n\nStrength of Evidence – Not Recommended, Insufficient Evidence (I)\n\nLevel of Confidence – Moderate\n\nRationale for Recommendation - There are no studies demonstrating improved clinical outcomes attributable to videofluoroscopy. There are no validated criteria for the utilization of videofluoroscopy to evaluate lumbar spine conditions. Other diagnostic tests have been shown to be effective in the evaluation of acute, subacute, and chronic LBP. One pilot study of videofluoroscopy suggested some differences between young healthy individuals and older individuals with spondylolisthesis.(455) However, there was no difference between young individuals and those with chronic LBP. Thus, as this study contains uncontrolled confounders, there are no quality studies evaluating videofluoroscopy for the evaluation of acute, subacute, or chronic LBP or radicular pain syndromes. The added expense of videofluoroscopy has not been shown to positively influence patient management. It is not invasive, has little potential for adverse effects, but is costly. It involves considerable radiation exposure. The clinical relevance of instability demonstrated via videofluoroscopy has not been established."
    },
    {
      "source": "mtus",
      "diagnosis": {
        "index-name": "assessment-of-subacute-low-back-pain",
        "label-name": "Assessment of Subacute Low Back Pain"
      },
      "recommendation": "deny",
      "questions": [],
      "mtus-text": "Not Recommended. Videofluoroscopy is not recommended for the assessment of acute, subacute, or chronic low back pain.\n\nStrength of Evidence – Not Recommended, Insufficient Evidence (I)\n\nLevel of Confidence – Moderate\n\nRationale for Recommendation - There are no studies demonstrating improved clinical outcomes attributable to videofluoroscopy. There are no validated criteria for the utilization of videofluoroscopy to evaluate lumbar spine conditions. Other diagnostic tests have been shown to be effective in the evaluation of acute, subacute, and chronic LBP. One pilot study of videofluoroscopy suggested some differences between young healthy individuals and older individuals with spondylolisthesis.(455) However, there was no difference between young individuals and those with chronic LBP. Thus, as this study contains uncontrolled confounders, there are no quality studies evaluating videofluoroscopy for the evaluation of acute, subacute, or chronic LBP or radicular pain syndromes. The added expense of videofluoroscopy has not been shown to positively influence patient management. It is not invasive, has little potential for adverse effects, but is costly. It involves considerable radiation exposure. The clinical relevance of instability demonstrated via videofluoroscopy has not been established."
    },
    {
      "source": "mtus",
      "diagnosis": {
        "index-name": "assessment-of-chronic-low-back-pain",
        "label-name": "Assessment of Chronic Low Back Pain"
      },
      "recommendation": "deny",
      "questions": [],
      "mtus-text": "Not Recommended. Videofluoroscopy is not recommended for the assessment of acute, subacute, or chronic low back pain.\n\nStrength of Evidence – Not Recommended, Insufficient Evidence (I)\n\nLevel of Confidence – Moderate\n\nRationale for Recommendation - There are no studies demonstrating improved clinical outcomes attributable to videofluoroscopy. There are no validated criteria for the utilization of videofluoroscopy to evaluate lumbar spine conditions. Other diagnostic tests have been shown to be effective in the evaluation of acute, subacute, and chronic LBP. One pilot study of videofluoroscopy suggested some differences between young healthy individuals and older individuals with spondylolisthesis.(455) However, there was no difference between young individuals and those with chronic LBP. Thus, as this study contains uncontrolled confounders, there are no quality studies evaluating videofluoroscopy for the evaluation of acute, subacute, or chronic LBP or radicular pain syndromes. The added expense of videofluoroscopy has not been shown to positively influence patient management. It is not invasive, has little potential for adverse effects, but is costly. It involves considerable radiation exposure. The clinical relevance of instability demonstrated via videofluoroscopy has not been established."
    }
  ],
  "references": {
    "mtus-link": "https://app.mdguidelines.com/acoem-section/state-guidelines%2Fca-mtus%2Flow-back-disorders-november-2021%2Frecommendations%2Flow-back-pain-radicular-pain%2Fdiagnostic-recommendations%2Ffluoroscopy",
    "odg-link": ""
  }
}