{
  "treatment": {
    "index-name": "surgical-management",
    "label-name": "Surgical Management",
    "treatment-type": "surgery"
  },
  "body-system": {
    "index-name": "ankle-and-foot-disorders",
    "label-name": "Ankle and Foot Disorders"
  },
  "version": {
    "mtus": "04/18/19",
    "odg": "",
    "policy-doc": "01/28/23",
    "created-by": "Cade",
    "comments": ""
  },
  "policies": [
    {
      "source": "mtus",
      "diagnosis": {
        "index-name": "recurrent-acute-paronychia",
        "label-name": "Recurrent Acute Paronychia"
      },
      "recommendation": "approve",
      "questions": [],
      "mtus-text": "Recurrent acute paronychias are thought to be recurrences of the same problems.  These are often treated with surgery, especially en bloc excision of the proximal nail fold and eponychial marsupialization, with or without nail plate removal. (Grover 06)  As there are no quality studies, this surgical management is Recommended, Insufficient Evidence (I)"
    },
    {
      "source": "mtus",
      "diagnosis": {
        "index-name": "chronic-paronychia",
        "label-name": "Chronic Paronychia"
      },
      "recommendation": "1",
      "questions": [
        {
          "#": "1",
          "question": "Has the patient failed non-operative measures, particularly including attempts to manage with glucocorticoids and anti-fungal(s)?",
          "option-list": [
            {
              "option": "yes",
              "action": "approve"
            },
            {
              "option": "no",
              "action": "deny"
            }
          ]
        }
      ],
      "mtus-text": "Consideration of surgical management is Recommended, Insufficient Evidence (I), Level of Confidence – Low, but only for those who fail non-operative measures, particularly including attempts to manage with glucocorticoids and anti-fungal(s). Surgical interventions include en bloc excision of the proximal nail fold and eponychial marsupialization, with or without nail plate removal. (Grover 06)"
    }
  ],
  "references": {
    "mtus-link": "https://app.mdguidelines.com/acoem-section/acoem%2Fdisorders%2Fankle-and-foot-disorders%2Fdiagnostic-and-treatment-recommendations%2Fparonychia",
    "odg-link": ""
  }
}