{
  "treatment": {
    "index-name": "arthroplasty",
    "label-name": "Arthroplasty",
    "treatment-type": "surgery"
  },
  "body-system": {
    "index-name": "hip-and-groin-disorders",
    "label-name": "Hip and Groin Disorders"
  },
  "version": {
    "mtus": "10/07/19",
    "odg": "",
    "policy-doc": "01/13/23",
    "created-by": "Cade",
    "comments": ""
  },
  "policies": [
    {
      "source": "mtus",
      "diagnosis": {
        "index-name": "hip-fracture",
        "label-name": "Hip Fracture"
      },
      "recommendation": "approve",
      "questions": [],
      "mtus-text": "Strongly Recommended.\n\nSurgical Considerations\n\nArthroplasty is strongly recommended for older patients especially with displaced femoral neck and subcapital fractures.\n\nStrength of Evidence – Strongly Recommended, Evidence (A)\n\nLevel of Confidence – High\n\nIndications:    Hip fractures, especially displaced femoral neck and subcapital fractures.\n\nBenefits:    Faster recovery and lower complication rates for select fractures\n\nHarms:   Perioperative infections, venous thromboembolisms, pneumonia\n\nRationale:     There are several quality studies evaluating arthroplasty and hemiarthroplasty results compared with internal fixation for treatment of displaced fractures. Three evaluated displaced intracapsular fractures [1506, 1562, 1563], one evaluated unstable intertrochanteric fractures [1564], two were of displaced femoral neck fractures [1565, 1566], and another two were of displaced subcapital fractures [1562, 1567, 1568]. Nearly all of these studies suggest arthroplasty or hemiarthroplasty result in superior outcomes including lower complication rates, lower reoperation rates, lower pain ratings, and/or superior ambulatory function at 6 to 24 months. One of the studies concerned younger patients with displaced intracapsular fractures and found total hip arthroplasty resulted in better outcomes [1563]. In contrast, a Cochrane review of arthroplasty for hip fractures concluded there was insufficient evidence of superiority of arthroplasty to internal fixation [1569]. Regardless, the quality evidence is in favor of arthroplasty or hemiarthroplasty for treatment of displaced femoral neck, displaced intracapsular and displaced subcapital fractures in the older patient is strongly recommended (see arthroplasties) as a preferred treatment option. In the young patient, it is desirable to save the femoral head, so internal fixation should be strongly considered."
    }
  ],
  "references": {
    "mtus-link": "https://app.mdguidelines.com/acoem-section/state-guidelines%2Fca-mtus%2Fhip-and-groin-disorders%2Fhip-fractures%2Ftreatment-recommendations%2Fsurgical-considerations",
    "odg-link": ""
  }
}