{
  "treatment": {
    "index-name": "osteotomy",
    "label-name": "Osteotomy",
    "treatment-type": "surgery"
  },
  "body-system": {
    "index-name": "hip-and-groin-disorders",
    "label-name": "Hip and Groin Disorders"
  },
  "version": {
    "mtus": "10/07/19",
    "odg": "",
    "policy-doc": "01/17/23",
    "created-by": "Cade",
    "comments": ""
  },
  "policies": [
    {
      "source": "mtus",
      "diagnosis": {
        "index-name": "hip-osteoarthrosis-and/or-other-conditions",
        "label-name": "Hip Osteoarthrosis and/or other Conditions"
      },
      "recommendation": "1",
      "questions": [
        {
          "#": "1",
          "question": "Does the patient have significant alignment abnormalities, dysplasia, Perthes, osteonecrosis, nonunion of femoral neck fracture, slipped capital femoral epiphyses, and/or cox vara? (Generally performed on younger patients in preference to arthroplasty).",
          "option-list": [
            {
              "option": "yes",
              "action": "approve"
            },
            {
              "option": "no",
              "action": "deny"
            }
          ]
        }
      ],
      "mtus-text": "Recommended.\n\nOsteotomy is recommended for the treatment of hip osteoarthrosis.\n\nStrength of Evidence – Recommended, Insufficient Evidence (I)\n\nLevel of Confidence – Low\n\nIndications:   Generally performed in those with hip deformities and significant functional impairments. Indications include significant alignment abnormalities, dysplasia, Perthes, osteonecrosis, nonunion of femoral neck fracture, slipped capital femoral epiphyses, and cox vara. Generally performed on younger patients in preference to arthroplasty.\n\nBenefits:   Improved function, pain and reduced or delayed need for arthroplasty. For fracture non-unions, usually results in healing.\n\nHarms:   Infrequent complications include infections, venous thromboses, nerve damage, and fat emboli.\n\nRationale:   There are no quality trials of hip osteotomy compared with either arthroplasty or non-operative management. There is history of success with hip osteotomy procedures [1103-1106]. Osteotomy is invasive, has adverse effects, is high cost, has no quality evidence of efficacy, yet without another proven treatment for many of these advanced conditions, is selectively recommended."
    }
  ],
  "references": {
    "mtus-link": "https://app.mdguidelines.com/acoem-section/state-guidelines%2Fca-mtus%2Fhip-and-groin-disorders%2Fhip-osteoarthrosis%2Ftreatment-recommendations%2Fsurgical-considerations",
    "odg-link": ""
  }
}