{
  "treatment": {
    "index-name": "ace-wraps",
    "label-name": "Ace Wraps",
    "treatment-type": "other"
  },
  "body-system": {
    "index-name": "elbow-disorders",
    "label-name": "Elbow Disorders"
  },
  "version": {
    "mtus": "04/18/19",
    "odg": "",
    "policy-doc": "01/31/23",
    "created-by": "Cade",
    "comments": ""
  },
  "policies": [
    {
      "source": "mtus",
      "diagnosis": {
        "index-name": "olecranon-bursitis",
        "label-name": "Olecranon Bursitis"
      },
      "recommendation": "approve",
      "questions": [],
      "mtus-text": "Recommended. Soft padding of the elbow, soft elbow supports, and ace wraps are recommended for olecranon bursitis.\n\nStrength of Evidence – Recommended, Insufficient Evidence (I)\n\nRationale: There are no quality trials evaluating these modifications for treatment of olecranon bursitis. Most patients appear to resolve with non-invasive options. Soft padding, soft elbow supports, and ace wraps are not invasive, have few adverse effects, are low cost, and are recommended."
    }
  ],
  "references": {
    "mtus-link": "https://app.mdguidelines.com/acoem-section/state-guidelines%2Fca-mtus%2Felbow-disorders%2Fdiagnosis-and-treatment-recommendations%2Folecranon-bursitis%2Ftreatment-recommendations",
    "odg-link": ""
  }
}