{
  "treatment": {
    "index-name": "acupuncture",
    "label-name": "Acupuncture",
    "treatment-type": "other"
  },
  "body-system": {
    "index-name": "elbow-disorders",
    "label-name": "Elbow Disorders"
  },
  "version": {
    "mtus": "04/18/19",
    "odg": "",
    "policy-doc": "01/31/23",
    "created-by": "Cade",
    "comments": ""
  },
  "policies": [
    {
      "source": "mtus",
      "diagnosis": {
        "index-name": "acute-pronator-syndrome",
        "label-name": "Acute Pronator Syndrome"
      },
      "recommendation": "no_recommendation",
      "questions": [],
      "mtus-text": "No Recommendation.\n\nStrength of Evidence – No Recommendation, Insufficient Evidence (I)"
    },
    {
      "source": "mtus",
      "diagnosis": {
        "index-name": "subacute-pronator-syndrome",
        "label-name": "Subacute Pronator Syndrome"
      },
      "recommendation": "no_recommendation",
      "questions": [],
      "mtus-text": "No Recommendation.\n\nStrength of Evidence – No Recommendation, Insufficient Evidence (I)"
    },
    {
      "source": "mtus",
      "diagnosis": {
        "index-name": "chronic-pronator-syndrome",
        "label-name": "Chronic Pronator Syndrome"
      },
      "recommendation": "no_recommendation",
      "questions": [],
      "mtus-text": "No Recommendation.\n\nStrength of Evidence – No Recommendation, Insufficient Evidence (I)"
    },
    {
      "source": "mtus",
      "diagnosis": {
        "index-name": "acute-radial-nerve-entrapment-(including-radial-tunnel-syndrome)",
        "label-name": "Acute Radial Nerve Entrapment (Including Radial Tunnel Syndrome)"
      },
      "recommendation": "no_recommendation",
      "questions": [],
      "mtus-text": "No Recommendation.\n\nStrength of Evidence – No Recommendation, Insufficient Evidence (I)"
    },
    {
      "source": "mtus",
      "diagnosis": {
        "index-name": "subacute-radial-nerve-entrapment-(including-radial-tunnel-syndrome)",
        "label-name": "Subacute Radial Nerve Entrapment (Including Radial Tunnel Syndrome)"
      },
      "recommendation": "no_recommendation",
      "questions": [],
      "mtus-text": "No Recommendation.\n\nStrength of Evidence – No Recommendation, Insufficient Evidence (I)"
    },
    {
      "source": "mtus",
      "diagnosis": {
        "index-name": "chronic-radial-nerve-entrapment-(including-radial-tunnel-syndrome)",
        "label-name": "Chronic Radial Nerve Entrapment (Including Radial Tunnel Syndrome)"
      },
      "recommendation": "no_recommendation",
      "questions": [],
      "mtus-text": "No Recommendation.\n\nStrength of Evidence – No Recommendation, Insufficient Evidence (I)"
    },
    {
      "source": "mtus",
      "diagnosis": {
        "index-name": "acute-ulnar-neuropathies-at-the-elbow",
        "label-name": "Acute Ulnar Neuropathies at the Elbow"
      },
      "recommendation": "no_recommendation",
      "questions": [],
      "mtus-text": "No Recommendation. There is no recommendation for or against the use of acupuncture, biofeedback, manipulation and mobilization, massage, soft tissue massage, iontophoresis, and phonophoresis for the treatment of acute, subacute, or chronic ulnar neuropathies at the elbow.\n\nStrength of Evidence – No Recommendation, Insufficient Evidence (I)\n\nRationale: There are no quality studies evaluating the use of these treatments for ulnar neuropathies at the elbow and therefore, there is no recommendation for or against use of these treatments."
    },
    {
      "source": "mtus",
      "diagnosis": {
        "index-name": "subacute-ulnar-neuropathies-at-the-elbow",
        "label-name": "Subacute Ulnar Neuropathies at the Elbow"
      },
      "recommendation": "no_recommendation",
      "questions": [],
      "mtus-text": "No Recommendation. There is no recommendation for or against the use of acupuncture, biofeedback, manipulation and mobilization, massage, soft tissue massage, iontophoresis, and phonophoresis for the treatment of acute, subacute, or chronic ulnar neuropathies at the elbow.\n\nStrength of Evidence – No Recommendation, Insufficient Evidence (I)\n\nRationale: There are no quality studies evaluating the use of these treatments for ulnar neuropathies at the elbow and therefore, there is no recommendation for or against use of these treatments."
    },
    {
      "source": "mtus",
      "diagnosis": {
        "index-name": "chronic-ulnar-neuropathies-at-the-elbow",
        "label-name": "Chronic Ulnar Neuropathies at the Elbow"
      },
      "recommendation": "no_recommendation",
      "questions": [],
      "mtus-text": "No Recommendation. There is no recommendation for or against the use of acupuncture, biofeedback, manipulation and mobilization, massage, soft tissue massage, iontophoresis, and phonophoresis for the treatment of acute, subacute, or chronic ulnar neuropathies at the elbow.\n\nStrength of Evidence – No Recommendation, Insufficient Evidence (I)\n\nRationale: There are no quality studies evaluating the use of these treatments for ulnar neuropathies at the elbow and therefore, there is no recommendation for or against use of these treatments."
    },
    {
      "source": "mtus",
      "diagnosis": {
        "index-name": "acute-lateral-epicondylalgia",
        "label-name": "Acute Lateral Epicondylalgia"
      },
      "recommendation": "no_recommendation",
      "questions": [],
      "mtus-text": "No Recommendation. There is no recommendation for or against the use of acupuncture for the treatment of acute, subacute, or post-operative lateral epicondylalgia.\n\nStrength of Evidence – No Recommendation, Insufficient Evidence (I)\n\nRationale: There are multiple moderate-quality trials of acupuncture for treatment of lateral epicondylalgia. There are 3 moderate-quality trials with 4 reports that attempted sham treatment. Two of those are potentially usable for purposes of developing guidance. One suggested potential modest short term benefit(305, 306) and the other suggest benefit of deep needle insertion compared with superficial needle insertion.(312) Another trial suggested comparable efficacy to ultrasound.(308) Thus, the overall quality of the literature is relatively weak, results are somewhat inconsistent. On average, they appear to suggest a modest, relatively short term benefit in mostly chronic patients. Acupuncture is minimally invasive, has few adverse effects in the extremities, and is moderately costly over several treatments. It is recommended for select patients with chronic epicondylalgia unresponsive to several other treatments."
    },
    {
      "source": "mtus",
      "diagnosis": {
        "index-name": "subacute-lateral-epicondylalgia",
        "label-name": "Subacute Lateral Epicondylalgia"
      },
      "recommendation": "no_recommendation",
      "questions": [],
      "mtus-text": "No Recommendation. There is no recommendation for or against the use of acupuncture for the treatment of acute, subacute, or post-operative lateral epicondylalgia.\n\nStrength of Evidence – No Recommendation, Insufficient Evidence (I)\n\nRationale: There are multiple moderate-quality trials of acupuncture for treatment of lateral epicondylalgia. There are 3 moderate-quality trials with 4 reports that attempted sham treatment. Two of those are potentially usable for purposes of developing guidance. One suggested potential modest short term benefit(305, 306) and the other suggest benefit of deep needle insertion compared with superficial needle insertion.(312) Another trial suggested comparable efficacy to ultrasound.(308) Thus, the overall quality of the literature is relatively weak, results are somewhat inconsistent. On average, they appear to suggest a modest, relatively short term benefit in mostly chronic patients. Acupuncture is minimally invasive, has few adverse effects in the extremities, and is moderately costly over several treatments. It is recommended for select patients with chronic epicondylalgia unresponsive to several other treatments."
    },
    {
      "source": "mtus",
      "diagnosis": {
        "index-name": "chronic-lateral-epicondylalgia",
        "label-name": "Chronic Lateral Epicondylalgia"
      },
      "recommendation": "1",
      "questions": [
        {
          "#": "1",
          "question": "Is the patient  generally moderately to severely affected?",
          "option-list": [
            {
              "option": "yes",
              "action": "2"
            },
            {
              "option": "no",
              "action": "no_recommendation"
            }
          ]
        },
        {
          "#": "2",
          "question": "Has the patient failed to sufficiently respond to treatment with NSAIDs (oral and/or topical), exercise, and/or failed other treatments (e.g., insufficient pain relief with elbow straps and activity modification)? Glucocorticosteroid injections are also reasonable intervention(s) to attempt before acupuncture.",
          "option-list": [
            {
              "option": "yes",
              "action": "approve"
            },
            {
              "option": "no",
              "action": "deny"
            }
          ]
        }
      ],
      "mtus-text": "Recommended. Acupuncture is recommended for the treatment of select patients with chronic lateral epicondylalgia.\n\nStrength of Evidence – Recommended, Insufficient Evidence (I)\n\nIndications: Chronic epicondylalgia patients; patients who fail to sufficiently respond to treatment with NSAIDs (oral and/or topical), exercise, or patients who fail other treatments (e.g., insufficient pain relief with elbow straps and activity modification) may be ideal candidates. Glucocorticosteroid injections are also reasonable intervention(s) to attempt before acupuncture. Generally moderately to severely affected patients are thought to be better candidates. Overall benefits of acupuncture appear modest and efficacy appears to be transient, disappearing after a few weeks.                           \n\nFrequency/Dose/Duration: Various regimens have been utilized in the quality studies. The sites used were LI 4, 10, 11; L5, SJ5, Ah-Shi over muscle origin of lateral extensor group(308) and the second used LI 4, 10, 11, 12, TW5.(305, 306) Both manually stimulated needles (de qi) placed for 15 to 20 minutes. Regimens were 2 to 3 treatments a week for 8 to 10 treatments.(305, 306, 308) Patients should demonstrate benefit after 4 to 5 appointments otherwise either the technique should be altered or acupuncture discontinued. The two trials showing the most benefit utilized 10 to 12 treatments (1.0MHz, 1-2W/cm2 for 5 to 10 minutes a session) over 4 to 6 weeks.(112, 247) There are no comparative trials for different regimens.\n\nIndications for Discontinuation: Resolution of pain, intolerance, lack of efficacy, or non-compliance."
    }
  ],
  "references": {
    "mtus-link": "https://app.mdguidelines.com/acoem-section/state-guidelines%2Fca-mtus%2Felbow-disorders%2Fdiagnosis-and-treatment-recommendations%2Fpronator-syndrome%2Ftreatment-recommendations , https://app.mdguidelines.com/acoem-section/state-guidelines%2Fca-mtus%2Felbow-disorders%2Fdiagnosis-and-treatment-recommendations%2Fradial-nerve-entrapment%2Ftreatment-recommendations , https://app.mdguidelines.com/acoem-section/state-guidelines%2Fca-mtus%2Felbow-disorders%2Fdiagnosis-and-treatment-recommendations%2Fulnar-neuropathy-at-the-elbow%2Ftreatment-recommendations , https://app.mdguidelines.com/acoem-section/state-guidelines%2Fca-mtus%2Felbow-disorders%2Fdiagnosis-and-treatment-recommendations%2Flateral-epicondylalgia%2Ftreatment-recommendations",
    "odg-link": ""
  }
}