{
  "treatment": {
    "index-name": "botulinum-injections",
    "label-name": "Botulinum Injections",
    "treatment-type": "other"
  },
  "body-system": {
    "index-name": "elbow-disorders",
    "label-name": "Elbow Disorders"
  },
  "version": {
    "mtus": "04/18/19",
    "odg": "",
    "policy-doc": "02/02/23",
    "created-by": "Cade",
    "comments": ""
  },
  "policies": [
    {
      "source": "mtus",
      "diagnosis": {
        "index-name": "acute-lateral-epicondylalgia",
        "label-name": "Acute Lateral Epicondylalgia"
      },
      "recommendation": "deny",
      "questions": [],
      "mtus-text": "Not Recommended. Botulinum injections are not recommended for the treatment of acute, subacute, or chronic lateral epicondylalgia.\n\nStrength of Evidence – Not Recommended, Insufficient Evidence (I)\n\nRationale: There are 4 high-quality trials comparing botulinum injections with placebo. Three of the studies suggest short to intermediate term benefits(334, 335, 337) (Espandar 10) and one does not (333) (Hayton 05) while one moderate-quality trial suggested superiority of glucocorticosteroid injections.(336) (Lin 10) Additionally, no quality studies with longer term follow-ups are available. Botulinum injections are invasive and there are reports of fatalities as well as muscle weakness,(334-337) (Placzek 07; Wong 05; Espandar 10; Lin 10) thus this intervention has major adverse effects which would appear to require considerable evidence of longer term efficacy to warrant. Thus, these injections are not recommended."
    },
    {
      "source": "mtus",
      "diagnosis": {
        "index-name": "subacute-lateral-epicondylalgia",
        "label-name": "Subacute Lateral Epicondylalgia"
      },
      "recommendation": "deny",
      "questions": [],
      "mtus-text": "Not Recommended. Botulinum injections are not recommended for the treatment of acute, subacute, or chronic lateral epicondylalgia.\n\nStrength of Evidence – Not Recommended, Insufficient Evidence (I)\n\nRationale: There are 4 high-quality trials comparing botulinum injections with placebo. Three of the studies suggest short to intermediate term benefits(334, 335, 337) (Espandar 10) and one does not (333) (Hayton 05) while one moderate-quality trial suggested superiority of glucocorticosteroid injections.(336) (Lin 10) Additionally, no quality studies with longer term follow-ups are available. Botulinum injections are invasive and there are reports of fatalities as well as muscle weakness,(334-337) (Placzek 07; Wong 05; Espandar 10; Lin 10) thus this intervention has major adverse effects which would appear to require considerable evidence of longer term efficacy to warrant. Thus, these injections are not recommended."
    },
    {
      "source": "mtus",
      "diagnosis": {
        "index-name": "chronic-lateral-epicondylalgia",
        "label-name": "Chronic Lateral Epicondylalgia"
      },
      "recommendation": "deny",
      "questions": [],
      "mtus-text": "Not Recommended. Botulinum injections are not recommended for the treatment of acute, subacute, or chronic lateral epicondylalgia.\n\nStrength of Evidence – Not Recommended, Insufficient Evidence (I)\n\nRationale: There are 4 high-quality trials comparing botulinum injections with placebo. Three of the studies suggest short to intermediate term benefits(334, 335, 337) (Espandar 10) and one does not (333) (Hayton 05) while one moderate-quality trial suggested superiority of glucocorticosteroid injections.(336) (Lin 10) Additionally, no quality studies with longer term follow-ups are available. Botulinum injections are invasive and there are reports of fatalities as well as muscle weakness,(334-337) (Placzek 07; Wong 05; Espandar 10; Lin 10) thus this intervention has major adverse effects which would appear to require considerable evidence of longer term efficacy to warrant. Thus, these injections are not recommended."
    }
  ],
  "references": {
    "mtus-link": "https://app.mdguidelines.com/acoem-section/state-guidelines%2Fca-mtus%2Felbow-disorders%2Fdiagnosis-and-treatment-recommendations%2Flateral-epicondylalgia%2Ftreatment-recommendations",
    "odg-link": ""
  }
}