{
  "treatment": {
    "index-name": "ergonomic-interventions",
    "label-name": "Ergonomic Interventions",
    "treatment-type": "other"
  },
  "body-system": {
    "index-name": "elbow-disorders",
    "label-name": "Elbow Disorders"
  },
  "version": {
    "mtus": "04/18/19",
    "odg": "",
    "policy-doc": "02/03/23",
    "created-by": "Cade",
    "comments": ""
  },
  "policies": [
    {
      "source": "mtus",
      "diagnosis": {
        "index-name": "acute-epicondylalgia",
        "label-name": "Acute Epicondylalgia"
      },
      "recommendation": "1",
      "questions": [
        {
          "#": "1",
          "question": "Is the patient in a setting with combinations of risk factors (e.g., high force combined with high repetition)?",
          "option-list": [
            {
              "option": "yes",
              "action": "approve"
            },
            {
              "option": "no",
              "action": "deny"
            }
          ]
        }
      ],
      "mtus-text": "Recommended. In settings with combinations of risk factors (e.g., high force combined with high repetition), ergonomic interventions are recommended to reduce risk factors for epicondylalgia.\n\nStrength of Evidence – Recommended, Insufficient Evidence (I)"
    },
    {
      "source": "mtus",
      "diagnosis": {
        "index-name": "subacute-epicondylalgia",
        "label-name": "Subacute Epicondylalgia"
      },
      "recommendation": "1",
      "questions": [
        {
          "#": "1",
          "question": "Is the patient in a setting with combinations of risk factors (e.g., high force combined with high repetition)?",
          "option-list": [
            {
              "option": "yes",
              "action": "approve"
            },
            {
              "option": "no",
              "action": "deny"
            }
          ]
        }
      ],
      "mtus-text": "Recommended. In settings with combinations of risk factors (e.g., high force combined with high repetition), ergonomic interventions are recommended to reduce risk factors for epicondylalgia.\n\nStrength of Evidence – Recommended, Insufficient Evidence (I)"
    },
    {
      "source": "mtus",
      "diagnosis": {
        "index-name": "chronic-epicondylalgia",
        "label-name": "Chronic Epicondylalgia"
      },
      "recommendation": "1",
      "questions": [
        {
          "#": "1",
          "question": "Is the patient in a setting with combinations of risk factors (e.g., high force combined with high repetition)?",
          "option-list": [
            {
              "option": "yes",
              "action": "approve"
            },
            {
              "option": "no",
              "action": "deny"
            }
          ]
        }
      ],
      "mtus-text": "Recommended. In settings with combinations of risk factors (e.g., high force combined with high repetition), ergonomic interventions are recommended to reduce risk factors for epicondylalgia.\n\nStrength of Evidence – Recommended, Insufficient Evidence (I)"
    },
    {
      "source": "mtus",
      "diagnosis": {
        "index-name": "acute-ulnar-neuropathies-at-the-elbow",
        "label-name": "Acute Ulnar Neuropathies at the Elbow"
      },
      "recommendation": "1",
      "questions": [
        {
          "#": "1",
          "question": "Is the patient having sustained or repeated hyperflexion of the elbow (> 90 degrees)?",
          "option-list": [
            {
              "option": "yes",
              "action": "approve"
            },
            {
              "option": "no",
              "action": "deny"
            }
          ]
        }
      ],
      "mtus-text": "Recommended. In settings with sustained or repeated hyperflexion of the elbow (> 90 degrees), ergonomic interventions are recommended to reduce elbow flexion.\n\nStrength of Evidence – Recommended, Insufficient Evidence (I)"
    },
    {
      "source": "mtus",
      "diagnosis": {
        "index-name": "subacute-ulnar-neuropathies-at-the-elbow",
        "label-name": "Subacute Ulnar Neuropathies at the Elbow"
      },
      "recommendation": "1",
      "questions": [
        {
          "#": "1",
          "question": "Is the patient having sustained or repeated hyperflexion of the elbow (> 90 degrees)?",
          "option-list": [
            {
              "option": "yes",
              "action": "approve"
            },
            {
              "option": "no",
              "action": "deny"
            }
          ]
        }
      ],
      "mtus-text": "Recommended. In settings with sustained or repeated hyperflexion of the elbow (> 90 degrees), ergonomic interventions are recommended to reduce elbow flexion.\n\nStrength of Evidence – Recommended, Insufficient Evidence (I)"
    },
    {
      "source": "mtus",
      "diagnosis": {
        "index-name": "chronic-ulnar-neuropathies-at-the-elbow",
        "label-name": "Chronic Ulnar Neuropathies at the Elbow"
      },
      "recommendation": "1",
      "questions": [
        {
          "#": "1",
          "question": "Is the patient having sustained or repeated hyperflexion of the elbow (> 90 degrees)?",
          "option-list": [
            {
              "option": "yes",
              "action": "approve"
            },
            {
              "option": "no",
              "action": "deny"
            }
          ]
        }
      ],
      "mtus-text": "Recommended. In settings with sustained or repeated hyperflexion of the elbow (> 90 degrees), ergonomic interventions are recommended to reduce elbow flexion.\n\nStrength of Evidence – Recommended, Insufficient Evidence (I)"
    }
  ],
  "references": {
    "mtus-link": "https://app.mdguidelines.com/acoem-section/state-guidelines%2Fca-mtus%2Felbow-disorders%2Fdiagnosis-and-treatment-recommendations%2Flateral-epicondylalgia%2Ftreatment-recommendations , https://app.mdguidelines.com/acoem-section/state-guidelines%2Fca-mtus%2Felbow-disorders%2Fdiagnosis-and-treatment-recommendations%2Fulnar-neuropathy-at-the-elbow%2Ftreatment-recommendations",
    "odg-link": ""
  }
}