{
  "treatment": {
    "index-name": "general-anesthesia",
    "label-name": "General Anesthesia",
    "treatment-type": "other"
  },
  "body-system": {
    "index-name": "elbow-disorders",
    "label-name": "Elbow Disorders"
  },
  "version": {
    "mtus": "04/18/19",
    "odg": "",
    "policy-doc": "02/01/23",
    "created-by": "Cade",
    "comments": ""
  },
  "policies": [
    {
      "source": "mtus",
      "diagnosis": {
        "index-name": "dislocated-elbow",
        "label-name": "Dislocated Elbow"
      },
      "recommendation": "approve",
      "questions": [],
      "mtus-text": "Some patients require general anesthesia to facilitate reduction of a dislocated elbow. Surgery may also be required to repair ligaments if there is either sufficient laxity that recurrent dislocations occur or are otherwise unstable."
    }
  ],
  "references": {
    "mtus-link": "https://app.mdguidelines.com/acoem-section/state-guidelines%2Fca-mtus%2Felbow-disorders%2Fdiagnosis-and-treatment-recommendations%2Felbow-dislocation%2Ftreatment-recommendations",
    "odg-link": ""
  }
}