{
  "treatment": {
    "index-name": "immobilization",
    "label-name": "Immobilization",
    "treatment-type": "other"
  },
  "body-system": {
    "index-name": "elbow-disorders",
    "label-name": "Elbow Disorders"
  },
  "version": {
    "mtus": "04/18/19",
    "odg": "",
    "policy-doc": "02/02/23",
    "created-by": "Cade",
    "comments": ""
  },
  "policies": [
    {
      "source": "mtus",
      "diagnosis": {
        "index-name": "elbow-contusion",
        "label-name": "Elbow Contusion"
      },
      "recommendation": "deny",
      "questions": [],
      "mtus-text": "Not Recommended. Immobilization is not recommended for elbow contusions.\n\nStrength of Evidence – Not Recommended, Insufficient Evidence (I)                             \n\nRationale: There are no quality studies for any of these interventions. Medical management of contusions is recommended to be directed at maintaining normal elbow function. With significant contusion-related injury, there is a risk of deep tissue involvement, potentially leading to scarring and limitation of motion. Accordingly, treatment should include anti-inflammatory medications with avoidance of immobilization except as necessitated by other injuries. Anti-inflammatory medications serve as an analgesic in the doses that are used for contusions. Early mobilization should also be encouraged to prevent impairment and disability and can be best accomplished through instruction in the initial clinical visit. Medical management can be summarized as protection, rest, ice, compression, elevation, and range-of-motion exercises. Range-of-motion exercises should primarily involve the elbow, but may also include the shoulder and wrist, particularly if a sling is prescribed. They are all thought to be helpful, are not invasive, have low adverse effects especially for short-term use and are low cost and thus are recommended."
    }
  ],
  "references": {
    "mtus-link": "https://app.mdguidelines.com/acoem-section/state-guidelines%2Fca-mtus%2Felbow-disorders%2Fdiagnosis-and-treatment-recommendations%2Felbow-contusion%2Ftreatment-recommendations",
    "odg-link": ""
  }
}