{
  "treatment": {
    "index-name": "non-specific-inflammatory-markers-(c-reactive-protein,-erythrocyte-sedimentation-rate,-etc.)",
    "label-name": "Non-Specific Inflammatory Markers (C-reactive protein, erythrocyte sedimentation rate, etc.)",
    "treatment-type": "other"
  },
  "body-system": {
    "index-name": "elbow-disorders",
    "label-name": "Elbow Disorders"
  },
  "version": {
    "mtus": "04/18/19",
    "odg": "",
    "policy-doc": "02/02/23",
    "created-by": "Cade",
    "comments": ""
  },
  "policies": [
    {
      "source": "mtus",
      "diagnosis": {
        "index-name": "subacute-elbow-pain",
        "label-name": "Subacute Elbow Pain"
      },
      "recommendation": "1",
      "questions": [
        {
          "#": "1",
          "question": "Is there suspicion of rheumatological disorder?",
          "option-list": [
            {
              "option": "yes",
              "action": "2"
            },
            {
              "option": "no",
              "action": "deny"
            }
          ]
        },
        {
          "#": "2",
          "question": "Will there be a large, diverse array of anti-inflammatory markers without targeting a few specific disorders diagnostically?",
          "option-list": [
            {
              "option": "yes",
              "action": "deny"
            },
            {
              "option": "no",
              "action": "approve"
            }
          ]
        }
      ],
      "mtus-text": "Recommended. Erythrocyte sedimentation rate and other inflammatory markers are recommended for screening for inflammatory disorders or prosthetic sepsis with reasonable suspicion of inflammatory disorder in patients with subacute or chronic elbow pain.\n\nStrength of Evidence – Recommended, Insufficient Evidence (I)\n\nIndications: Patients with elbow pain with suspicion of rheumatological disorder.\n\nRationale: Erythrocyte sedimentation rate is the most commonly used systemic marker for non-specific inflammation and is elevated in numerous inflammatory conditions including rheumatological disorders, as well as with infectious diseases. C-reactive protein is a marker of systemic inflammation that has been associated with an increased risk of coronary artery disease. However, it is also a non-specific marker for other inflammation. Other non-specific markers of inflammation include ferritin, and an elevated protein-albumin gap, which have no known clinical roles. CRP and ESR measurements are minimally invasive, have low risk of adverse effects and are low cost. They are recommended as a reasonable screen for systemic inflammatory conditions especially if the elbow pain patient also has other pains without clear definition of a diagnosis or those with fibromyalgia or myofascial pain syndrome, although the specificity is not high. However, ordering of a large, diverse array of anti-inflammatory markers without targeting a few specific disorders diagnostically is not recommended."
    },
    {
      "source": "mtus",
      "diagnosis": {
        "index-name": "chronic-elbow-pain",
        "label-name": "Chronic Elbow Pain"
      },
      "recommendation": "1",
      "questions": [
        {
          "#": "1",
          "question": "Is there suspicion of rheumatological disorder?",
          "option-list": [
            {
              "option": "yes",
              "action": "2"
            },
            {
              "option": "no",
              "action": "deny"
            }
          ]
        },
        {
          "#": "2",
          "question": "Will there be a large, diverse array of anti-inflammatory markers without targeting a few specific disorders diagnostically?",
          "option-list": [
            {
              "option": "yes",
              "action": "deny"
            },
            {
              "option": "no",
              "action": "approve"
            }
          ]
        }
      ],
      "mtus-text": "Recommended. Erythrocyte sedimentation rate and other inflammatory markers are recommended for screening for inflammatory disorders or prosthetic sepsis with reasonable suspicion of inflammatory disorder in patients with subacute or chronic elbow pain.\n\nStrength of Evidence – Recommended, Insufficient Evidence (I)\n\nIndications: Patients with elbow pain with suspicion of rheumatological disorder.\n\nRationale: Erythrocyte sedimentation rate is the most commonly used systemic marker for non-specific inflammation and is elevated in numerous inflammatory conditions including rheumatological disorders, as well as with infectious diseases. C-reactive protein is a marker of systemic inflammation that has been associated with an increased risk of coronary artery disease. However, it is also a non-specific marker for other inflammation. Other non-specific markers of inflammation include ferritin, and an elevated protein-albumin gap, which have no known clinical roles. CRP and ESR measurements are minimally invasive, have low risk of adverse effects and are low cost. They are recommended as a reasonable screen for systemic inflammatory conditions especially if the elbow pain patient also has other pains without clear definition of a diagnosis or those with fibromyalgia or myofascial pain syndrome, although the specificity is not high. However, ordering of a large, diverse array of anti-inflammatory markers without targeting a few specific disorders diagnostically is not recommended."
    }
  ],
  "references": {
    "mtus-link": "https://app.mdguidelines.com/acoem-section/state-guidelines%2Fca-mtus%2Felbow-disorders%2Fdiagnosis-and-treatment-recommendations%2Felbow-pain%2Fdiagnostic-recommendations",
    "odg-link": ""
  }
}