{
  "treatment": {
    "index-name": "platelet-rich-plasma-injections",
    "label-name": "Platelet-rich Plasma Injections",
    "treatment-type": "other"
  },
  "body-system": {
    "index-name": "elbow-disorders",
    "label-name": "Elbow Disorders"
  },
  "version": {
    "mtus": "04/18/19",
    "odg": "",
    "policy-doc": "02/02/23",
    "created-by": "Cade",
    "comments": ""
  },
  "policies": [
    {
      "source": "mtus",
      "diagnosis": {
        "index-name": "acute-lateral-epicondylalgia",
        "label-name": "Acute Lateral Epicondylalgia"
      },
      "recommendation": "no_recommendation",
      "questions": [],
      "mtus-text": "No Recommendation. There is no recommendation for or against the use of platelet-rich plasma and/or autologous blood injections for the treatment of acute or subacute lateral epicondylalgia.\n\nStrength of Evidence – No Recommendation, Insufficient Evidence (I)\n\nRationale: There is one high-quality trial that found a lack of efficacy of platelet-rich plasma (PRP) injections compared with saline over 3 months. However, its data does not extend to 12 months(328) (Krogh 13) when other data suggest the greatest benefits are manifested.(328) (Krogh 13) There are no placebo controlled trials that address autologous blood (AB) injections for epicondylalgia. One moderate-quality comparative trial suggested comparable efficacy,(346) (Creaney 11) while another trial suggested modest superiority of PRP.(345) (Thanasas 11)\n\nThere is one  high -quality trial comparing platelet-rich plasma with glucocorticosteroids (330, 331) (Peerbooms 10; Gosens 11) and suggested superiority of the PRP injection lasting at least 2 years.(330) (Gosens 11) One moderate-quality quasi-randomized trial suggested superiority of AB injections compared with glucocorticoid injections,(332)(Kazemi 10) and another moderate though lower quality trial suggested inferiority of AB to glucocorticoid injections at 4 weeks, but not over one year when AB was superior.(282) (Ozturan 10) These injections are invasive, have adverse effects, and are costly, but appear effective for select patients and are thus recommended for chronic epicondylalgia refractory to other treatments."
    },
    {
      "source": "mtus",
      "diagnosis": {
        "index-name": "subacute-lateral-epicondylalgia",
        "label-name": "Subacute Lateral Epicondylalgia"
      },
      "recommendation": "no_recommendation",
      "questions": [],
      "mtus-text": "No Recommendation. There is no recommendation for or against the use of platelet-rich plasma and/or autologous blood injections for the treatment of acute or subacute lateral epicondylalgia.\n\nStrength of Evidence – No Recommendation, Insufficient Evidence (I)\n\nRationale: There is one high-quality trial that found a lack of efficacy of platelet-rich plasma (PRP) injections compared with saline over 3 months. However, its data does not extend to 12 months(328) (Krogh 13) when other data suggest the greatest benefits are manifested.(328) (Krogh 13) There are no placebo controlled trials that address autologous blood (AB) injections for epicondylalgia. One moderate-quality comparative trial suggested comparable efficacy,(346) (Creaney 11) while another trial suggested modest superiority of PRP.(345) (Thanasas 11)\n\nThere is one  high -quality trial comparing platelet-rich plasma with glucocorticosteroids (330, 331) (Peerbooms 10; Gosens 11) and suggested superiority of the PRP injection lasting at least 2 years.(330) (Gosens 11) One moderate-quality quasi-randomized trial suggested superiority of AB injections compared with glucocorticoid injections,(332)(Kazemi 10) and another moderate though lower quality trial suggested inferiority of AB to glucocorticoid injections at 4 weeks, but not over one year when AB was superior.(282) (Ozturan 10) These injections are invasive, have adverse effects, and are costly, but appear effective for select patients and are thus recommended for chronic epicondylalgia refractory to other treatments."
    },
    {
      "source": "mtus",
      "diagnosis": {
        "index-name": "chronic-lateral-epicondylalgia",
        "label-name": "Chronic Lateral Epicondylalgia"
      },
      "recommendation": "1",
      "questions": [
        {
          "#": "1",
          "question": "Has the patient had lateral epicondylalgia lasting at least 6 months?",
          "option-list": [
            {
              "option": "yes",
              "action": "2"
            },
            {
              "option": "no",
              "action": "deny"
            }
          ]
        },
        {
          "#": "2",
          "question": "Has the patient been unresponsive or insufficiently responsive to other treatments including NSAID(s), straps, stretching and strengthening exercises, and at least one glucocorticosteroids injection?",
          "option-list": [
            {
              "option": "yes",
              "action": "approve"
            },
            {
              "option": "no",
              "action": "deny"
            }
          ]
        }
      ],
      "mtus-text": "Recommended. Platelet-rich plasma injections are recommended for the treatment of chronic lateral epicondylalgia.\n\nStrength of Evidence – Recommended, Insufficient Evidence (I)\n\nIndications: Lateral epicondylalgia lasting at least 6 months, unresponsive or insufficiently responsive to other treatments including NSAID(s), straps, stretching and strengthening exercises, and at least one glucocorticosteroids injection.(331) (Peerbooms 10)                       \n\nFrequency/Dose/Duration: Injection of approximately 3mL of platelet-rich plasma buffered with NS plus 8.4% sodium bicarbonate plus bupivacaine 0.5% with epinephrine (1:200,000) and used peppering technique.(331)"
    }
  ],
  "references": {
    "mtus-link": "https://app.mdguidelines.com/acoem-section/state-guidelines%2Fca-mtus%2Felbow-disorders%2Fdiagnosis-and-treatment-recommendations%2Flateral-epicondylalgia%2Ftreatment-recommendations",
    "odg-link": ""
  }
}