{
  "treatment": {
    "index-name": "position-of-elbows-during-sleep",
    "label-name": "Position of Elbows During Sleep",
    "treatment-type": "other"
  },
  "body-system": {
    "index-name": "elbow-disorders",
    "label-name": "Elbow Disorders"
  },
  "version": {
    "mtus": "04/18/19",
    "odg": "",
    "policy-doc": "02/01/23",
    "created-by": "Cade",
    "comments": ""
  },
  "policies": [
    {
      "source": "mtus",
      "diagnosis": {
        "index-name": "elbow-pain-and-entrapment",
        "label-name": "Elbow Pain and Entrapment"
      },
      "recommendation": "approve",
      "questions": [],
      "mtus-text": "Recommended. It is recommended that patients be taught to sleep with their elbows extended, rather than flexed.\n\nStrength of Evidence – Recommended, Insufficient Evidence (I)"
    }
  ],
  "references": {
    "mtus-link": "https://app.mdguidelines.com/acoem-section/state-guidelines%2Fca-mtus%2Felbow-disorders%2Fdiagnosis-and-treatment-recommendations%2Fulnar-neuropathy-at-the-elbow%2Ftreatment-recommendations",
    "odg-link": ""
  }
}