{
  "treatment": {
    "index-name": "transcutaneous-electrical-nerve-stimulation-(tens)",
    "label-name": "Transcutaneous Electrical Nerve Stimulation (TENS)",
    "treatment-type": "other"
  },
  "body-system": {
    "index-name": "elbow-disorders",
    "label-name": "Elbow Disorders"
  },
  "version": {
    "mtus": "04/18/19",
    "odg": "",
    "policy-doc": "02/02/23",
    "created-by": "Cade",
    "comments": ""
  },
  "policies": [
    {
      "source": "mtus",
      "diagnosis": {
        "index-name": "acute-lateral-epicondylalgia",
        "label-name": "Acute Lateral Epicondylalgia"
      },
      "recommendation": "no_recommendation",
      "questions": [],
      "mtus-text": "No Recommendation. There is no recommendation for or against the use of biofeedback, transcutaneous electrical nerve stimulation (TENS), electrical nerve stimulation, or diathermy for the treatment of acute, subacute, or chronic lateral epicondylalgia.\n\nStrength of Evidence – No Recommendation, Insufficient Evidence (I)\n\nRationale: There is one high-quality trial of an electrical stimulation device, however it had a small sample size, used an electrical current not usually used in devices, and contained sparse results.(314) There are no other quality studies for or against the use of these treatments, thus there is no recommendation for or against their use."
    },
    {
      "source": "mtus",
      "diagnosis": {
        "index-name": "subacute-lateral-epicondylalgia",
        "label-name": "Subacute Lateral Epicondylalgia"
      },
      "recommendation": "no_recommendation",
      "questions": [],
      "mtus-text": "No Recommendation. There is no recommendation for or against the use of biofeedback, transcutaneous electrical nerve stimulation (TENS), electrical nerve stimulation, or diathermy for the treatment of acute, subacute, or chronic lateral epicondylalgia.\n\nStrength of Evidence – No Recommendation, Insufficient Evidence (I)\n\nRationale: There is one high-quality trial of an electrical stimulation device, however it had a small sample size, used an electrical current not usually used in devices, and contained sparse results.(314) There are no other quality studies for or against the use of these treatments, thus there is no recommendation for or against their use."
    },
    {
      "source": "mtus",
      "diagnosis": {
        "index-name": "chronic-lateral-epicondylalgia",
        "label-name": "Chronic Lateral Epicondylalgia"
      },
      "recommendation": "no_recommendation",
      "questions": [],
      "mtus-text": "No Recommendation. There is no recommendation for or against the use of biofeedback, transcutaneous electrical nerve stimulation (TENS), electrical nerve stimulation, or diathermy for the treatment of acute, subacute, or chronic lateral epicondylalgia.\n\nStrength of Evidence – No Recommendation, Insufficient Evidence (I)\n\nRationale: There is one high-quality trial of an electrical stimulation device, however it had a small sample size, used an electrical current not usually used in devices, and contained sparse results.(314) There are no other quality studies for or against the use of these treatments, thus there is no recommendation for or against their use."
    }
  ],
  "references": {
    "mtus-link": "https://app.mdguidelines.com/acoem-section/state-guidelines%2Fca-mtus%2Felbow-disorders%2Fdiagnosis-and-treatment-recommendations%2Flateral-epicondylalgia%2Ftreatment-recommendations",
    "odg-link": ""
  }
}