{
  "treatment": {
    "index-name": "infrared-therapy-for-post-operative-low-back-pain",
    "label-name": "Infrared Therapy for Post-operative Low Back Pain",
    "treatment-type": "surgery-add-on"
  },
  "body-system": {
    "index-name": "low-back",
    "label-name": "Low Back"
  },
  "version": {
    "mtus": "11/23/21",
    "odg": "",
    "policy-doc": "09/13/22",
    "created-by": "Cade",
    "comments": ""
  },
  "policies": [
    {
      "source": "mtus",
      "diagnosis": {
        "index-name": "surgery-add-on",
        "label-name": "Surgery Add-on"
      },
      "recommendation": "no_recommendation",
      "questions": [],
      "mtus-text": "No Recommendation. There is no recommendation for or against the use of infrared therapy in the home for treatment of acute, subacute, chronic, radicular or post-operative low back pain.\n\n Strength of Evidence – No Recommendation, Insufficient Evidence (I)\n\nRationale for Recommendations Infrared is of moderate cost, not invasive, and has little potential for adverse effects. It is more expensive than other alternatives such as heat and has not been shown to be superior to less expensive forms of heat therapy. There is limited evidence on which to base a recommendation and available information conflicts. Therefore, there is no recommendation regarding the use of infrared therapy for treatment of low back pain."
    }
  ],
  "references": {
    "mtus-link": "https://app.mdguidelines.com/acoem-section/state-guidelines%2Fca-mtus%2Flow-back-disorders-november-2021%2Frecommendations%2Flow-back-pain-radicular-pain%2Ftreatment-recommendations%2Fallied-health",
    "odg-link": ""
  }
}