{
  "treatment": {
    "index-name": "lidocaine-patches-for-post-operative-low-back-pain",
    "label-name": "Lidocaine Patches for Post-operative Low Back Pain",
    "treatment-type": "surgery-add-on"
  },
  "body-system": {
    "index-name": "low-back",
    "label-name": "Low Back"
  },
  "version": {
    "mtus": "11/23/21",
    "odg": "",
    "policy-doc": "09/13/22",
    "created-by": "Cade",
    "comments": ""
  },
  "policies": [
    {
      "source": "mtus",
      "diagnosis": {
        "index-name": "surgery-add-on",
        "label-name": "Surgery Add-on"
      },
      "recommendation": "no_recommendation",
      "questions": [],
      "mtus-text": "No Recommendation. There is no recommendation for or against the use of lidocaine patches for treatment of acute, subacute, radicular, or post-operative low back pain.\n\nStrength of Evidence - No Recommendation, Insufficient Evidence (I)\n\nRationale for Recommendations - There is one placebo-controlled quality trial for treatment of chronic LBP that failed to show superiority of the lidocaine patch.(952) For other potential indications, there are no quality studies. Lidocaine patches are not invasive and have a low adverse effect profile, although some patients may experience local reactions such as skin irritation, redness, pain, or sores. Lidocaine patches have moderate to high cost over time. Without quality evidence, there is no recommendation for indications. They are not recommended for treatment of chronic LBP."
    }
  ],
  "references": {
    "mtus-link": "https://app.mdguidelines.com/acoem-section/state-guidelines%2Fca-mtus%2Flow-back-disorders-november-2021%2Frecommendations%2Flow-back-pain-radicular-pain%2Ftreatment-recommendations%2Fmedications",
    "odg-link": ""
  }
}