{
  "treatment": {
    "index-name": "muscle-relaxants",
    "label-name": "Muscle Relaxants",
    "treatment-type": "surgery-add-on"
  },
  "body-system": {
    "index-name": "low-back",
    "label-name": "Low Back"
  },
  "version": {
    "mtus": "11/23/21",
    "odg": "",
    "policy-doc": "09/09/22",
    "created-by": "Cade",
    "comments": ""
  },
  "policies": [
    {
      "source": "mtus",
      "diagnosis": {
        "index-name": "surgery-add-on",
        "label-name": "Surgery Add-on"
      },
      "recommendation": "1",
      "questions": [
        {
          "#": "1",
          "question": "Does the patient have moderate to severe acute worsening of pain?",
          "option-list": [
            {
              "option": "yes",
              "action": "approve"
            },
            {
              "option": "no",
              "action": "2"
            }
          ]
        },
        {
          "#": "2",
          "question": "Does the patient have functional loss associated with worsening of LBP, radicular pain syndromes or post-surgical pain thought to be musculoskeletal in nature?",
          "option-list": [
            {
              "option": "yes",
              "action": "approve"
            },
            {
              "option": "no",
              "action": "deny"
            }
          ]
        }
      ],
      "mtus-text": "Recommended. Muscle relaxants are recommended as second- or third-line agents for selective use to treat acute exacerbations of chronic pain, or acute post-surgical situations. However, other agents may be more efficacious for relieving radicular pain, e.g., NSAIDs.\n\nStrength of Evidence – Recommended, Insufficient Evidence (I)\n\nLevel of Confidence – Low\n\nIndications – Moderate to severe acute worsening of pain and/or functional loss associated with worsening of LBP, radicular pain syndromes or post-surgical pain thought to be musculoskeletal in nature. Generally, muscle relaxants should be prescribed nocturnally initially and not during workdays or when patients plan on operating motor vehicles.\n\nFrequency/Dose – The initial dose should be in the evening. Daytime use is acceptable in circumstances where there are minimal CNS-sedating effects. If significant daytime somnolence results, then the medication may need to be discontinued, particularly if it interferes with the patient’s performance of aerobic exercise or other components of the rehabilitation plan.\n\nIndications for Discontinuation – Resolution of pain, non-tolerance, significant sedating effects that carry over into the daytime, or other adverse effects.\n\nBenefits – Modest reduction in acute low back pain compared with placebo.\n\nHarms – Sedation, daytime fatigue. Modest potential for abuse. Risk for safety including motor vehicle crash and other injuries."
    }
  ],
  "references": {
    "mtus-link": "https://app.mdguidelines.com/acoem-section/state-guidelines%2Fca-mtus%2Flow-back-disorders-november-2021%2Frecommendations%2Flow-back-pain-radicular-pain%2Ftreatment-recommendations%2Fmedications",
    "odg-link": ""
  }
}