{
  "treatment": {
    "index-name": "acetaminophen-for-post-operative-knee-pain",
    "label-name": "Acetaminophen for Post-operative Knee Pain",
    "treatment-type": "surgery-add-on"
  },
  "body-system": {
    "index-name": "knee-disorders",
    "label-name": "Knee Disorders"
  },
  "version": {
    "mtus": "09/21/20",
    "odg": "",
    "policy-doc": "12/16/22",
    "created-by": "Cade",
    "comments": ""
  },
  "policies": [
    {
      "source": "mtus",
      "diagnosis": {
        "index-name": "surgery-add-on",
        "label-name": "Surgery Add-on"
      },
      "recommendation": "approve",
      "questions": [],
      "mtus-text": "Recommended. Acetaminophen is recommended for treatment of acute, subacute, chronic or post-operative knee pain, particularly for those with contraindications for NSAIDs.\n\nStrength of Evidence – Recommended, Evidence (C)\n\nIndications – All patients with knee pain, including acute, subacute, chronic and post-operative.\n\nFrequency/Dose/Duration – Per manufacturer’s recommendations; may be utilized on an as needed basis. It has been suggested that 1gm doses are more effective than 650mg doses, particularly in post-operative patients.(670, 671) However, this dose is now above the maximum dose recommended by an FDA advisory committee of 650mg, as evidence of hepatic toxicity has been reported at 4gms per day, particularly among those consuming excessive alcohol. There is no quality evidence for superiority of 1gm dosing for treatment of osteoarthrosis.\n\nIndications for Discontinuation – Resolution of pain, adverse effects or intolerance.\n\nRationale for Recommendations -- There is abundant quality evidence that NSAIDs improve pain and function among chronic knee pain patients, particularly those with osteoarthrosis or rheumatoid arthritis. There are a few studies of NSAID use for osteoarthrosis flares that consistently document benefits. There are no quality studies of NSAID use for acute, subacute or post-operative knee pain. However, by analogy to other MSDs including LBP (see Low Back Disorders guideline), successful treatment of knee pain with NSAIDs may be reasonably anticipated. Results are similar for non-selective or COX-2 (selective) NSAIDs, although the magnitude of benefit is generally not large for any given medication. There are many quality trials comparing various NSAIDs,(68, 631, 638, 639, 648, 654, 658, 659, 661, 672-722) and there is no consistent quality evidence suggesting superiority of one over another or of one class over another class. Most studies have not found cyclooxygenase-2 selective medications to be superior to other NSAIDs for pain control.(614, 615, 723) However, there is quality evidence that COX-2 selective NSAIDs reduce the risk of gastrointestinal adverse effects.(614, 615, 723) In terms of the timing of NSAID dosing, there is one quality study suggesting that evening dosing of indomethacin resulted in better pain control.(646) There is no similar result with the longer-acting agent celecoxib.(647) There is quality evidence that NSAIDs are less impairing than opioids, yet efficacy is comparable (see Chronic Pain and Low Back Disorders guidelines). For most patients, generic ibuprofen, naproxen or other older generation NSAIDs are generally recommended as first-line medications. Second-line medications should generally include other generic medications.\n\nThere are several quality studies of acetaminophen and a few of paracetamol, a close analog.(724) All trials that compared acetaminophen with NSAIDs found either that NSAID significantly reduced pain more than acetaminophen or that differences were not statistically significant but favored NSAIDs.(633, 634, 636-639, 724-726) There is superior symptom relief at 2 hours with ibuprofen compared to paracetamol. These findings are consistent with quality evidence for the treatment of low back pain (see Low Back Disorders guideline). Subanalyses have suggested that NSAIDs are particularly more efficacious for those with more severe osteoarthrosis. However, evidence also indicates higher rates of gastrointestinal adverse effects among NSAID users and lower overall adverse effects profiles for acetaminophen.\n\nA systematic review and meta-analysis of observational studies of NSAIDs found that the risk for serious cardiovascular events was elevated in combined analyses for some NSAIDs, but not for others.(727) Many of the studies supporting these estimates were based on large pharmaceutical databases that were adequately powered to detect effects, but had limited ability to control for potential confounding. There is one reported study of NSAIDs and myocardial infarctions that controlled for two major confounders – aspirin and body mass index.(728) Summary estimates from that study for non-selective NSAIDs suggested that they are protective against cardiovascular events. Study weaknesses included a 50% participation rate and reliance on recall. However, the American Heart Association has cautioned against the use of NSAIDs, especially COX-2 inhibitors.(669) Thus, current evidence is unclear if there is increased risk, no risk, or reduced risk of cardiovascular events from the use of any NSAIDs other than rofecoxib, which appears to have a modestly elevated relative risk.(727) It is recommended that risks of NSAIDs be discussed with patients, particularly patients with cardiovascular risk factors.\n\nRisks of gastrointestinal events should be assessed, including prior history of gastrointestinal bleeding and source, length of treatment, age, smoking, diabetes mellitus, and other medical factors. Treatment with either acetaminophen, NSAIDs plus misoprostol, proton pump inhibitors (see below) or a COX-2 selective agent should be considered in those at high risk for gastrointestinal complications.(231, 614, 615, 650, 683, 723, 729-733)\n\nGastrointestinal adverse events are generally considered the most significant of the risks of NSAIDs. A large volume of high and moderate quality evidence has consistently shown that proton pump inhibitors are effective for prevention and or treatment of gastric and duodenal ulcers and erosions.(734-748) Different proton pump inhibitors are probably equally effective. There is one quality head-to-head trial, and it found no difference in efficacy between pantoprazole and omeprazole.(735) Misoprostol has also been consistently shown to be effective compared with placebo.(749-759) Relatively fewer studies have shown sucralfate to be effective compared with placebo.(760) H2 blockers appear more effective for treatment of duodenal than gastric mucosa.(665-667) There are relatively few quality trials comparing efficacy of the different classes of agents. Pantoprazole but not lansoprazole has been reported to be modestly superior to misoprostol.(761, 762) No difference was found between famotidine and lansoprazole.(763) Misoprostol has been reported superior to placebo(764) and ranitidine,(765, 766) cimetidine(756) and sucralfate.(755, 767) In short, while the evidence is not definitive, available quality evidence suggests proton pump inhibitors and misoprostol appear superior to H-2 blockers and sucralfate. While COX-2 selective agents have generally been recommended as either third- or fourth-line medications for routine use in osteoarthrosis patients, they are often preferred when there is a risk of gastrointestinal complications. For patients at high risk of gastrointestinal bleeding, there is evidence that a combination of proton pump inhibitor plus COX-2 selective agent is efficacious.(768) There is consistent quality evidence that NSAIDs prevent heterotopic bone formation in post-arthroplasty patients.(769-773) but there is no quality evidence that prophylactic treatment with NSAIDs results in improved functional outcomes.(769)\n\nNSAIDs are not invasive, have low side effect profiles in a healthy working patient population, and are low cost when generic medications are used. The potential for NSAIDs to increase the risk of cardiovascular events needs to be carefully considered."
    }
  ],
  "references": {
    "mtus-link": "https://app.mdguidelines.com/acoem-section/state-guidelines%2Fca-mtus%2Fknee-disorders%2Fdiagnostic-and-treatment-recommendations%2Fknee-pain%2Ftreatment-recommendations%2Fmedications%2Fnsaids",
    "odg-link": ""
  }
}