{
  "treatment": {
    "index-name": "cryotherapy-for-treatment-of-knee-arthroplasty",
    "label-name": "Cryotherapy for Treatment of Knee Arthroplasty",
    "treatment-type": "surgery-add-on"
  },
  "body-system": {
    "index-name": "knee-disorders",
    "label-name": "Knee Disorders"
  },
  "version": {
    "mtus": "09/21/20",
    "odg": "",
    "policy-doc": "01/10/23",
    "created-by": "Cade",
    "comments": ""
  },
  "policies": [
    {
      "source": "mtus",
      "diagnosis": {
        "index-name": "surgery-add-on",
        "label-name": "Surgery Add-on"
      },
      "recommendation": "approve",
      "questions": [],
      "mtus-text": "Recommended. Cryotherapy is recommended for select treatment of knee arthroplasty and surgery patients.\n\nStrength of Evidence – Recommended, Insufficient Evidence (I)\n\nFrequency/Dose/Duration – Pain relief with cold therapy for the first several post-operative days with duration commensurate with extent of surgery. Some devices may be helpful for select patients, particularly if they are unable or unwilling to tolerate other measures to manage pain.\n\nIndications for Discontinuation – Non-tolerance, adverse effects.\n\nRationale – There is one trial in non-operative patients, but it is difficult to develop evidence-based guidance as that trial is likely biased in favor of cryotherapy.(1157) While cryotherapy is generally not helpful in patients with osteoarthrosis, a small minority may find benefit. Thus, cryotherapy is recommended as a potential distractant or counter-irritant and is recommended for self-application.\n\nThere are many post-operative studies, although few are moderate in quality with significant methodological limitations. The available studies confirm that there is no effect of cryotherapy on swelling. Nearly all studies also show that cryotherapy has no significant impact on blood loss. The available quality trials conflict with two suggesting no benefit (one compared cold therapy with lukewarm water(1146)) and one suggesting benefits, including opioid sparing (compared cold therapy with traditional post-operative regimens not including epidural anesthesia(1152)).\n\nSelf applications of cryotherapies using ice bags, towels or reusable devices are non-invasive, minimally costly, and without complications. Other forms of cryotherapy are moderately costly and may be reasonable for selected patients who are unwilling to undergo epidural anesthesia or have other indications for these devices."
    }
  ],
  "references": {
    "mtus-link": "https://app.mdguidelines.com/acoem-section/state-guidelines%2Fca-mtus%2Fknee-disorders%2Fdiagnostic-and-treatment-recommendations%2Fosteoarthrosis%2Ftreatment-recommendations%2Fhot-and-cold-therapies",
    "odg-link": ""
  }
}