{
  "treatment": {
    "index-name": "early-post-operative-rehabilitation-after-acl-reconstruction-surgery",
    "label-name": "Early Post-operative Rehabilitation after ACL Reconstruction Surgery",
    "treatment-type": "surgery-add-on"
  },
  "body-system": {
    "index-name": "knee-disorders",
    "label-name": "Knee Disorders"
  },
  "version": {
    "mtus": "09/21/20",
    "odg": "",
    "policy-doc": "12/21/22",
    "created-by": "Cade",
    "comments": ""
  },
  "policies": [
    {
      "source": "mtus",
      "diagnosis": {
        "index-name": "surgery-add-on",
        "label-name": "Surgery Add-on"
      },
      "recommendation": "approve",
      "questions": [],
      "mtus-text": "Recommended. Early post-operative rehabilitation after ACL reconstruction surgery is recommended.\n\nStrength of Evidence – Recommended, Evidence (C)\n\nIndications – ACL reconstruction patients starting as early as the first post-operative day.(2051, 2061, 2069)\n\nFrequency/Dose/Duration – Two to 3 times a week for up to 6 weeks for guided therapy.(2062, 2070)\n\nIndications for Discontinuation – Complications causing a need for further intervention and/or surgery.\n\nRationale – A moderate-quality study evaluated isokinetic hamstring exercises as part of a post-operative rehabilitation program. One group started the exercises 3 weeks post-operatively, the other 9 weeks post-operatively. They reported benefits of starting exercises earlier in an athletic cohort.(2071) A moderate-quality study compared patients who started quadriceps exercises on post-operative day 2 with patients who started therapy 1 to 2 weeks following surgery. They reported no increase in adverse events and faster recovery of knee range of motion and stability in the group that started therapy earlier.(2051) Earlier rehabilitation has not been reported to increase adverse events, and it has been reported to increase benefits.(2061) A low-quality study evaluated knee continuous passive range of motion starting post-operative day two to range of motion on post-operative day seven. They reported no increase in adverse events with staring therapy earlier.(2069) Early rehabilitation is not invasive, has low adverse effects, is low cost, has documented efficacy, and is therefore recommended."
    }
  ],
  "references": {
    "mtus-link": "https://app.mdguidelines.com/acoem-section/state-guidelines%2Fca-mtus%2Fknee-disorders%2Fdiagnostic-and-treatment-recommendations%2Fcruciate-ligament-tears%2Ftreatment-recommendations%2Frehabilitation",
    "odg-link": ""
  }
}