{
  "treatment": {
    "index-name": "glucocorticosteroid-injections-after-arthroscopy",
    "label-name": "Glucocorticosteroid Injections after Arthroscopy",
    "treatment-type": "surgery-add-on"
  },
  "body-system": {
    "index-name": "knee-disorders",
    "label-name": "Knee Disorders"
  },
  "version": {
    "mtus": "09/21/20",
    "odg": "",
    "policy-doc": "01/10/23",
    "created-by": "Cade",
    "comments": ""
  },
  "policies": [
    {
      "source": "mtus",
      "diagnosis": {
        "index-name": "surgery-add-on",
        "label-name": "Surgery Add-on"
      },
      "recommendation": "1",
      "questions": [
        {
          "#": "1",
          "question": "Is osteoarthrosis identified and the patient is believed to potentially benefit from glucocorticoid injection (although there may be no long-term benefit)?",
          "option-list": [
            {
              "option": "yes",
              "action": "approve"
            },
            {
              "option": "no",
              "action": "deny"
            }
          ]
        }
      ],
      "mtus-text": "Recommended. Intraarticular glucocorticosteroid injections are recommended for select patients after arthroscopy and meniscectomy.\n\nStrength of Evidence – Recommended, Evidence (C)\n\nIndications – Patients undergoing arthroscopy, particularly if osteoarthrosis is identified and patient is believed to potentially benefit from glucocorticoid injection, although there may be no long-term benefit.\n\nFrequency/Dose/Duration – Injection performed at end of procedure.\n\nRationale – Two moderate-quality trials suggest superior short-term results from injection with glucocorticosteroid if chondromalacia is identified,(1485) or compared with placebo among patients with osteoarthrosis. There is generally no additional invasiveness of this adjunctive procedure and the complication rate (primarily due to infection) is believed to be quite low. As there is evidence of efficacy, these injections are recommended."
    }
  ],
  "references": {
    "mtus-link": "https://app.mdguidelines.com/acoem-section/state-guidelines%2Fca-mtus%2Fknee-disorders%2Fdiagnostic-and-treatment-recommendations%2Fosteoarthrosis%2Ftreatment-recommendations%2Fsurgical-considerations",
    "odg-link": ""
  }
}