{
  "treatment": {
    "index-name": "interferential-therapy-for-post-operative-knee-patients",
    "label-name": "Interferential Therapy for Post-Operative Knee Patients",
    "treatment-type": "surgery-add-on"
  },
  "body-system": {
    "index-name": "knee-disorders",
    "label-name": "Knee Disorders"
  },
  "version": {
    "mtus": "09/21/20",
    "odg": "",
    "policy-doc": "01/05/23",
    "created-by": "Cade",
    "comments": ""
  },
  "policies": [
    {
      "source": "mtus",
      "diagnosis": {
        "index-name": "surgery-add-on",
        "label-name": "Surgery Add-on"
      },
      "recommendation": "approve",
      "questions": [],
      "mtus-text": "Recommended. Interferential therapy for post-operative ACL reconstruction, meniscectomy, and knee chondroplasty is recommended immediately post-operatively in an elderly population. Patients should be engaged in an appropriate post-operative rehabilitation program in combination with interferential therapy.\n\nStrength of Evidence – Recommended, Evidence (C)\n\nIndications – Elderly patients, post-operative from ACL reconstruction, meniscectomy, or knee chondroplasty.(1267)\n\nFrequency/Dose/Duration – At home, 3 times a day for up to 9 weeks.(1267)\n\nIndications for Discontinuation – Unable to participate in active rehabilitation program; no response after 1 to 3 treatments.\n\nRationale for Recommendation – There is one moderate-quality placebo-controlled trial among elderly residence home patients reporting improved pain, range of motion, and post-operative edema up to 9 weeks compared to placebo therapy.(1267) (Interferential therapy is not invasive, has few adverse effects, and is moderately costly. As there is evidence of efficacy, it is recommended."
    }
  ],
  "references": {
    "mtus-link": "https://app.mdguidelines.com/acoem-section/state-guidelines%2Fca-mtus%2Fknee-disorders%2Fdiagnostic-and-treatment-recommendations%2Fosteoarthrosis%2Ftreatment-recommendations%2Fsurgical-considerations",
    "odg-link": ""
  }
}