{
  "treatment": {
    "index-name": "low-molecular-weight-heparin-for-prevention-of-venous-thromboembolic-disease",
    "label-name": "Low-molecular Weight Heparin for Prevention of Venous Thromboembolic Disease",
    "treatment-type": "surgery-add-on"
  },
  "body-system": {
    "index-name": "knee-disorders",
    "label-name": "Knee Disorders"
  },
  "version": {
    "mtus": "09/21/20",
    "odg": "",
    "policy-doc": "01/09/23",
    "created-by": "Cade",
    "comments": ""
  },
  "policies": [
    {
      "source": "mtus",
      "diagnosis": {
        "index-name": "surgery-add-on",
        "label-name": "Surgery Add-on"
      },
      "recommendation": "1",
      "questions": [
        {
          "#": "1",
          "question": "Is the injured worker in the post-operative period of a major surgery (arthroplasty, knee fracture, etc.)?",
          "option-list": [
            {
              "option": "yes",
              "action": "approve"
            },
            {
              "option": "no",
              "action": "deny"
            }
          ]
        }
      ],
      "mtus-text": "Strongly Recommended. Low-molecular weight heparin is strongly recommended for prevention of venous thromboembolic disease.\n\nStrength of Evidence – Strongly Recommended, Evidence (A)\n\nIndications – Post-operative arthroplasty, knee fracture, and other major knee surgery patients, particularly those with either prolonged inactivity or prolonged reduced or sedentary activity levels.(1941, 1945, 1952-1962) There is some evidence LMWH is generally preferable to warfarin for VTED prophylaxis. Patients with prior reactions to LMWH should generally receive other treatments first.\n\nFrequency/Dose – Subcutaneous injections of enoxaparin (Lovenox) 4,000 IU or 40mg SC QD(1945, 1952-1954, 1956, 1963-1968) for variable durations ranging from 5 to 9 post-operative days(1965-1967) to 8 to 14 days(1964) to 10 to 14 days,(1963) 21 days,(1952, 1953) 30 days,(1956) to 12 weeks.(1954) There is no consensus on duration of treatment, and individualization based on activity level appears indicated.\n\nDuration – Duration unclear. Available quality studies utilized treatment courses ranging from 4 days(1960) to 12 weeks.(1954) A plurality of studies utilized a course of 30 to 35 days.(1955-1957, 1961) There is quality evidence that treatment is generally required beyond hospitalization; there is evidence of deep venous thromboses many months later (reviewed above). One quality trial suggested no benefits from extending 4 to 10 days treatment out to 12 weeks.(1958) In the absence of substantive quality data comparing various durations of treatment, it is suggested that approximately 30 days of treatment after surgery may be required for average patients (a single trial suggested 30 to 42 days after arthroplasty).(1944) Patients with prior histories of venous thrombi, prolonged inactivity, delayed recovery or recurrences of thromboses, or family histories of venous thrombi likely require longer courses. Those with major risk of bleeding may warrant individualized shorter courses. Patients who regain activity rapidly may be appropriate candidates for shorter courses of treatment.\n\nIndications for Discontinuation – Completion of course of treatment, development of major complication (e.g., major bleeding) or other adverse effect."
    }
  ],
  "references": {
    "mtus-link": "https://app.mdguidelines.com/acoem-section/state-guidelines%2Fca-mtus%2Fknee-disorders%2Fdiagnostic-and-treatment-recommendations%2Fosteoarthrosis%2Ftreatment-recommendations%2Fsurgical-considerations",
    "odg-link": ""
  }
}