{
  "treatment": {
    "index-name": "one-day-use-of-systemic-antibiotics-for-knee-surgery",
    "label-name": "One-day Use of Systemic Antibiotics for Knee Surgery",
    "treatment-type": "surgery-add-on"
  },
  "body-system": {
    "index-name": "knee-disorders",
    "label-name": "Knee Disorders"
  },
  "version": {
    "mtus": "09/21/20",
    "odg": "",
    "policy-doc": "01/10/23",
    "created-by": "Cade",
    "comments": ""
  },
  "policies": [
    {
      "source": "mtus",
      "diagnosis": {
        "index-name": "surgery-add-on",
        "label-name": "Surgery Add-on"
      },
      "recommendation": "approve",
      "questions": [],
      "mtus-text": "Moderately Recommended. One-day use of systemic antibiotics is moderately recommended for patients undergoing surgical knee procedures. Antibiotic-impregnated cement also appears effective compared with cement without antibiotics with evidence particularly in the hip and by inference assumed likely to be true of the knee as well.\n\nStrength of Evidence – Moderately Recommended, Evidence (B)               \n\nRationale – There are trials comparing multiple doses with a single day of antibiotics, (1815) finding no differences in outcomes. This is a similar finding to the hip as there is evidence from a non-randomized registry data of 10,905 hip prostheses that the risk of revision due to infection was reduced 75 to 78% with a systemic antibiotic combined with antibiotic-impregnated cement compared with either systemic antibiotic administration or antibiotic-impregnated cement alone.(1816) The risk, if there was only antibiotic in the cement, was 6.3-fold higher, and, if the antibiotic was only systemic risk, was 4.3-fold greater. There is a belief that some cases of aseptic loosening are undiagnosed infections(1796) as there were lower rates of aseptic loosening among those with both routes of antibiotic administration compared with either alone(1816) and those with gentamicin cement appear to have lower rates of aseptic loosening compare with systemic antibiotics.(1817, 1818) Thus, there is quality evidence that a combination of systemic and antibiotic-impregnated cement is important to prevent infections."
    }
  ],
  "references": {
    "mtus-link": "https://app.mdguidelines.com/acoem-section/state-guidelines%2Fca-mtus%2Fknee-disorders%2Fdiagnostic-and-treatment-recommendations%2Fosteoarthrosis%2Ftreatment-recommendations%2Fmedications%2Fpostoperative",
    "odg-link": ""
  }
}