{
  "treatment": {
    "index-name": "post-operative-avocational-activities",
    "label-name": "Post Operative Avocational Activities",
    "treatment-type": "surgery-add-on"
  },
  "body-system": {
    "index-name": "knee-disorders",
    "label-name": "Knee Disorders"
  },
  "version": {
    "mtus": "09/21/20",
    "odg": "",
    "policy-doc": "12/21/22",
    "created-by": "Cade",
    "comments": ""
  },
  "policies": [
    {
      "source": "mtus",
      "diagnosis": {
        "index-name": "surgery-add-on",
        "label-name": "Surgery Add-on"
      },
      "recommendation": "no_recommendation",
      "questions": [],
      "mtus-text": "No Recommendation. There is no recommendation for or against specific vocational or avocational pursuits post-operatively.\n\nStrength of Evidence – No Recommendation, Insufficient Evidence (I)\n\nRationale  – Quality evidence does not sufficiently support evidence-based guidance and therefore there is no recommendation for or against specific vocational or avocational activities."
    }
  ],
  "references": {
    "mtus-link": "https://app.mdguidelines.com/acoem-section/state-guidelines%2Fca-mtus%2Fknee-disorders%2Fdiagnostic-and-treatment-recommendations%2Fosteoarthrosis%2Ftreatment-recommendations%2Frehabilitation",
    "odg-link": ""
  }
}