{
  "treatment": {
    "index-name": "post-operative-rehabilitation-for-knee-arthroplasty",
    "label-name": "Post-Operative Rehabilitation for Knee Arthroplasty",
    "treatment-type": "surgery-add-on"
  },
  "body-system": {
    "index-name": "knee-disorders",
    "label-name": "Knee Disorders"
  },
  "version": {
    "mtus": "09/21/20",
    "odg": "",
    "policy-doc": "12/21/22",
    "created-by": "Cade",
    "comments": ""
  },
  "policies": [
    {
      "source": "mtus",
      "diagnosis": {
        "index-name": "surgery-add-on",
        "label-name": "Surgery Add-on"
      },
      "recommendation": "approve",
      "questions": [],
      "mtus-text": "Recommended. Post-operative rehabilitation is recommended for knee arthroplasty patients.\n\nStrength of Evidence – Recommended, Insufficient Evidence (I)\n\nIndications – Patients having undergone knee arthroplasty.          \n\nFrequency/Dose/Duration – Treatment may need individualization based on factors including pre-operative conditioning and immediate post-operative results. Treatment is often daily while hospitalized, then 2 to 3 sessions a week. One trial suggested an educational kneeling intervention had demonstrable long-term benefits.(1854) Three trials have suggested benefits of accelerated and/or early rehabilitation.(1839, 1855, 1861)\n\nIndications for Discontinuation – Achievement of goals, non-compliance with clinic or home-based exercises or intolerance."
    }
  ],
  "references": {
    "mtus-link": "https://app.mdguidelines.com/acoem-section/state-guidelines%2Fca-mtus%2Fknee-disorders%2Fdiagnostic-and-treatment-recommendations%2Fosteoarthrosis%2Ftreatment-recommendations%2Frehabilitation",
    "odg-link": ""
  }
}