{
  "treatment": {
    "index-name": "antibodies",
    "label-name": "Antibodies",
    "treatment-type": "other"
  },
  "body-system": {
    "index-name": "shoulder-disorders",
    "label-name": "Shoulder Disorders"
  },
  "version": {
    "mtus": "12/01/17",
    "odg": "",
    "policy-doc": "10/24/22",
    "created-by": "Cade",
    "comments": ""
  },
  "policies": [
    {
      "source": "mtus",
      "diagnosis": {
        "index-name": "diagnosing-shoulder-pain",
        "label-name": "Diagnosing Shoulder Pain"
      },
      "recommendation": "1",
      "questions": [
        {
          "#": "1",
          "question": "Is there reasonable suspicion of rheumatological disorder?",
          "option-list": [
            {
              "option": "yes",
              "action": "2"
            },
            {
              "option": "no",
              "action": "deny"
            }
          ]
        },
        {
          "#": "2",
          "question": "Will a large, diverse array of antibody levels be ordered without targeting a few specific disorders diagnostically?",
          "option-list": [
            {
              "option": "yes",
              "action": "deny"
            },
            {
              "option": "no",
              "action": "approve"
            }
          ]
        }
      ],
      "mtus-text": "Recommended. Antibody levels are recommended to evaluate and diagnose patients with shoulder pain that have reasonable suspicion of rheumatological disorder. However, ordering of a large, diverse array of antibody levels without targeting a few specific disorders diagnostically is not recommended.\n\nStrength of Evidence – Recommended, Insufficient Evidence (I)\n\nIndications: Patients with shoulder pain with suspicion of rheumatological disorder.\n\nRationale: Elevated antibody levels are highly useful for confirming clinical impressions of rheumatic diseases. However, routine use of these tests in shoulder pain patients is not recommended, especially as wide-ranging, non-focused test batteries are likely to result in inaccurate diagnoses due to false positives and low pre-test probabilities. Providers should also be aware that false-negative results occur. Measurement of antibody levels is minimally invasive, unlikely to have substantial adverse effects, and is low to moderately costly depending on the specific test ordered. They are recommended for focused testing of a limited number of diagnostic considerations."
    },
    {
      "source": "mtus",
      "diagnosis": {
        "index-name": "confirming-specific-disorders",
        "label-name": "Confirming Specific Disorders"
      },
      "recommendation": "1",
      "questions": [
        {
          "#": "1",
          "question": "Does the injured worker have shoulder pain?",
          "option-list": [
            {
              "option": "yes",
              "action": "2"
            },
            {
              "option": "no",
              "action": "deny"
            }
          ]
        },
        {
          "#": "2",
          "question": "Is there a presumptive diagnosis of a rheumatological disorder?",
          "option-list": [
            {
              "option": "yes",
              "action": "approve"
            },
            {
              "option": "no",
              "action": "deny"
            }
          ]
        }
      ],
      "mtus-text": "Strongly Recommended. Antibody levels are strongly recommended as a screen to confirm specific disorders (e.g., rheumatoid arthritis).\n\nStrength of Evidence – Strongly Recommended, Evidence (A)\n\nIndications: Shoulder pain and a presumptive diagnosis of a rheumatological disorder.\n\nRationale: Elevated antibody levels are highly useful for confirming clinical impressions of rheumatic diseases. However, routine use of these tests in shoulder pain patients is not recommended, especially as wide-ranging, non-focused test batteries are likely to result in inaccurate diagnoses due to false positives and low pre-test probabilities. Providers should also be aware that false-negative results occur. Measurement of antibody levels is minimally invasive, unlikely to have substantial adverse effects, and is low to moderately costly depending on the specific test ordered. They are recommended for focused testing of a limited number of diagnostic considerations."
    }
  ],
  "references": {
    "mtus-link": "https://app.mdguidelines.com/acoem-section/state-guidelines%2Fca-mtus%2Fshoulder-disorders%2Fdiagnostic-recommendations%2Fantibodies",
    "odg-link": ""
  }
}