{
  "treatment": {
    "index-name": "compressive-immobilizer",
    "label-name": "Compressive Immobilizer",
    "treatment-type": "other"
  },
  "body-system": {
    "index-name": "shoulder-disorders",
    "label-name": "Shoulder Disorders"
  },
  "version": {
    "mtus": "12/01/17",
    "odg": "",
    "policy-doc": "11/02/22",
    "created-by": "Cade",
    "comments": ""
  },
  "policies": [
    {
      "source": "mtus",
      "diagnosis": {
        "index-name": "acromioclavicular-sprain",
        "label-name": "Acromioclavicular Sprain"
      },
      "recommendation": "deny",
      "questions": [],
      "mtus-text": "Recommended. Slings or shoulder immobilizers, but not compressive immobilizers, are recommended for treatment of severe acromioclavicular sprains or dislocations.\n\nStrength of Evidence – Recommended, Insufficient Evidence (I)\n\nIndications: Acromioclavicular sprains and separations. (Lemos 98; Nuber 97)\n\nFrequency/Dose/Duration: Daily use initially. Sling use for up to 7 to 10 days in Grades I to II sprains, then gradual weaning. Pendulum exercises are generally prescribed during the time of sling use. Six weeks of sling or immobilizer use is typically prescribed for post-operative treatment. In more severe cases, additional exercises are helpful.\n\nIndications for Discontinuation: Recovery, plateau in recovery, noncompliance, or intolerance.\n\nRationale: Slings, but not compressive immobilizers, are often helpful for acute pain associated with AC sprains and separations. However, performance of pendulum exercises is usually indicated in part to prevent the potential development of limited ROM or adhesive capsulitis. Slings are not recommended for subacute or chronic symptoms as they promote debility over time."
    },
    {
      "source": "mtus",
      "diagnosis": {
        "index-name": "acromioclavicular-dislocation",
        "label-name": "Acromioclavicular Dislocation"
      },
      "recommendation": "deny",
      "questions": [],
      "mtus-text": "Recommended. Slings or shoulder immobilizers, but not compressive immobilizers, are recommended for treatment of severe acromioclavicular sprains or dislocations.\n\nStrength of Evidence – Recommended, Insufficient Evidence (I)\n\nIndications: Acromioclavicular sprains and separations. (Lemos 98; Nuber 97)\n\nFrequency/Dose/Duration: Daily use initially. Sling use for up to 7 to 10 days in Grades I to II sprains, then gradual weaning. Pendulum exercises are generally prescribed during the time of sling use. Six weeks of sling or immobilizer use is typically prescribed for post-operative treatment. In more severe cases, additional exercises are helpful.\n\nIndications for Discontinuation: Recovery, plateau in recovery, noncompliance, or intolerance.\n\nRationale: Slings, but not compressive immobilizers, are often helpful for acute pain associated with AC sprains and separations. However, performance of pendulum exercises is usually indicated in part to prevent the potential development of limited ROM or adhesive capsulitis. Slings are not recommended for subacute or chronic symptoms as they promote debility over time."
    }
  ],
  "references": {
    "mtus-link": "https://app.mdguidelines.com/acoem-section/state-guidelines%2Fca-mtus%2Fshoulder-disorders%2Ftreatment-recommendations%2Facromioclavicular-sprains-and-dislocations%2Fdevices",
    "odg-link": ""
  }
}