{
  "treatment": {
    "index-name": "dual-reuptake-inhibiting-anti-depressants",
    "label-name": "Dual Reuptake Inhibiting Anti-depressants",
    "treatment-type": "other"
  },
  "body-system": {
    "index-name": "shoulder-disorders",
    "label-name": "Shoulder Disorders"
  },
  "version": {
    "mtus": "12/01/17",
    "odg": "",
    "policy-doc": "10/27/22",
    "created-by": "Cade",
    "comments": ""
  },
  "policies": [
    {
      "source": "mtus",
      "diagnosis": {
        "index-name": "acute-shoulder-dislocation",
        "label-name": "Acute Shoulder Dislocation"
      },
      "recommendation": "no_recommendation",
      "questions": [],
      "mtus-text": "No Recommendation. There is no recommendation for or against the use of muscle relaxants, capsicum, tricyclic anti-depressants, dual reuptake inhibiting anti-depressants, or gabapentin to control pain associated with acute or subacute shoulder dislocation or for post-operative pain.\n\nStrength of Evidence – No Recommendation, Insufficient Evidence (I)\n\nRationale: There are no quality trials evaluating treatment of shoulder dislocations with medication.  Instability with recurrent dislocation is more likely to cause acute pain with each dislocation rather than chronic pain. Chronic pain is more likely to be associated with a concurrent shoulder problem. The use of NSAIDs has been evaluated to treat many musculoskeletal disorders and found uniformly effective (see Rotator Cuff Tendinopathies). NSAIDs and acetaminophen are not invasive and have low adverse-effects profiles, particularly when used for short courses in occupational populations. Generic or over-the-counter formulations are low cost. Use of NSAIDs and acetaminophen also may help avoid treatment with opioids which have far worse adverse effect profiles (see Chronic Pain Guideline). NSAIDs and acetaminophen are recommended for treatment of acute and post-operative dislocation patients. By analogy to treatment of other musculoskeletal conditions such as low back pain (see Low Back Disorders Guideline), acetaminophen is believed to be less efficacious, although it generally has a lower adverse effect profile.\n\nThere are no quality studies evaluating opioids for treatment of shoulder dislocation (see Rotator Cuff Tendinopathies and Chronic Pain Guideline). Opioids have adverse effects with published evidence of high mortality risks. However, there are patients with severe pain, particularly acute dislocation patients, for whom the brief use of opioids, especially to facilitate sleep, is recommended. Opioids are not invasive, have high adverse effects for a pharmaceutical (although tolerance to many can develop relatively rapidly), and are low cost when generic formulations are used.\n\nOther medications are rarely required for patients with dislocations, as the associated pain is usually acute and not subacute or chronic. Norepinephrine reuptake inhibiting anti-depressants (e.g., amitriptyline, doxepin, imipramine, desipramine, nortriptyline, protriptyline, maprotiline, and clomipramine) and mixed norepinephrine and serotonin inhibitors (e.g., venlafaxine, bupropion, and duloxetine) have evidence of efficacy for treating chronic low back pain and other chronic pain conditions (see Low Back Disorders and Chronic Pain Guidelines). However, while there is no quality evidence evaluating these medications for treating shoulder pain, they appear likely to be mildly effective for some shoulder pain patients, especially in cases involving the shoulder girdle and myofascial pain.\n\nThere are no quality studies that address the use of anti-convulsant agents to treat patients with shoulder pain. By analogy, there is quality evidence that topiramate is weakly effective for treating low back pain patients, and gabapentin is unhelpful (see Low Back Disorders Guideline). However, there is quality evidence that gabapentin reduces the need for opioids when administered as part of peri-operative hip surgery patients’ pain management (see Hip and Groin Disorders Guideline). (Pandey 04, Pandey 05, Radhakrishnan 05, Turan 04)\n\nSkeletal muscle relaxants may be a reasonable alternative to spare opioid requirements in the acute recovery period and to facilitate sleep. However, they also can cause daytime somnolence, thus limiting their use. Skeletal muscle relaxants are not recommended for continuous management of subacute or chronic shoulder pain, although they may be reasonable options for select acute pain exacerbations or for a limited trial as a 3rd- or 4th-line agent in more severely affected patients in whom NSAIDs and exercise have failed to control symptoms."
    },
    {
      "source": "mtus",
      "diagnosis": {
        "index-name": "subacute-shoulder-dislocation",
        "label-name": "Subacute Shoulder Dislocation"
      },
      "recommendation": "no_recommendation",
      "questions": [],
      "mtus-text": "No Recommendation. There is no recommendation for or against the use of muscle relaxants, capsicum, tricyclic anti-depressants, dual reuptake inhibiting anti-depressants, or gabapentin to control pain associated with acute or subacute shoulder dislocation or for post-operative pain.\n\nStrength of Evidence – No Recommendation, Insufficient Evidence (I)\n\nRationale: There are no quality trials evaluating treatment of shoulder dislocations with medication.  Instability with recurrent dislocation is more likely to cause acute pain with each dislocation rather than chronic pain. Chronic pain is more likely to be associated with a concurrent shoulder problem. The use of NSAIDs has been evaluated to treat many musculoskeletal disorders and found uniformly effective (see Rotator Cuff Tendinopathies). NSAIDs and acetaminophen are not invasive and have low adverse-effects profiles, particularly when used for short courses in occupational populations. Generic or over-the-counter formulations are low cost. Use of NSAIDs and acetaminophen also may help avoid treatment with opioids which have far worse adverse effect profiles (see Chronic Pain Guideline). NSAIDs and acetaminophen are recommended for treatment of acute and post-operative dislocation patients. By analogy to treatment of other musculoskeletal conditions such as low back pain (see Low Back Disorders Guideline), acetaminophen is believed to be less efficacious, although it generally has a lower adverse effect profile.\n\nThere are no quality studies evaluating opioids for treatment of shoulder dislocation (see Rotator Cuff Tendinopathies and Chronic Pain Guideline). Opioids have adverse effects with published evidence of high mortality risks. However, there are patients with severe pain, particularly acute dislocation patients, for whom the brief use of opioids, especially to facilitate sleep, is recommended. Opioids are not invasive, have high adverse effects for a pharmaceutical (although tolerance to many can develop relatively rapidly), and are low cost when generic formulations are used.\n\nOther medications are rarely required for patients with dislocations, as the associated pain is usually acute and not subacute or chronic. Norepinephrine reuptake inhibiting anti-depressants (e.g., amitriptyline, doxepin, imipramine, desipramine, nortriptyline, protriptyline, maprotiline, and clomipramine) and mixed norepinephrine and serotonin inhibitors (e.g., venlafaxine, bupropion, and duloxetine) have evidence of efficacy for treating chronic low back pain and other chronic pain conditions (see Low Back Disorders and Chronic Pain Guidelines). However, while there is no quality evidence evaluating these medications for treating shoulder pain, they appear likely to be mildly effective for some shoulder pain patients, especially in cases involving the shoulder girdle and myofascial pain.\n\nThere are no quality studies that address the use of anti-convulsant agents to treat patients with shoulder pain. By analogy, there is quality evidence that topiramate is weakly effective for treating low back pain patients, and gabapentin is unhelpful (see Low Back Disorders Guideline). However, there is quality evidence that gabapentin reduces the need for opioids when administered as part of peri-operative hip surgery patients’ pain management (see Hip and Groin Disorders Guideline). (Pandey 04, Pandey 05, Radhakrishnan 05, Turan 04)\n\nSkeletal muscle relaxants may be a reasonable alternative to spare opioid requirements in the acute recovery period and to facilitate sleep. However, they also can cause daytime somnolence, thus limiting their use. Skeletal muscle relaxants are not recommended for continuous management of subacute or chronic shoulder pain, although they may be reasonable options for select acute pain exacerbations or for a limited trial as a 3rd- or 4th-line agent in more severely affected patients in whom NSAIDs and exercise have failed to control symptoms."
    }
  ],
  "references": {
    "mtus-link": "https://app.mdguidelines.com/acoem-section/state-guidelines%2Fca-mtus%2Fshoulder-disorders%2Ftreatment-recommendations%2Fshoulder-dislocation%2Fmedications",
    "odg-link": ""
  }
}