{
  "treatment": {
    "index-name": "external-rotation-brace",
    "label-name": "External Rotation Brace",
    "treatment-type": "other"
  },
  "body-system": {
    "index-name": "shoulder-disorders",
    "label-name": "Shoulder Disorders"
  },
  "version": {
    "mtus": "12/01/17",
    "odg": "",
    "policy-doc": "11/02/22",
    "created-by": "Cade",
    "comments": ""
  },
  "policies": [
    {
      "source": "mtus",
      "diagnosis": {
        "index-name": "anterior-glenohumeral-dislocation",
        "label-name": "Anterior Glenohumeral Dislocation"
      },
      "recommendation": "approve",
      "questions": [],
      "mtus-text": "Slings are recommended for acute rehabilitation and treatment of acute shoulder dislocations.\n\nStrength of Evidence – Recommended, Insufficient Evidence (I)\n\nRationale: Slings often help manage acute pain associated with shoulder dislocations and help soft tissue healing. An external rotation brace may be used instead of a sling to treat anterior glenohumeral dislocations as most of these have an anterior inferior labral tear.  The external rotation position reduces the labrum so that it can heal in a more anatomic position. (Itoi 01; Miller 04) Performance of pendulum exercises is usually indicated in part to prevent the potential development of adhesive capsulitis. Slings are not recommended for shoulder instability as the condition is chronic and slings promote debility over time."
    }
  ],
  "references": {
    "mtus-link": "https://app.mdguidelines.com/acoem-section/state-guidelines%2Fca-mtus%2Fshoulder-disorders%2Ftreatment-recommendations%2Fshoulder-dislocation%2Fdevices",
    "odg-link": ""
  }
}