{
  "treatment": {
    "index-name": "high-voltage-galvanic-therapy",
    "label-name": "High-voltage Galvanic Therapy",
    "treatment-type": "other"
  },
  "body-system": {
    "index-name": "shoulder-disorders",
    "label-name": "Shoulder Disorders"
  },
  "version": {
    "mtus": "12/01/17",
    "odg": "",
    "policy-doc": "11/02/22",
    "created-by": "Cade",
    "comments": ""
  },
  "policies": [
    {
      "source": "mtus",
      "diagnosis": {
        "index-name": "shoulder-osteoarthrosis",
        "label-name": "Shoulder Osteoarthrosis"
      },
      "recommendation": "no_recommendation",
      "questions": [],
      "mtus-text": "No Recommendation. There is no recommendation for or against the use of diathermy, infrared therapy, ultrasound, laser therapy, high-voltage galvanic, H-wave stimulation, iontophoresis, microcurrent, percutaneous electrical nerve stimulation (PENS), sympathetic electrotherapy, interferential therapy, or transcutaneous electrical stimulation (TENS) for the treatment of shoulder joint osteoarthrosis.\n\nStrength of Evidence – No Recommendation, Insuffcient Evidence (I)"
    },
    {
      "source": "mtus",
      "diagnosis": {
        "index-name": "superior-labral-anterior-posterior-(slap)-tear",
        "label-name": "Superior Labral Anterior Posterior (SLAP) Tear"
      },
      "recommendation": "no_recommendation",
      "questions": [],
      "mtus-text": "No Recommendation. There is no recommendation for or against the use of diathermy, infrared therapy, ultrasound, laser therapy, manual therapy, mobilization, manipulation, massage, high-voltage galvanic, H-wave stimulation, iontophoresis, microcurrent, percutaneous electrical nerve stimulation (PENS), sympathetic electrotherapy, or transcutaneous electrical stimulation (TENS) for the treatment of superior labral anterior posterior (SLAP) or other labral tears.\n\nStrength of Evidence – No Recommendation, Insuffcient Evidence (I)"
    },
    {
      "source": "mtus",
      "diagnosis": {
        "index-name": "other-labral-tears",
        "label-name": "Other Labral Tears"
      },
      "recommendation": "no_recommendation",
      "questions": [],
      "mtus-text": "No Recommendation. There is no recommendation for or against the use of diathermy, infrared therapy, ultrasound, laser therapy, manual therapy, mobilization, manipulation, massage, high-voltage galvanic, H-wave stimulation, iontophoresis, microcurrent, percutaneous electrical nerve stimulation (PENS), sympathetic electrotherapy, or transcutaneous electrical stimulation (TENS) for the treatment of superior labral anterior posterior (SLAP) or other labral tears.\n\nStrength of Evidence – No Recommendation, Insuffcient Evidence (I)"
    },
    {
      "source": "mtus",
      "diagnosis": {
        "index-name": "adhesive-capsulitis",
        "label-name": "Adhesive Capsulitis"
      },
      "recommendation": "no_recommendation",
      "questions": [],
      "mtus-text": "No Recommendation. There is no recommendation for or against the use of infrared therapy, ultrasound, laser therapy, high-voltage galvanic, H-wave stimulation, iontophoresis, microcurrent, percutaneous electrical nerve stimulation (PENS), sympathetic electrotherapy, interferential therapy, or transcutaneous electrical stimulation (TENS) for treatment of adhesive capsulitis.\n\nStrength of Evidence – No Recommendation, Insuffcient Evidence (I)"
    },
    {
      "source": "mtus",
      "diagnosis": {
        "index-name": "shoulder-dislocation",
        "label-name": "Shoulder Dislocation"
      },
      "recommendation": "no_recommendation",
      "questions": [],
      "mtus-text": "No Recommendation. There is no recommendation for or against the use of diathermy, infrared therapy, ultrasound, laser therapy, manual therapy, mobilization, manipulation, massage, high-voltage galvanic, H-wave stimulation, iontophoresis, microcurrent, percutaneous electrical nerve stimulation (PENS), sympathetic electrotherapy, or transcutaneous electrical stimulation (TENS) for treatment of shoulder dislocation or instability.\n\nStrength of Evidence – No Recommendation, Insuffcient Evidence (I)\n\nRationale: While there is experimental evidence in cadavers supporting capsular shrinkage with thermal heating, (Hayashi 97) there is no quality evidence and thus there is no recommendation for the use of diathermy, infrared, ultrasound, laser, manual therapy, mobilization, manipulation, massage, high-voltage galvanic, H-wave stimulation, iontophoresis, microcurrent, percutaneous electrical nerve stimulation (PENS), sympathetic electrotherapy, or transcutaneous electrical stimulation (TENS) for treatment of shoulder dislocation or instability."
    },
    {
      "source": "mtus",
      "diagnosis": {
        "index-name": "shoulder-instability",
        "label-name": "Shoulder Instability"
      },
      "recommendation": "no_recommendation",
      "questions": [],
      "mtus-text": "No Recommendation. There is no recommendation for or against the use of diathermy, infrared therapy, ultrasound, laser therapy, manual therapy, mobilization, manipulation, massage, high-voltage galvanic, H-wave stimulation, iontophoresis, microcurrent, percutaneous electrical nerve stimulation (PENS), sympathetic electrotherapy, or transcutaneous electrical stimulation (TENS) for treatment of shoulder dislocation or instability.\n\nStrength of Evidence – No Recommendation, Insuffcient Evidence (I)\n\nRationale: While there is experimental evidence in cadavers supporting capsular shrinkage with thermal heating, (Hayashi 97) there is no quality evidence and thus there is no recommendation for the use of diathermy, infrared, ultrasound, laser, manual therapy, mobilization, manipulation, massage, high-voltage galvanic, H-wave stimulation, iontophoresis, microcurrent, percutaneous electrical nerve stimulation (PENS), sympathetic electrotherapy, or transcutaneous electrical stimulation (TENS) for treatment of shoulder dislocation or instability."
    }
  ],
  "references": {
    "mtus-link": "https://app.mdguidelines.com/acoem-section/state-guidelines%2Fca-mtus%2Fshoulder-disorders%2Ftreatment-recommendations%2Fshoulder-osteoarthrosis%2Fdevices,https://app.mdguidelines.com/acoem-section/state-guidelines%2Fca-mtus%2Fshoulder-disorders%2Ftreatment-recommendations%2Fslap-tears%2Fdevices,https://app.mdguidelines.com/acoem-section/state-guidelines%2Fca-mtus%2Fshoulder-disorders%2Ftreatment-recommendations%2Fadhesive-capsulitis%2Fmobilization,https://app.mdguidelines.com/acoem-section/state-guidelines%2Fca-mtus%2Fshoulder-disorders%2Ftreatment-recommendations%2Fshoulder-dislocation%2Fdevices",
    "odg-link": ""
  }
}