{
  "treatment": {
    "index-name": "home-use-of-cryotherapies",
    "label-name": "Home Use of Cryotherapies",
    "treatment-type": "other"
  },
  "body-system": {
    "index-name": "shoulder-disorders",
    "label-name": "Shoulder Disorders"
  },
  "version": {
    "mtus": "12/01/17",
    "odg": "",
    "policy-doc": "10/25/22",
    "created-by": "Cade",
    "comments": ""
  },
  "policies": [
    {
      "source": "mtus",
      "diagnosis": {
        "index-name": "acute-shoulder-pain",
        "label-name": "Acute Shoulder Pain"
      },
      "recommendation": "approve",
      "questions": [],
      "mtus-text": "Recommended. Cryotherapies are recommended for home use if efficacious for the temporary relief of acute, subacute, chronic, or peri-operative shoulder pain.\n\nHot and Cold Therapies\n\nStrength of Evidence – Recommended, Insufficient Evidence (I)\n\nIndications: Acute, subacute, chronic, or peri-operative shoulder pain.\n\nIndications for Discontinuation: Non-tolerance, including exacerbation of shoulder pain.\n\nRationale: There are no quality trials for treatment of shoulder pain patients. There is one moderate-quality trial for post-operative treatment; however, there were no clinical results. (Osbahr 02) Education regarding home cryotherapy application may be part of the treatment if cold is effective in reducing pain. Self applications of cryotherapies using towels or reusable devices are non-invasive, minimal cost, and without complications. Other forms of cryotherapy can be considerably more expensive, including chemicals or cryotherapeutic applications in clinical settings and are not recommended."
    },
    {
      "source": "mtus",
      "diagnosis": {
        "index-name": "subacute-shoulder-pain",
        "label-name": "Subacute Shoulder Pain"
      },
      "recommendation": "approve",
      "questions": [],
      "mtus-text": "Recommended. Cryotherapies are recommended for home use if efficacious for the temporary relief of acute, subacute, chronic, or peri-operative shoulder pain.\n\nHot and Cold Therapies\n\nStrength of Evidence – Recommended, Insufficient Evidence (I)\n\nIndications: Acute, subacute, chronic, or peri-operative shoulder pain.\n\nIndications for Discontinuation: Non-tolerance, including exacerbation of shoulder pain.\n\nRationale: There are no quality trials for treatment of shoulder pain patients. There is one moderate-quality trial for post-operative treatment; however, there were no clinical results. (Osbahr 02) Education regarding home cryotherapy application may be part of the treatment if cold is effective in reducing pain. Self applications of cryotherapies using towels or reusable devices are non-invasive, minimal cost, and without complications. Other forms of cryotherapy can be considerably more expensive, including chemicals or cryotherapeutic applications in clinical settings and are not recommended."
    },
    {
      "source": "mtus",
      "diagnosis": {
        "index-name": "chronic-shoulder-pain",
        "label-name": "Chronic Shoulder Pain"
      },
      "recommendation": "approve",
      "questions": [],
      "mtus-text": "Recommended. Cryotherapies are recommended for home use if efficacious for the temporary relief of acute, subacute, chronic, or peri-operative shoulder pain.\n\nHot and Cold Therapies\n\nStrength of Evidence – Recommended, Insufficient Evidence (I)\n\nIndications: Acute, subacute, chronic, or peri-operative shoulder pain.\n\nIndications for Discontinuation: Non-tolerance, including exacerbation of shoulder pain.\n\nRationale: There are no quality trials for treatment of shoulder pain patients. There is one moderate-quality trial for post-operative treatment; however, there were no clinical results. (Osbahr 02) Education regarding home cryotherapy application may be part of the treatment if cold is effective in reducing pain. Self applications of cryotherapies using towels or reusable devices are non-invasive, minimal cost, and without complications. Other forms of cryotherapy can be considerably more expensive, including chemicals or cryotherapeutic applications in clinical settings and are not recommended."
    },
    {
      "source": "mtus",
      "diagnosis": {
        "index-name": "peri-operative-shoulder-pain",
        "label-name": "Peri-operative Shoulder Pain"
      },
      "recommendation": "approve",
      "questions": [],
      "mtus-text": "Recommended. Cryotherapies are recommended for home use if efficacious for the temporary relief of acute, subacute, chronic, or peri-operative shoulder pain.\n\nHot and Cold Therapies\n\nStrength of Evidence – Recommended, Insufficient Evidence (I)\n\nIndications: Acute, subacute, chronic, or peri-operative shoulder pain.\n\nIndications for Discontinuation: Non-tolerance, including exacerbation of shoulder pain.\n\nRationale: There are no quality trials for treatment of shoulder pain patients. There is one moderate-quality trial for post-operative treatment; however, there were no clinical results. (Osbahr 02) Education regarding home cryotherapy application may be part of the treatment if cold is effective in reducing pain. Self applications of cryotherapies using towels or reusable devices are non-invasive, minimal cost, and without complications. Other forms of cryotherapy can be considerably more expensive, including chemicals or cryotherapeutic applications in clinical settings and are not recommended."
    },
    {
      "source": "mtus",
      "diagnosis": {
        "index-name": "trigger-points",
        "label-name": "Trigger Points"
      },
      "recommendation": "no_recommendation",
      "questions": [],
      "mtus-text": "No Recommendation. There is no recommendation for or against the home use of cryotherapies for trigger points/myofascial pain.\n\nHot and Cold Therapies\n\nStrength of Evidence – No Recommendation, Insuffcient Evidence (I)\n\nRationale: There are no quality trials. Self applications of cryotherapies using towels or reusable devices are not invasive, without complications and do not have any appreciable costs. As there is no evidence as well as there are concerns cryotherapy may be unhelpful for these patients, there is no recommendation."
    },
    {
      "source": "mtus",
      "diagnosis": {
        "index-name": "myofascial-pain",
        "label-name": "Myofascial Pain"
      },
      "recommendation": "no_recommendation",
      "questions": [],
      "mtus-text": "No Recommendation. There is no recommendation for or against the home use of cryotherapies for trigger points/myofascial pain.\n\nHot and Cold Therapies\n\nStrength of Evidence – No Recommendation, Insuffcient Evidence (I)\n\nRationale: There are no quality trials. Self applications of cryotherapies using towels or reusable devices are not invasive, without complications and do not have any appreciable costs. As there is no evidence as well as there are concerns cryotherapy may be unhelpful for these patients, there is no recommendation."
    }
  ],
  "references": {
    "mtus-link": "https://app.mdguidelines.com/acoem-section/state-guidelines%2Fca-mtus%2Fshoulder-disorders%2Ftreatment-recommendations%2Frotator-cuff%2Fhot-and-cold,https://app.mdguidelines.com/acoem-section/state-guidelines%2Fca-mtus%2Fshoulder-disorders%2Ftreatment-recommendations%2Ftrigger-points%2Fhot-and-cold-therapies",
    "odg-link": ""
  }
}