{
  "treatment": {
    "index-name": "hot-therapies",
    "label-name": "Hot Therapies",
    "treatment-type": "other"
  },
  "body-system": {
    "index-name": "shoulder-disorders",
    "label-name": "Shoulder Disorders"
  },
  "version": {
    "mtus": "12/01/17",
    "odg": "",
    "policy-doc": "10/25/22",
    "created-by": "Cade",
    "comments": ""
  },
  "policies": [
    {
      "source": "mtus",
      "diagnosis": {
        "index-name": "osteoarthrosis",
        "label-name": "Osteoarthrosis"
      },
      "recommendation": "no_recommendation",
      "questions": [],
      "mtus-text": "No Recommendation. There is no recommendation for or against the use of hot or cold therapies to treat patients with osteoarthrosis.\n\nHot and Cold Therapies\n\nStrength of Evidence – No Recommendation, Insuffcient Evidence (I)\n\nRationale: There are no quality trials evaluating ice or heat for management of shoulder osteoarthrosis. These are not invasive, have low adverse effects, are not costly when self-applied, although there is no evidence of their efficacy for this chronic condition and thus there is no recommendation for their use. Thresholds for use to help manage symptomatic flares are suggested to be low."
    }
  ],
  "references": {
    "mtus-link": "https://app.mdguidelines.com/acoem-section/state-guidelines%2Fca-mtus%2Fshoulder-disorders%2Ftreatment-recommendations%2Fshoulder-osteoarthrosis%2Fdevices",
    "odg-link": ""
  }
}