{
  "treatment": {
    "index-name": "hydrodilatation",
    "label-name": "Hydrodilatation",
    "treatment-type": "other"
  },
  "body-system": {
    "index-name": "shoulder-disorders",
    "label-name": "Shoulder Disorders"
  },
  "version": {
    "mtus": "12/01/17",
    "odg": "",
    "policy-doc": "10/26/22",
    "created-by": "Cade",
    "comments": ""
  },
  "policies": [
    {
      "source": "mtus",
      "diagnosis": {
        "index-name": "adhesive-capsulitis",
        "label-name": "Adhesive Capsulitis"
      },
      "recommendation": "1",
      "questions": [
        {
          "#": "1",
          "question": "Is the injured worker moderately to severely affected with pain and loss of motion?",
          "option-list": [
            {
              "option": "yes",
              "action": "2"
            },
            {
              "option": "no",
              "action": "deny"
            }
          ]
        },
        {
          "#": "2",
          "question": "Has the injured worker failed to respond sufficiently to NSAIDs, exercises, and/or injection(s)?",
          "option-list": [
            {
              "option": "yes",
              "action": "approve"
            },
            {
              "option": "no",
              "action": "deny"
            }
          ]
        }
      ],
      "mtus-text": "Recommended. Hydrodilatation is recommended for treatment of adhesive capsulitis in select patients.\n\nInjection Therapy\n\nStrength of Evidence – Recommended, Insufficient Evidence (I)\n\nIndications: Adhesive capsulitis, especially moderate to severely affected patients with pain and loss of motion who do not respond sufficiently to NSAIDs, exercises, and/or injection(s). (Loew 05)\n\nRationale: Hydrodilatation has been evaluated in moderate-quality trials, with and without arthrography, usually with steroid instillation. One moderate-quality trial suggests hydrodilatation was ineffective compared with a sham, (Buchbinder 07) and has been interpreted as suggesting the natural course is towards resolution. A moderate-quality trial found distension without arthrography superior to glucocorticosteroid injection. (Gam 98) Another moderate-quality trial suggested arthrographic distension was superior to physiotherapy alone. (Khan 05) On balance, these studies somewhat conflict, but overall appear to suggest that hydrodilatation may be effective. Hydrodilatation is invasive, has adverse effects, and is moderate to high cost. However, it is recommended for select patients in whom less invasive treatments, including injections, have failed to provide sufficient treatment."
    }
  ],
  "references": {
    "mtus-link": "https://app.mdguidelines.com/acoem-section/state-guidelines%2Fca-mtus%2Fshoulder-disorders%2Ftreatment-recommendations%2Fadhesive-capsulitis%2Finjections",
    "odg-link": ""
  }
}