{
  "treatment": {
    "index-name": "manipulation-under-anesthesia-(mua)",
    "label-name": "Manipulation Under Anesthesia (MUA)",
    "treatment-type": "other"
  },
  "body-system": {
    "index-name": "shoulder-disorders",
    "label-name": "Shoulder Disorders"
  },
  "version": {
    "mtus": "12/01/17",
    "odg": "",
    "policy-doc": "10/27/22",
    "created-by": "Cade",
    "comments": ""
  },
  "policies": [
    {
      "source": "mtus",
      "diagnosis": {
        "index-name": "adhesive-capsulitis",
        "label-name": "Adhesive Capsulitis"
      },
      "recommendation": "1",
      "questions": [
        {
          "#": "1",
          "question": "Is the injured worker moderately to severely affected with pain and loss of active motion?",
          "option-list": [
            {
              "option": "yes",
              "action": "2"
            },
            {
              "option": "no",
              "action": "deny"
            }
          ]
        },
        {
          "#": "2",
          "question": "Has the injured worker not responded sufficiently to NSAIDs, injection(s), and hydrodilatation?",
          "option-list": [
            {
              "option": "yes",
              "action": "approve"
            },
            {
              "option": "no",
              "action": "deny"
            }
          ]
        }
      ],
      "mtus-text": "Recommended. Manipulation under anesthesia is recommended for treatment of adhesive capsulitis in select patients.\n\nStrength of Evidence – Recommended, Evidence (C)\n\nIndications: Adhesive capsulitis, especially moderate to severely affected patients with pain and loss of active motion who do not respond sufficiently to NSAIDs, injection(s), and hydrodilatation. (Quraishi 07; Loew 05)\n\nFrequency/Dose/Duration: Generally, only 1 treatment performed; adequate, safe monitoring of anesthesia is required.\n\nRationale: There are a few quality trials evaluating MUA for adhesive capsulitis. (Kivimäki 07; Quraishi 07; Jacobs 09) The highest moderate-quality studies suggested modest benefits when comparing MUA with physiotherapy to physiotherapy alone and suggested modest improvements in ROM. (Kivimaki 07) A moderate-quality trial suggested that injections are of comparable efficacy to MUA. (Jacobs 09) Another moderate-quality trial suggested that hydrodilatation is superior to MUA. (Quraishi 07) One moderate-quality trial assessed adjunctive use of intra-articular glucocorticosteroid and found no evidence of benefit of the steroid. (Kivimäki 01) MUA is minimally invasive, except for the anesthesia, but has documented adverse effects, (Loew 05) and is high cost. MUA is recommended for limited use in select patients who fail other treatments with documented efficacy, but who have lower risks for adverse effects."
    }
  ],
  "references": {
    "mtus-link": "https://app.mdguidelines.com/acoem-section/state-guidelines%2Fca-mtus%2Fshoulder-disorders%2Ftreatment-recommendations%2Fadhesive-capsulitis%2Fmobilization",
    "odg-link": ""
  }
}