{
  "treatment": {
    "index-name": "mechanical-massage-device",
    "label-name": "Mechanical Massage Device",
    "treatment-type": "other"
  },
  "body-system": {
    "index-name": "shoulder-disorders",
    "label-name": "Shoulder Disorders"
  },
  "version": {
    "mtus": "12/01/17",
    "odg": "",
    "policy-doc": "10/27/22",
    "created-by": "Cade",
    "comments": ""
  },
  "policies": [
    {
      "source": "mtus",
      "diagnosis": {
        "index-name": "trigger-points",
        "label-name": "Trigger Points"
      },
      "recommendation": "deny",
      "questions": [],
      "mtus-text": "Not Recommended. The use of mechanical massage devices applied by rehabilitation service providers or massage therapists to administer massage is not recommended for trigger points/myofascial pain. (Melzack 83; Ferrell 97; Werners 99)\n\nStrength of Evidence – Not Recommended, Evidence (C)\n\nRationale: Massage is a commonly used treatment for musculoskeletal pain, (Cen 03) but few studies evaluated disorders other than LBP (Preyde 00; Kalauokalani 01; Melzack 83) and there are few quality studies for treatment of trigger points/ myofascial pain. One study of myofascial trigger points was negative. (Gam 98) Another of neck pain was negative. (Irnich 01) However, a third of diffuse musculoskeletal pain showed massage was superior to relaxation therapy. (Hasson 04) Thus, the literature suggests massage is a weakly effective treatment that is not as effective as active exercise or acupuncture. Massage is not invasive, has low risk of adverse effects aside from short-term pain, (Cherkin 01) and is moderately costly. It is recommended for treatment of chronic pain as an adjunct to a conditioning program. Mechanical devices are not recommended. The better quality studies utilized massage therapists to administer the massage treatments, suggesting that the experience of the professional and quality of the massage may be important factors. "
    },
    {
      "source": "mtus",
      "diagnosis": {
        "index-name": "myofascial-pain",
        "label-name": "Myofascial Pain"
      },
      "recommendation": "deny",
      "questions": [],
      "mtus-text": "Not Recommended. The use of mechanical massage devices applied by rehabilitation service providers or massage therapists to administer massage is not recommended for trigger points/myofascial pain. (Melzack 83; Ferrell 97; Werners 99)\n\nStrength of Evidence – Not Recommended, Evidence (C)\n\nRationale: Massage is a commonly used treatment for musculoskeletal pain, (Cen 03) but few studies evaluated disorders other than LBP (Preyde 00; Kalauokalani 01; Melzack 83) and there are few quality studies for treatment of trigger points/ myofascial pain. One study of myofascial trigger points was negative. (Gam 98) Another of neck pain was negative. (Irnich 01) However, a third of diffuse musculoskeletal pain showed massage was superior to relaxation therapy. (Hasson 04) Thus, the literature suggests massage is a weakly effective treatment that is not as effective as active exercise or acupuncture. Massage is not invasive, has low risk of adverse effects aside from short-term pain, (Cherkin 01) and is moderately costly. It is recommended for treatment of chronic pain as an adjunct to a conditioning program. Mechanical devices are not recommended. The better quality studies utilized massage therapists to administer the massage treatments, suggesting that the experience of the professional and quality of the massage may be important factors. "
    }
  ],
  "references": {
    "mtus-link": "https://app.mdguidelines.com/acoem-section/state-guidelines%2Fca-mtus%2Fshoulder-disorders%2Ftreatment-recommendations%2Ftrigger-points%2Fmanipulation-and-mobilization",
    "odg-link": ""
  }
}