{
  "treatment": {
    "index-name": "needling-without-extracorporeal-shockwave-therapy",
    "label-name": "Needling without Extracorporeal Shockwave Therapy",
    "treatment-type": "other"
  },
  "body-system": {
    "index-name": "shoulder-disorders",
    "label-name": "Shoulder Disorders"
  },
  "version": {
    "mtus": "12/01/17",
    "odg": "",
    "policy-doc": "10/28/22",
    "created-by": "Cade",
    "comments": ""
  },
  "policies": [
    {
      "source": "mtus",
      "diagnosis": {
        "index-name": "calcific-rotator-cuff-tendinitis",
        "label-name": "Calcific Rotator Cuff Tendinitis"
      },
      "recommendation": "no_recommendation",
      "questions": [],
      "mtus-text": "No Recommendation. There is no recommendation for or against the use of needling with or without extracorporeal shockwave therapy for treatment of calcific rotator cuff tendinitis.\n\nStrength of Evidence – No Recommendation, Insuffcient Evidence (I)"
    }
  ],
  "references": {
    "mtus-link": "https://app.mdguidelines.com/acoem-section/state-guidelines%2Fca-mtus%2Fshoulder-disorders%2Ftreatment-recommendations%2Frotator-cuff%2Finjections",
    "odg-link": ""
  }
}