{
  "treatment": {
    "index-name": "non-operative-treatment",
    "label-name": "Non-operative Treatment",
    "treatment-type": "other"
  },
  "body-system": {
    "index-name": "shoulder-disorders",
    "label-name": "Shoulder Disorders"
  },
  "version": {
    "mtus": "12/01/17",
    "odg": "",
    "policy-doc": "11/04/22",
    "created-by": "Cade",
    "comments": ""
  },
  "policies": [
    {
      "source": "mtus",
      "diagnosis": {
        "index-name": "clavicular-fracture",
        "label-name": "Clavicular Fracture"
      },
      "recommendation": "1",
      "questions": [
        {
          "#": "1",
          "question": "Is the patient younger and has a 2-part fracture that is non-displaced?",
          "option-list": [
            {
              "option": "yes",
              "action": "approve"
            },
            {
              "option": "no",
              "action": "deny"
            }
          ]
        }
      ],
      "mtus-text": "Recommended. Non-operative treatment is recommended for clavicular fractures.\n\nStrength of Evidence – Recommended, Evidence (C)\n\nIndications: Clavicular fractures particularly in younger patients and those with 2-part fractures that are non-displaced.\n\nFrequency/Dose/Duration: There is quality evidence some closed displaced midclavicular fractures may be successfully treated with a sling. (Judd 09) Either sling or Figure-of-8 braces may be used with evidence suggesting a simple sling is superior to figure-of eight bracing for midclavicular fractures (Andersen 87) (see Figure 31). Non-displaced fractures can be treated with either and there is not a consensus on preferred treatment as the figure-of-8 allows distal extremity movement. (Stanley 88; Andersen 87; McCandless 79; Eiff 97; Khan 09) Slings and braces are used until tenderness and crepitance is resolved. (Eiff 97)"
    },
    {
      "source": "mtus",
      "diagnosis": {
        "index-name": "proximal-humeral-fracture",
        "label-name": "Proximal Humeral Fracture"
      },
      "recommendation": "1",
      "questions": [
        {
          "#": "1",
          "question": "Does the injured worker have a non- or minimally displaced fracture?",
          "option-list": [
            {
              "option": "yes",
              "action": "approve"
            },
            {
              "option": "no",
              "action": "deny"
            }
          ]
        }
      ],
      "mtus-text": "Recommended. Non-operative treatment for proximal humeral fractures is recommended for most patients with non- or minimally displaced fractures."
    }
  ],
  "references": {
    "mtus-link": "https://app.mdguidelines.com/acoem-section/state-guidelines%2Fca-mtus%2Fshoulder-disorders%2Ftreatment-recommendations%2Fshoulder-fractures%2Fclavicular-fractures,https://app.mdguidelines.com/acoem-section/state-guidelines%2Fca-mtus%2Fshoulder-disorders%2Ftreatment-recommendations%2Fshoulder-fractures%2Fproximal",
    "odg-link": ""
  }
}