{
  "treatment": {
    "index-name": "opioids",
    "label-name": "Opioids",
    "treatment-type": "other"
  },
  "body-system": {
    "index-name": "shoulder-disorders",
    "label-name": "Shoulder Disorders"
  },
  "version": {
    "mtus": "12/01/17",
    "odg": "",
    "policy-doc": "11/09/22",
    "created-by": "Cade",
    "comments": ""
  },
  "policies": [
    {
      "source": "mtus",
      "diagnosis": {
        "index-name": "adhesive-capsulitis",
        "label-name": "Adhesive Capsulitis"
      },
      "recommendation": "1",
      "questions": [
        {
          "#": "1",
          "question": "Does the injured worker have severe pain from adhesive capsulitis?",
          "option-list": [
            {
              "option": "yes",
              "action": "2"
            },
            {
              "option": "no",
              "action": "deny"
            }
          ]
        },
        {
          "#": "2",
          "question": "Does the injured worker have severe injury with a clear rationale for use (objective functional limitations due to pain resulting from the medical problem?",
          "option-list": [
            {
              "option": "yes",
              "action": "3"
            },
            {
              "option": "no",
              "action": "deny"
            }
          ]
        },
        {
          "#": "3",
          "question": "Has the injured worker had other more efficacious treatments,  and either: failed and/or have reasonable expectations of the immediate need for an opioid to obtain sleep the evening after the injury.",
          "option-list": [
            {
              "option": "yes",
              "action": "4"
            },
            {
              "option": "no",
              "action": "deny"
            }
          ]
        },
        {
          "#": "4",
          "question": "Have prescription databases (usually referred to as Prescription Drug Monitoring Program (PDMP)) been checked and not shown evidence for conflicting opioid prescriptions from other providers or evidence of misreporting?",
          "option-list": [
            {
              "option": "yes",
              "action": "5"
            },
            {
              "option": "no",
              "action": "deny"
            }
          ]
        },
        {
          "#": "5",
          "question": "Have non-opioid prescriptions (e.g., NSAIDs, acetaminophen) absent contraindication(s) been used as the primary treatment and will accompany an opioid prescription?",
          "option-list": [
            {
              "option": "yes",
              "action": "6"
            },
            {
              "option": "no",
              "action": "deny"
            }
          ]
        },
        {
          "#": "6",
          "question": "Select option \"Yes\" if user has closely read and understood the following. \n1) Low-dose opioids may be needed in the elderly who have greater susceptibility to the adverse risks of opioids. Those of lower body weight may also require lower opioid doses.\n\n2)Dispensing quantities should be only what is needed to treat the pain. Short-acting opioids are recommended for treatment of acute pain. Long-acting opioids are not recommended.",
          "option-list": [
            {
              "option": "yes",
              "action": "7"
            },
            {
              "option": "no",
              "action": "deny"
            }
          ]
        },
        {
          "#": "7",
          "question": "Due to greater than 10-fold elevated risks of adverse effects and death, considerable caution is warranted among those using other sedating medications and substances including: i) benzodiazepines, ii) anti-histamines (H1-blockers), and/or iii) illicit substances.(105, 109, 167, 168) Patients should not receive opioids if they use illicit substances unless there is objective evidence of significant trauma or moderate to severe injuries. Considerable caution is also warranted among those who are unemployed as the reported risks of death are also greater than 10-fold.(109, 167) Due to elevated risk of death and adverse effects, caution is also warranted when considering prescribing an opioid for patients with any of the following characteristics: depression, anxiety, personality disorder, untreated sleep disorders, substance abuse history, current alcohol use or current tobacco use, attention deficit hyperactivity disorder (ADHD), post-traumatic stress disorder (PTSD), suicidal risk, impulse control problems, thought disorders, psychotropic medication use, chronic obstructive pulmonary disease (COPD), asthma, or recurrent pneumonia.(78, 102, 104, 108, 109, 169-186) Considerable caution is also warranted among those with other comorbidities such as chronic hepatitis and/or cirrhosis,(187) as well as coronary artery disease, dysrhythmias, cerebrovascular disease, orthostatic hypotension, asthma, recurrent pneumonia, thermoregulatory problems, advanced age (especially with mentation issues, fall risk, debility), osteopenia, osteoporosis, water retention, renal failure, severe obesity, testosterone deficiency, erectile dysfunction, abdominal pain, gastroparesis, constipation, prostatic hypertrophy, oligomenorrhea, pregnancy, human immunodeficiency virus (HIV), ineffective birth control, herpes, allodynia, dementia, cognitive dysfunction and impairment, gait problems, tremor, concentration problems, insomnia, coordination problems, and slow reaction time. There are considerable drug-drug interactions that have been reported (see Opioids Guideline, Appendices 2-3). Does the injured worker have contraindications for taking opioids as described above?",
          "option-list": [
            {
              "option": "yes",
              "action": "deny"
            },
            {
              "option": "no",
              "action": "approve"
            }
          ]
        }
      ],
      "mtus-text": "Recommended. Judicious use of opioids is recommended for pain management for select patients with severe adhesive capsulitis.\n\nStrength of Evidence – Recommended, Insufficient Evidence (I)\n\nIndications: Patients with acute pain should meet all of the following:\n\n\t1)   Severe injury with a clear rationale for use (objective functional limitations due to pain resulting from the medical problem.\n\n\t2)   Other more efficacious treatments should have been instituted,  and either:\n\n\t2a) failed and/or\n\n\t2b) have reasonable expectations of the immediate need for an opioid to obtain sleep the evening after the injury.\n\n\t3)   Where available, prescription databases (usually referred to as Prescription Drug Monitoring Program (PDMP)) should be checked and not show evidence for conflicting opioid \t\tprescriptions from other providers or evidence of misreporting.\n\n\t4)   Non-opioid prescriptions (e.g., NSAIDs, acetaminophen) absent contraindication(s) should nearly always be the primary treatment and accompany an opioid prescription.\n\n\t5)   Low-dose opioids may be needed in the elderly who have greater susceptibility to the adverse risks of opioids. Those of lower body weight may also require lower opioid doses.\n\n\t6)   Dispensing quantities should be only what is needed to treat the pain. Short-acting opioids are recommended for treatment of acute pain. Long-acting opioids are not recommended.\n\n\t7)   Due to greater than 10-fold elevated risks of adverse effects and death, considerable caution is warranted among those using other sedating medications and substances including: i) benzodiazepines, ii) anti-histamines (H1-blockers), and/or iii) illicit substances.(105, 109, 167, 168) Patients should not receive opioids if they use illicit substances unless there is objective evidence of significant trauma or moderate to severe injuries. Considerable caution is also warranted among those who are unemployed as the reported risks of death are also greater than 10-fold.(109, 167) Due to elevated risk of death and adverse effects, caution is also warranted when considering prescribing an opioid for patients with any of the following characteristics: depression, anxiety, personality disorder, untreated sleep disorders, substance abuse history, current alcohol use or current tobacco use, attention deficit hyperactivity disorder (ADHD), post-traumatic stress disorder (PTSD), suicidal risk, impulse control problems, thought disorders, psychotropic medication use, chronic obstructive pulmonary disease (COPD), asthma, or recurrent pneumonia.(78, 102, 104, 108, 109, 169-186) Considerable caution is also warranted among those with other comorbidities such as chronic hepatitis and/or cirrhosis,(187) as well as coronary artery disease, dysrhythmias, cerebrovascular disease, orthostatic hypotension, asthma, recurrent pneumonia, thermoregulatory problems, advanced age (especially with mentation issues, fall risk, debility), osteopenia, osteoporosis, water retention, renal failure, severe obesity, testosterone deficiency, erectile dysfunction, abdominal pain, gastroparesis, constipation, prostatic hypertrophy, oligomenorrhea, pregnancy, human immunodeficiency virus (HIV), ineffective birth control, herpes, allodynia, dementia, cognitive dysfunction and impairment, gait problems, tremor, concentration problems, insomnia, coordination problems, and slow reaction time. There are considerable drug-drug interactions that have been reported (see Opioids Guideline, Appendices 2-3).\n\nFrequency/Duration: Generally, opioids should be prescribed at night or while not working.(82) Lowest effective, short-acting opioid doses are preferable as they tend to have the better safety profiles, less risk of escalation,(188) less risk of lost time from work,(112) and faster return to work.(189) Short-acting opioids are recommended for treatment of acute pain and long-acting opioids are not recommended. Recommend opioid use as required by pain, rather than in regularly scheduled dosing.\n\nIf parenteral administration is required, ketorolac has demonstrated superior efficacy compared with opioids for acute severe pain,(190, 191) although ketorolac’s risk profile may limit use for some patients. Parenteral opioid administration outside of obvious acute trauma or surgical emergency conditions is almost never required, and requests for such treatment are clinically viewed as red flags for potential substance abuse.\n\nIndications for Discontinuation:  Resolution of pain, sufficient improvement in pain, intolerance or adverse effects, non-compliance, surreptitious medication use, consumption of medications or substances advised to not take concomitantly (e.g., sedating medications, alcohol, benzodiazepines), or use beyond 2 weeks.\n\nHarms: Adverse effects are many (see section below on “Opioids Benefits and Harms”).\n\nBenefits: Improved short-term pain control."
    },
    {
      "source": "mtus",
      "diagnosis": {
        "index-name": "acromioclavicular-dislocation",
        "label-name": "Acromioclavicular Dislocation"
      },
      "recommendation": "1",
      "questions": [
        {
          "#": "1",
          "question": "Does the injured worker have pain from severe acromioclavicular sprain or dislocation?",
          "option-list": [
            {
              "option": "yes",
              "action": "2"
            },
            {
              "option": "no",
              "action": "deny"
            }
          ]
        },
        {
          "#": "2",
          "question": "Does the injured worker have severe injury with a clear rationale for use (objective functional limitations due to pain resulting from the medical problem?",
          "option-list": [
            {
              "option": "yes",
              "action": "3"
            },
            {
              "option": "no",
              "action": "deny"
            }
          ]
        },
        {
          "#": "3",
          "question": "Has the injured worker had other more efficacious treatments,  and either: failed and/or have reasonable expectations of the immediate need for an opioid to obtain sleep the evening after the injury.",
          "option-list": [
            {
              "option": "yes",
              "action": "4"
            },
            {
              "option": "no",
              "action": "deny"
            }
          ]
        },
        {
          "#": "4",
          "question": "Have prescription databases (usually referred to as Prescription Drug Monitoring Program (PDMP)) been checked and not shown evidence for conflicting opioid prescriptions from other providers or evidence of misreporting?",
          "option-list": [
            {
              "option": "yes",
              "action": "5"
            },
            {
              "option": "no",
              "action": "deny"
            }
          ]
        },
        {
          "#": "5",
          "question": "Have non-opioid prescriptions (e.g., NSAIDs, acetaminophen) absent contraindication(s) been used as the primary treatment and will accompany an opioid prescription?",
          "option-list": [
            {
              "option": "yes",
              "action": "6"
            },
            {
              "option": "no",
              "action": "deny"
            }
          ]
        },
        {
          "#": "6",
          "question": "Select option \"Yes\" if user has closely read and understood the following. \n1) Low-dose opioids may be needed in the elderly who have greater susceptibility to the adverse risks of opioids. Those of lower body weight may also require lower opioid doses.\n\n2)Dispensing quantities should be only what is needed to treat the pain. Short-acting opioids are recommended for treatment of acute pain. Long-acting opioids are not recommended.",
          "option-list": [
            {
              "option": "yes",
              "action": "7"
            },
            {
              "option": "no",
              "action": "deny"
            }
          ]
        },
        {
          "#": "7",
          "question": "Due to greater than 10-fold elevated risks of adverse effects and death, considerable caution is warranted among those using other sedating medications and substances including: i) benzodiazepines, ii) anti-histamines (H1-blockers), and/or iii) illicit substances.(105, 109, 167, 168) Patients should not receive opioids if they use illicit substances unless there is objective evidence of significant trauma or moderate to severe injuries. Considerable caution is also warranted among those who are unemployed as the reported risks of death are also greater than 10-fold.(109, 167) Due to elevated risk of death and adverse effects, caution is also warranted when considering prescribing an opioid for patients with any of the following characteristics: depression, anxiety, personality disorder, untreated sleep disorders, substance abuse history, current alcohol use or current tobacco use, attention deficit hyperactivity disorder (ADHD), post-traumatic stress disorder (PTSD), suicidal risk, impulse control problems, thought disorders, psychotropic medication use, chronic obstructive pulmonary disease (COPD), asthma, or recurrent pneumonia.(78, 102, 104, 108, 109, 169-186) Considerable caution is also warranted among those with other comorbidities such as chronic hepatitis and/or cirrhosis,(187) as well as coronary artery disease, dysrhythmias, cerebrovascular disease, orthostatic hypotension, asthma, recurrent pneumonia, thermoregulatory problems, advanced age (especially with mentation issues, fall risk, debility), osteopenia, osteoporosis, water retention, renal failure, severe obesity, testosterone deficiency, erectile dysfunction, abdominal pain, gastroparesis, constipation, prostatic hypertrophy, oligomenorrhea, pregnancy, human immunodeficiency virus (HIV), ineffective birth control, herpes, allodynia, dementia, cognitive dysfunction and impairment, gait problems, tremor, concentration problems, insomnia, coordination problems, and slow reaction time. There are considerable drug-drug interactions that have been reported (see Opioids Guideline, Appendices 2-3). Does the injured worker have contraindications for taking opioids as described above?",
          "option-list": [
            {
              "option": "yes",
              "action": "deny"
            },
            {
              "option": "no",
              "action": "approve"
            }
          ]
        }
      ],
      "mtus-text": "Recommended. Judicious use of opioids is recommended for pain management for select patients with severe acromioclavicular sprains or dislocations.\n\nStrength of Evidence – Recommended, Insufficient Evidence (I)    \n\nIndications: Patients should meet all of the following:\n\n1)   Severe injury with a clear rationale for use (objective functional limitations due to pain resulting from the medical problem.\n\n2)   Other more efficacious treatments should have been instituted,  and either:\n\n2a) failed and/or\n\n2b) have reasonable expectations of the immediate need for an opioid to obtain sleep the evening after the injury.\n\n3)   Where available, prescription databases (usually referred to as Prescription Drug Monitoring Program (PDMP)) should be checked and not show evidence for conflicting opioid prescriptions from other providers or evidence of misreporting.\n\n4)   Non-opioid prescriptions (e.g., NSAIDs, acetaminophen) absent contraindication(s) should nearly always be the primary treatment and accompany an opioid prescription.\n\n5)   Low-dose opioids may be needed in the elderly who have greater susceptibility to the adverse risks of opioids. Those of lower body weight may also require lower opioid doses.\n\n6)   Dispensing quantities should be only what is needed to treat the pain. Short-acting opioids are recommended for treatment of acute pain. Long-acting opioids are not recommended.\n\n7)   Due to greater than 10-fold elevated risks of adverse effects and death, considerable caution is warranted among those using other sedating medications and substances including: i) benzodiazepines, ii) anti-histamines (H1-blockers), and/or iii) illicit substances.(105, 109, 167, 168) Patients should not receive opioids if they use illicit substances unless there is objective evidence of significant trauma or moderate to severe injuries. Considerable caution is also warranted among those who are unemployed as the reported risks of death are also greater than 10-fold.(109, 167) Due to elevated risk of death and adverse effects, caution is also warranted when considering prescribing an opioid for patients with any of the following characteristics: depression, anxiety, personality disorder, untreated sleep disorders, substance abuse history, current alcohol use or current tobacco use, attention deficit hyperactivity disorder (ADHD), post-traumatic stress disorder (PTSD), suicidal risk, impulse control problems, thought disorders, psychotropic medication use, chronic obstructive pulmonary disease (COPD), asthma, or recurrent pneumonia.(78, 102, 104, 108, 109, 169-186) Considerable caution is also warranted among those with other comorbidities such as chronic hepatitis and/or cirrhosis,(187) as well as coronary artery disease, dysrhythmias, cerebrovascular disease, orthostatic hypotension, asthma, recurrent pneumonia, thermoregulatory problems, advanced age (especially with mentation issues, fall risk, debility), osteopenia, osteoporosis, water retention, renal failure, severe obesity, testosterone deficiency, erectile dysfunction, abdominal pain, gastroparesis, constipation, prostatic hypertrophy, oligomenorrhea, pregnancy, human immunodeficiency virus (HIV), ineffective birth control, herpes, allodynia, dementia, cognitive dysfunction and impairment, gait problems, tremor, concentration problems, insomnia, coordination problems, and slow reaction time. There are considerable drug-drug interactions that have been reported (see Opioids Guideline, Appendices 2-3).\n\nFrequency/Duration: Generally, opioids should be prescribed at night or while not working.(82) Lowest effective, short-acting opioid doses are preferable as they tend to have the better safety profiles, less risk of escalation,(188) less risk of lost time from work,(112) and faster return to work.(189) Short-acting opioids are recommended for treatment of acute pain and long-acting opioids are not recommended. Recommend opioid use as required by pain, rather than in regularly scheduled dosing.\n\nIf parenteral administration is required, ketorolac has demonstrated superior efficacy compared with opioids for acute severe pain,(190, 191) although ketorolac’s risk profile may limit use for some patients. Parenteral opioid administration outside of obvious acute trauma or surgical emergency conditions is almost never required, and requests for such treatment are clinically viewed as red flags for potential substance abuse.\n\nIndications for Discontinuation: Resolution of pain, sufficient improvement in pain, intolerance or adverse effects, non-compliance, surreptitious medication use, consumption of medications or substances advised to not take concomitantly (e.g., sedating medications, alcohol, benzodiazepines), or use beyond 2 weeks.\n\nHarms: Adverse effects are many (see section below on “Opioids Benefits and Harms”).\n\nBenefits: Improved short-term pain control.\n\nRationale: There are no quality trials evaluating the use of medications for treatment of AC sprains and separations. One trial compared naproxen to piroxicam for treatment of disparate acute MSDs, but that trial did not primarily involve these patients. (McIlwain 88) However, NSAIDs have been evaluated in many musculoskeletal disorders and found to be uniformly effective (see Low Back Disorders Guideline and Rotator Cuff Tendinopathies). NSAIDs and acetaminophen are not invasive and have low adverse effects profiles, particularly when used for short courses in occupational populations. Generic or over-the-counter formulations are low cost. NSAIDs and acetaminophen also may help avoid treatment with opioids which have worse adverse effect profiles (see Chronic Pain Guideline). NSAIDs and acetaminophen are recommended for treatment of acute, subacute, chronic, and post-operative AC sprain and separation patients. By analogy to treatment of other musculoskeletal conditions such as low back pain (see Low Back Disorders Guideline), acetaminophen is believed to be less efficacious, although it generally has a lower adverse effect profile.\n\nThere are no quality studies evaluating opioids for treatment of AC sprain and separation patients (see Rotator Cuff Tendinopathies and Chronic Pain Guideline), thus quality evidence of long-term efficacy is lacking. Opioids have adverse effects with considerable risk of mortality. For patients with severe pain, particularly acute sprain or dislocation patients, in whom a brief use of opioids, especially to facilitate sleep, is recommended. Opioids are not invasive, have high adverse effects for a pharmaceutical (although tolerance may develop relatively rapidly), and are low cost when generic formulations are used."
    },
    {
      "source": "mtus",
      "diagnosis": {
        "index-name": "acromioclavicular-sprain",
        "label-name": "Acromioclavicular Sprain"
      },
      "recommendation": "1",
      "questions": [
        {
          "#": "1",
          "question": "Does the injured worker have pain from severe acromioclavicular sprain or dislocation?",
          "option-list": [
            {
              "option": "yes",
              "action": "2"
            },
            {
              "option": "no",
              "action": "deny"
            }
          ]
        },
        {
          "#": "2",
          "question": "Does the injured worker have severe injury with a clear rationale for use (objective functional limitations due to pain resulting from the medical problem?",
          "option-list": [
            {
              "option": "yes",
              "action": "3"
            },
            {
              "option": "no",
              "action": "deny"
            }
          ]
        },
        {
          "#": "3",
          "question": "Has the injured worker had other more efficacious treatments,  and either: failed and/or have reasonable expectations of the immediate need for an opioid to obtain sleep the evening after the injury.",
          "option-list": [
            {
              "option": "yes",
              "action": "4"
            },
            {
              "option": "no",
              "action": "deny"
            }
          ]
        },
        {
          "#": "4",
          "question": "Have prescription databases (usually referred to as Prescription Drug Monitoring Program (PDMP)) been checked and not shown evidence for conflicting opioid prescriptions from other providers or evidence of misreporting?",
          "option-list": [
            {
              "option": "yes",
              "action": "5"
            },
            {
              "option": "no",
              "action": "deny"
            }
          ]
        },
        {
          "#": "5",
          "question": "Have non-opioid prescriptions (e.g., NSAIDs, acetaminophen) absent contraindication(s) been used as the primary treatment and will accompany an opioid prescription?",
          "option-list": [
            {
              "option": "yes",
              "action": "6"
            },
            {
              "option": "no",
              "action": "deny"
            }
          ]
        },
        {
          "#": "6",
          "question": "Select option \"Yes\" if user has closely read and understood the following. \n1) Low-dose opioids may be needed in the elderly who have greater susceptibility to the adverse risks of opioids. Those of lower body weight may also require lower opioid doses.\n\n2)Dispensing quantities should be only what is needed to treat the pain. Short-acting opioids are recommended for treatment of acute pain. Long-acting opioids are not recommended.",
          "option-list": [
            {
              "option": "yes",
              "action": "7"
            },
            {
              "option": "no",
              "action": "deny"
            }
          ]
        },
        {
          "#": "7",
          "question": "Due to greater than 10-fold elevated risks of adverse effects and death, considerable caution is warranted among those using other sedating medications and substances including: i) benzodiazepines, ii) anti-histamines (H1-blockers), and/or iii) illicit substances.(105, 109, 167, 168) Patients should not receive opioids if they use illicit substances unless there is objective evidence of significant trauma or moderate to severe injuries. Considerable caution is also warranted among those who are unemployed as the reported risks of death are also greater than 10-fold.(109, 167) Due to elevated risk of death and adverse effects, caution is also warranted when considering prescribing an opioid for patients with any of the following characteristics: depression, anxiety, personality disorder, untreated sleep disorders, substance abuse history, current alcohol use or current tobacco use, attention deficit hyperactivity disorder (ADHD), post-traumatic stress disorder (PTSD), suicidal risk, impulse control problems, thought disorders, psychotropic medication use, chronic obstructive pulmonary disease (COPD), asthma, or recurrent pneumonia.(78, 102, 104, 108, 109, 169-186) Considerable caution is also warranted among those with other comorbidities such as chronic hepatitis and/or cirrhosis,(187) as well as coronary artery disease, dysrhythmias, cerebrovascular disease, orthostatic hypotension, asthma, recurrent pneumonia, thermoregulatory problems, advanced age (especially with mentation issues, fall risk, debility), osteopenia, osteoporosis, water retention, renal failure, severe obesity, testosterone deficiency, erectile dysfunction, abdominal pain, gastroparesis, constipation, prostatic hypertrophy, oligomenorrhea, pregnancy, human immunodeficiency virus (HIV), ineffective birth control, herpes, allodynia, dementia, cognitive dysfunction and impairment, gait problems, tremor, concentration problems, insomnia, coordination problems, and slow reaction time. There are considerable drug-drug interactions that have been reported (see Opioids Guideline, Appendices 2-3). Does the injured worker have contraindications for taking opioids as described above?",
          "option-list": [
            {
              "option": "yes",
              "action": "deny"
            },
            {
              "option": "no",
              "action": "approve"
            }
          ]
        }
      ],
      "mtus-text": "Recommended. Judicious use of opioids is recommended for pain management for select patients with severe acromioclavicular sprains or dislocations.\n\nStrength of Evidence – Recommended, Insufficient Evidence (I)    \n\nIndications: Patients should meet all of the following:\n\n1)   Severe injury with a clear rationale for use (objective functional limitations due to pain resulting from the medical problem.\n\n2)   Other more efficacious treatments should have been instituted,  and either:\n\n2a) failed and/or\n\n2b) have reasonable expectations of the immediate need for an opioid to obtain sleep the evening after the injury.\n\n3)   Where available, prescription databases (usually referred to as Prescription Drug Monitoring Program (PDMP)) should be checked and not show evidence for conflicting opioid prescriptions from other providers or evidence of misreporting.\n\n4)   Non-opioid prescriptions (e.g., NSAIDs, acetaminophen) absent contraindication(s) should nearly always be the primary treatment and accompany an opioid prescription.\n\n5)   Low-dose opioids may be needed in the elderly who have greater susceptibility to the adverse risks of opioids. Those of lower body weight may also require lower opioid doses.\n\n6)   Dispensing quantities should be only what is needed to treat the pain. Short-acting opioids are recommended for treatment of acute pain. Long-acting opioids are not recommended.\n\n7)   Due to greater than 10-fold elevated risks of adverse effects and death, considerable caution is warranted among those using other sedating medications and substances including: i) benzodiazepines, ii) anti-histamines (H1-blockers), and/or iii) illicit substances.(105, 109, 167, 168) Patients should not receive opioids if they use illicit substances unless there is objective evidence of significant trauma or moderate to severe injuries. Considerable caution is also warranted among those who are unemployed as the reported risks of death are also greater than 10-fold.(109, 167) Due to elevated risk of death and adverse effects, caution is also warranted when considering prescribing an opioid for patients with any of the following characteristics: depression, anxiety, personality disorder, untreated sleep disorders, substance abuse history, current alcohol use or current tobacco use, attention deficit hyperactivity disorder (ADHD), post-traumatic stress disorder (PTSD), suicidal risk, impulse control problems, thought disorders, psychotropic medication use, chronic obstructive pulmonary disease (COPD), asthma, or recurrent pneumonia.(78, 102, 104, 108, 109, 169-186) Considerable caution is also warranted among those with other comorbidities such as chronic hepatitis and/or cirrhosis,(187) as well as coronary artery disease, dysrhythmias, cerebrovascular disease, orthostatic hypotension, asthma, recurrent pneumonia, thermoregulatory problems, advanced age (especially with mentation issues, fall risk, debility), osteopenia, osteoporosis, water retention, renal failure, severe obesity, testosterone deficiency, erectile dysfunction, abdominal pain, gastroparesis, constipation, prostatic hypertrophy, oligomenorrhea, pregnancy, human immunodeficiency virus (HIV), ineffective birth control, herpes, allodynia, dementia, cognitive dysfunction and impairment, gait problems, tremor, concentration problems, insomnia, coordination problems, and slow reaction time. There are considerable drug-drug interactions that have been reported (see Opioids Guideline, Appendices 2-3).\n\nFrequency/Duration: Generally, opioids should be prescribed at night or while not working.(82) Lowest effective, short-acting opioid doses are preferable as they tend to have the better safety profiles, less risk of escalation,(188) less risk of lost time from work,(112) and faster return to work.(189) Short-acting opioids are recommended for treatment of acute pain and long-acting opioids are not recommended. Recommend opioid use as required by pain, rather than in regularly scheduled dosing.\n\nIf parenteral administration is required, ketorolac has demonstrated superior efficacy compared with opioids for acute severe pain,(190, 191) although ketorolac’s risk profile may limit use for some patients. Parenteral opioid administration outside of obvious acute trauma or surgical emergency conditions is almost never required, and requests for such treatment are clinically viewed as red flags for potential substance abuse.\n\nIndications for Discontinuation: Resolution of pain, sufficient improvement in pain, intolerance or adverse effects, non-compliance, surreptitious medication use, consumption of medications or substances advised to not take concomitantly (e.g., sedating medications, alcohol, benzodiazepines), or use beyond 2 weeks.\n\nHarms: Adverse effects are many (see section below on “Opioids Benefits and Harms”).\n\nBenefits: Improved short-term pain control.\n\nRationale: There are no quality trials evaluating the use of medications for treatment of AC sprains and separations. One trial compared naproxen to piroxicam for treatment of disparate acute MSDs, but that trial did not primarily involve these patients. (McIlwain 88) However, NSAIDs have been evaluated in many musculoskeletal disorders and found to be uniformly effective (see Low Back Disorders Guideline and Rotator Cuff Tendinopathies). NSAIDs and acetaminophen are not invasive and have low adverse effects profiles, particularly when used for short courses in occupational populations. Generic or over-the-counter formulations are low cost. NSAIDs and acetaminophen also may help avoid treatment with opioids which have worse adverse effect profiles (see Chronic Pain Guideline). NSAIDs and acetaminophen are recommended for treatment of acute, subacute, chronic, and post-operative AC sprain and separation patients. By analogy to treatment of other musculoskeletal conditions such as low back pain (see Low Back Disorders Guideline), acetaminophen is believed to be less efficacious, although it generally has a lower adverse effect profile.\n\nThere are no quality studies evaluating opioids for treatment of AC sprain and separation patients (see Rotator Cuff Tendinopathies and Chronic Pain Guideline), thus quality evidence of long-term efficacy is lacking. Opioids have adverse effects with considerable risk of mortality. For patients with severe pain, particularly acute sprain or dislocation patients, in whom a brief use of opioids, especially to facilitate sleep, is recommended. Opioids are not invasive, have high adverse effects for a pharmaceutical (although tolerance may develop relatively rapidly), and are low cost when generic formulations are used."
    },
    {
      "source": "mtus",
      "diagnosis": {
        "index-name": "acute-shoulder-dislocation",
        "label-name": "Acute Shoulder Dislocation"
      },
      "recommendation": "1",
      "questions": [
        {
          "#": "1",
          "question": "Does the injured worker have acute, moderate to severe pain associated with shoulder dislocation?",
          "option-list": [
            {
              "option": "yes",
              "action": "2"
            },
            {
              "option": "no",
              "action": "deny"
            }
          ]
        },
        {
          "#": "2",
          "question": "Does the injured worker have severe injury with a clear rationale for use (objective functional limitations due to pain resulting from the medical problem?",
          "option-list": [
            {
              "option": "yes",
              "action": "3"
            },
            {
              "option": "no",
              "action": "deny"
            }
          ]
        },
        {
          "#": "3",
          "question": "Has the injured worker had other more efficacious treatments,  and either: failed and/or have reasonable expectations of the immediate need for an opioid to obtain sleep the evening after the injury.",
          "option-list": [
            {
              "option": "yes",
              "action": "4"
            },
            {
              "option": "no",
              "action": "deny"
            }
          ]
        },
        {
          "#": "4",
          "question": "Have prescription databases (usually referred to as Prescription Drug Monitoring Program (PDMP)) been checked and not shown evidence for conflicting opioid prescriptions from other providers or evidence of misreporting?",
          "option-list": [
            {
              "option": "yes",
              "action": "5"
            },
            {
              "option": "no",
              "action": "deny"
            }
          ]
        },
        {
          "#": "5",
          "question": "Have non-opioid prescriptions (e.g., NSAIDs, acetaminophen) absent contraindication(s) been used as the primary treatment and will accompany an opioid prescription?",
          "option-list": [
            {
              "option": "yes",
              "action": "6"
            },
            {
              "option": "no",
              "action": "deny"
            }
          ]
        },
        {
          "#": "6",
          "question": "Select option \"Yes\" if user has closely read and understood the following. \n1) Low-dose opioids may be needed in the elderly who have greater susceptibility to the adverse risks of opioids. Those of lower body weight may also require lower opioid doses.\n\n2)Dispensing quantities should be only what is needed to treat the pain. Short-acting opioids are recommended for treatment of acute pain. Long-acting opioids are not recommended.",
          "option-list": [
            {
              "option": "yes",
              "action": "7"
            },
            {
              "option": "no",
              "action": "deny"
            }
          ]
        },
        {
          "#": "7",
          "question": "Due to greater than 10-fold elevated risks of adverse effects and death, considerable caution is warranted among those using other sedating medications and substances including: i) benzodiazepines, ii) anti-histamines (H1-blockers), and/or iii) illicit substances.(105, 109, 167, 168) Patients should not receive opioids if they use illicit substances unless there is objective evidence of significant trauma or moderate to severe injuries. Considerable caution is also warranted among those who are unemployed as the reported risks of death are also greater than 10-fold.(109, 167) Due to elevated risk of death and adverse effects, caution is also warranted when considering prescribing an opioid for patients with any of the following characteristics: depression, anxiety, personality disorder, untreated sleep disorders, substance abuse history, current alcohol use or current tobacco use, attention deficit hyperactivity disorder (ADHD), post-traumatic stress disorder (PTSD), suicidal risk, impulse control problems, thought disorders, psychotropic medication use, chronic obstructive pulmonary disease (COPD), asthma, or recurrent pneumonia.(78, 102, 104, 108, 109, 169-186) Considerable caution is also warranted among those with other comorbidities such as chronic hepatitis and/or cirrhosis,(187) as well as coronary artery disease, dysrhythmias, cerebrovascular disease, orthostatic hypotension, asthma, recurrent pneumonia, thermoregulatory problems, advanced age (especially with mentation issues, fall risk, debility), osteopenia, osteoporosis, water retention, renal failure, severe obesity, testosterone deficiency, erectile dysfunction, abdominal pain, gastroparesis, constipation, prostatic hypertrophy, oligomenorrhea, pregnancy, human immunodeficiency virus (HIV), ineffective birth control, herpes, allodynia, dementia, cognitive dysfunction and impairment, gait problems, tremor, concentration problems, insomnia, coordination problems, and slow reaction time. There are considerable drug-drug interactions that have been reported (see Opioids Guideline, Appendices 2-3). Does the injured worker have contraindications for taking opioids as described above?",
          "option-list": [
            {
              "option": "yes",
              "action": "deny"
            },
            {
              "option": "no",
              "action": "approve"
            }
          ]
        }
      ],
      "mtus-text": "Recommended. Judicious short-term use of opioids is recommended for pain management for select patients with acute moderate to severe pain associated with shoulder dislocation.\n\nStrength of Evidence – Recommended, Insufficient Evidence (I)\n\nIndications: Patients should meet all of the following:\n\n1)   Severe injury with a clear rationale for use (objective functional limitations due to pain resulting from the medical problem.\n\n2)   Other more efficacious treatments should have been instituted,  and either:\n\n2a) failed and/or\n\n2b) have reasonable expectations of the immediate need for an opioid to obtain sleep the evening after the injury.\n\n3)   Where available, prescription databases (usually referred to as Prescription Drug Monitoring Program (PDMP)) should be checked and not show evidence for conflicting opioid prescriptions from other providers or evidence of misreporting.\n\n4)   Non-opioid prescriptions (e.g., NSAIDs, acetaminophen) absent contraindication(s) should nearly always be the primary treatment and accompany an opioid prescription.\n\n5)   Low-dose opioids may be needed in the elderly who have greater susceptibility to the adverse risks of opioids. Those of lower body weight may also require lower opioid doses.\n\n6)   Dispensing quantities should be only what is needed to treat the pain. Short-acting opioids are recommended for treatment of acute pain. Long-acting opioids are not recommended.\n\n7)   Due to greater than 10-fold elevated risks of adverse effects and death, considerable caution is warranted among those using other sedating medications and substances including: i) benzodiazepines, ii) anti-histamines (H1-blockers), and/or iii) illicit substances.(105, 109, 167, 168) Patients should not receive opioids if they use illicit substances unless there is objective evidence of significant trauma or moderate to severe injuries. Considerable caution is also warranted among those who are unemployed as the reported risks of death are also greater than 10-fold.(109, 167) Due to elevated risk of death and adverse effects, caution is also warranted when considering prescribing an opioid for patients with any of the following characteristics: depression, anxiety, personality disorder, untreated sleep disorders, substance abuse history, current alcohol use or current tobacco use, attention deficit hyperactivity disorder (ADHD), post-traumatic stress disorder (PTSD), suicidal risk, impulse control problems, thought disorders, psychotropic medication use, chronic obstructive pulmonary disease (COPD), asthma, or recurrent pneumonia.(78, 102, 104, 108, 109, 169-186) Considerable caution is also warranted among those with other comorbidities such as chronic hepatitis and/or cirrhosis,(187) as well as coronary artery disease, dysrhythmias, cerebrovascular disease, orthostatic hypotension, asthma, recurrent pneumonia, thermoregulatory problems, advanced age (especially with mentation issues, fall risk, debility), osteopenia, osteoporosis, water retention, renal failure, severe obesity, testosterone deficiency, erectile dysfunction, abdominal pain, gastroparesis, constipation, prostatic hypertrophy, oligomenorrhea, pregnancy, human immunodeficiency virus (HIV), ineffective birth control, herpes, allodynia, dementia, cognitive dysfunction and impairment, gait problems, tremor, concentration problems, insomnia, coordination problems, and slow reaction time. There are considerable drug-drug interactions that have been reported (see Opioids Guideline, Appendices 2-3).\n\nFrequency/Duration: Generally, opioids should be prescribed at night or while not working.(82) Lowest effective, short-acting opioid doses are preferable as they tend to have the better safety profiles, less risk of escalation,(188) less risk of lost time from work,(112) and faster return to work.(189) Short-acting opioids are recommended for treatment of acute pain and long-acting opioids are not recommended. Recommend opioid use as required by pain, rather than in regularly scheduled dosing.\n\nIf parenteral administration is required, ketorolac has demonstrated superior efficacy compared with opioids for acute severe pain,(190, 191) although ketorolac’s risk profile may limit use for some patients. Parenteral opioid administration outside of obvious acute trauma or surgical emergency conditions is almost never required, and requests for such treatment are clinically viewed as red flags for potential substance abuse.\n\nIndications for Discontinuation: Resolution of pain, sufficient improvement in pain, intolerance or adverse effects, non-compliance, surreptitious medication use, consumption of medications or substances advised to not take concomitantly (e.g., sedating medications, alcohol, benzodiazepines), or use beyond 2 weeks.\n\nHarms: Adverse effects are many (see section below on “Opioids Benefits and Harms”).\n\nBenefits: Improved short-term pain control."
    },
    {
      "source": "mtus",
      "diagnosis": {
        "index-name": "subacute-shoulder-dislocation",
        "label-name": "Subacute Shoulder Dislocation"
      },
      "recommendation": "deny",
      "questions": [],
      "mtus-text": "Not Recommended. Opioids are not recommended for pain management for patients with subacute or chronic pain associated with shoulder dislocation.\n\nStrength of Evidence – Not Recommended, Insufficient Evidence (I)"
    },
    {
      "source": "mtus",
      "diagnosis": {
        "index-name": "chronic-shoulder-dislocation",
        "label-name": "Chronic Shoulder Dislocation"
      },
      "recommendation": "deny",
      "questions": [],
      "mtus-text": "Not Recommended. Opioids are not recommended for pain management for patients with subacute or chronic pain associated with shoulder dislocation.\n\nStrength of Evidence – Not Recommended, Insufficient Evidence (I)"
    },
    {
      "source": "mtus",
      "diagnosis": {
        "index-name": "superior-labral-anterior-posterior-(slap)-tear",
        "label-name": "Superior Labral Anterior Posterior (SLAP) Tear"
      },
      "recommendation": "1",
      "questions": [
        {
          "#": "1",
          "question": "Does the injured worker have severe pain associated with superior labral anterior posterior (SLAP) or other labral tears?",
          "option-list": [
            {
              "option": "yes",
              "action": "2"
            },
            {
              "option": "no",
              "action": "deny"
            }
          ]
        },
        {
          "#": "2",
          "question": "Does the injured worker have severe injury with a clear rationale for use (objective functional limitations due to pain resulting from the medical problem?",
          "option-list": [
            {
              "option": "yes",
              "action": "3"
            },
            {
              "option": "no",
              "action": "deny"
            }
          ]
        },
        {
          "#": "3",
          "question": "Has the injured worker had other more efficacious treatments,  and either: failed and/or have reasonable expectations of the immediate need for an opioid to obtain sleep the evening after the injury?",
          "option-list": [
            {
              "option": "yes",
              "action": "4"
            },
            {
              "option": "no",
              "action": "deny"
            }
          ]
        },
        {
          "#": "4",
          "question": "Have prescription databases (usually referred to as Prescription Drug Monitoring Program (PDMP)) been checked and not shown evidence for conflicting opioid prescriptions from other providers or evidence of misreporting?",
          "option-list": [
            {
              "option": "yes",
              "action": "5"
            },
            {
              "option": "no",
              "action": "deny"
            }
          ]
        },
        {
          "#": "5",
          "question": "Have non-opioid prescriptions (e.g., NSAIDs, acetaminophen) absent contraindication(s) been used as the primary treatment and will accompany an opioid prescription?",
          "option-list": [
            {
              "option": "yes",
              "action": "6"
            },
            {
              "option": "no",
              "action": "deny"
            }
          ]
        },
        {
          "#": "6",
          "question": "Select option \"Yes\" if user has closely read and understood the following. \n1) Low-dose opioids may be needed in the elderly who have greater susceptibility to the adverse risks of opioids. Those of lower body weight may also require lower opioid doses.\n\n2)Dispensing quantities should be only what is needed to treat the pain. Short-acting opioids are recommended for treatment of acute pain. Long-acting opioids are not recommended.",
          "option-list": [
            {
              "option": "yes",
              "action": "7"
            },
            {
              "option": "no",
              "action": "deny"
            }
          ]
        },
        {
          "#": "7",
          "question": "Due to greater than 10-fold elevated risks of adverse effects and death, considerable caution is warranted among those using other sedating medications and substances including: i) benzodiazepines, ii) anti-histamines (H1-blockers), and/or iii) illicit substances.(105, 109, 167, 168) Patients should not receive opioids if they use illicit substances unless there is objective evidence of significant trauma or moderate to severe injuries. Considerable caution is also warranted among those who are unemployed as the reported risks of death are also greater than 10-fold.(109, 167) Due to elevated risk of death and adverse effects, caution is also warranted when considering prescribing an opioid for patients with any of the following characteristics: depression, anxiety, personality disorder, untreated sleep disorders, substance abuse history, current alcohol use or current tobacco use, attention deficit hyperactivity disorder (ADHD), post-traumatic stress disorder (PTSD), suicidal risk, impulse control problems, thought disorders, psychotropic medication use, chronic obstructive pulmonary disease (COPD), asthma, or recurrent pneumonia.(78, 102, 104, 108, 109, 169-186) Considerable caution is also warranted among those with other comorbidities such as chronic hepatitis and/or cirrhosis,(187) as well as coronary artery disease, dysrhythmias, cerebrovascular disease, orthostatic hypotension, asthma, recurrent pneumonia, thermoregulatory problems, advanced age (especially with mentation issues, fall risk, debility), osteopenia, osteoporosis, water retention, renal failure, severe obesity, testosterone deficiency, erectile dysfunction, abdominal pain, gastroparesis, constipation, prostatic hypertrophy, oligomenorrhea, pregnancy, human immunodeficiency virus (HIV), ineffective birth control, herpes, allodynia, dementia, cognitive dysfunction and impairment, gait problems, tremor, concentration problems, insomnia, coordination problems, and slow reaction time. There are considerable drug-drug interactions that have been reported (see Opioids Guideline, Appendices 2-3). Does the injured worker have contraindications for taking opioids as described above?",
          "option-list": [
            {
              "option": "yes",
              "action": "deny"
            },
            {
              "option": "no",
              "action": "approve"
            }
          ]
        }
      ],
      "mtus-text": "Recommended. Judicious use of opioids is recommended for pain management for select patients with severe pain associated with superior labral anterior posterior (SLAP) or other labral tears.\n\nMedications (including topical creams)\n\nStrength of Evidence – Recommended, Insufficient Evidence (I)\n\nIndications: Patients should meet all of the following:\n\n1)         Severe injury with a clear rationale for use (objective functional limitations due to pain resulting from the medical problem.\n\n2)         Other more efficacious treatments should have been instituted, and either:\n\n2a) failed and/or\n\n2b) have reasonable expectations of the immediate need for an opioid to obtain sleep the evening after the injury.\n\n3)         Where available, prescription databases (usually referred to as Prescription Drug Monitoring Program (PDMP)) should be checked and not show evidence for conflicting opioid prescriptions from other providers or evidence of misreporting.\n\n4)         Non-opioid prescriptions (e.g., NSAIDs, acetaminophen) absent contraindication(s) should nearly always be the primary treatment and accompany an opioid prescription.\n\n5)         Low-dose opioids may be needed in the elderly who have greater susceptibility to the adverse risks of opioids. Those of lower body weight may also require lower opioid doses.\n\n6)         Dispensing quantities should be only what is needed to treat the pain. Short-acting opioids are recommended for treatment of acute pain. Long-acting opioids are not recommended.\n\n7)         Due to greater than 10-fold elevated risks of adverse effects and death, considerable caution is warranted among those using other sedating medications and substances including: i) benzodiazepines, ii) anti-histamines (H1-blockers), and/or iii) illicit substances.(105, 109, 167, 168) Patients should not receive opioids if they use illicit substances unless there is objective evidence of significant trauma or moderate to severe injuries. Considerable caution is also warranted among those who are unemployed as the reported risks of death are also greater than 10-fold.(109, 167) Due to elevated risk of death and adverse effects, caution is also warranted when considering prescribing an opioid for patients with any of the following characteristics: depression, anxiety, personality disorder, untreated sleep disorders, substance abuse history, current alcohol use or current tobacco use, attention deficit hyperactivity disorder (ADHD), post-traumatic stress disorder (PTSD), suicidal risk, impulse control problems, thought disorders, psychotropic medication use, chronic obstructive pulmonary disease (COPD), asthma, or recurrent pneumonia.(78, 102, 104, 108, 109, 169-186) Considerable caution is also warranted among those with other comorbidities such as chronic hepatitis and/or cirrhosis,(187) as well as coronary artery disease, dysrhythmias, cerebrovascular disease, orthostatic hypotension, asthma, recurrent pneumonia, thermoregulatory problems, advanced age (especially with mentation issues, fall risk, debility), osteopenia, osteoporosis, water retention, renal failure, severe obesity, testosterone deficiency, erectile dysfunction, abdominal pain, gastroparesis, constipation, prostatic hypertrophy, oligomenorrhea, pregnancy, human immunodeficiency virus (HIV), ineffective birth control, herpes, allodynia, dementia, cognitive dysfunction and impairment, gait problems, tremor, concentration problems, insomnia, coordination problems, and slow reaction time. There are considerable drug-drug interactions that have been reported (see Opioids Guideline, Appendices 2-3).\n\nFrequency/Duration: Generally, opioids should be prescribed at night or while not working.(82) Lowest effective, short-acting opioid doses are preferable as they tend to have the better safety profiles, less risk of escalation,(188) less risk of lost time from work,(112) and faster return to work.(189) Short-acting opioids are recommended for treatment of acute pain and long-acting opioids are not recommended. Recommend opioid use as required by pain, rather than in regularly scheduled dosing.\n\nIf parenteral administration is required, ketorolac has demonstrated superior efficacy compared with opioids for acute severe pain,(190, 191) although ketorolac’s risk profile may limit use for some patients. Parenteral opioid administration outside of obvious acute trauma or surgical emergency conditions is almost never required, and requests for such treatment are clinically viewed as red flags for potential substance abuse.\n\nIndications for Discontinuation: Resolution of pain, sufficient improvement in pain, intolerance or adverse effects, non-compliance, surreptitious medication use, consumption of medications or substances advised to not take concomitantly (e.g., sedating medications, alcohol, benzodiazepines), or use beyond 2 weeks.\n\nHarms: Adverse effects are many (see section below on “Opioids Benefits and Harms”).\n\nBenefits: Improved short-term pain control."
    },
    {
      "source": "mtus",
      "diagnosis": {
        "index-name": "other-labral-tears",
        "label-name": "Other Labral Tears"
      },
      "recommendation": "1",
      "questions": [
        {
          "#": "1",
          "question": "Does the injured worker have severe pain associated with superior labral anterior posterior (SLAP) or other labral tears?",
          "option-list": [
            {
              "option": "yes",
              "action": "2"
            },
            {
              "option": "no",
              "action": "deny"
            }
          ]
        },
        {
          "#": "2",
          "question": "Does the injured worker have severe injury with a clear rationale for use (objective functional limitations due to pain resulting from the medical problem?",
          "option-list": [
            {
              "option": "yes",
              "action": "3"
            },
            {
              "option": "no",
              "action": "deny"
            }
          ]
        },
        {
          "#": "3",
          "question": "Has the injured worker had other more efficacious treatments,  and either: failed and/or have reasonable expectations of the immediate need for an opioid to obtain sleep the evening after the injury?",
          "option-list": [
            {
              "option": "yes",
              "action": "4"
            },
            {
              "option": "no",
              "action": "deny"
            }
          ]
        },
        {
          "#": "4",
          "question": "Have prescription databases (usually referred to as Prescription Drug Monitoring Program (PDMP)) been checked and not shown evidence for conflicting opioid prescriptions from other providers or evidence of misreporting?",
          "option-list": [
            {
              "option": "yes",
              "action": "5"
            },
            {
              "option": "no",
              "action": "deny"
            }
          ]
        },
        {
          "#": "5",
          "question": "Have non-opioid prescriptions (e.g., NSAIDs, acetaminophen) absent contraindication(s) been used as the primary treatment and will accompany an opioid prescription?",
          "option-list": [
            {
              "option": "yes",
              "action": "6"
            },
            {
              "option": "no",
              "action": "deny"
            }
          ]
        },
        {
          "#": "6",
          "question": "Select option \"Yes\" if user has closely read and understood the following. \n1) Low-dose opioids may be needed in the elderly who have greater susceptibility to the adverse risks of opioids. Those of lower body weight may also require lower opioid doses.\n\n2)Dispensing quantities should be only what is needed to treat the pain. Short-acting opioids are recommended for treatment of acute pain. Long-acting opioids are not recommended.",
          "option-list": [
            {
              "option": "yes",
              "action": "7"
            },
            {
              "option": "no",
              "action": "deny"
            }
          ]
        },
        {
          "#": "7",
          "question": "Due to greater than 10-fold elevated risks of adverse effects and death, considerable caution is warranted among those using other sedating medications and substances including: i) benzodiazepines, ii) anti-histamines (H1-blockers), and/or iii) illicit substances.(105, 109, 167, 168) Patients should not receive opioids if they use illicit substances unless there is objective evidence of significant trauma or moderate to severe injuries. Considerable caution is also warranted among those who are unemployed as the reported risks of death are also greater than 10-fold.(109, 167) Due to elevated risk of death and adverse effects, caution is also warranted when considering prescribing an opioid for patients with any of the following characteristics: depression, anxiety, personality disorder, untreated sleep disorders, substance abuse history, current alcohol use or current tobacco use, attention deficit hyperactivity disorder (ADHD), post-traumatic stress disorder (PTSD), suicidal risk, impulse control problems, thought disorders, psychotropic medication use, chronic obstructive pulmonary disease (COPD), asthma, or recurrent pneumonia.(78, 102, 104, 108, 109, 169-186) Considerable caution is also warranted among those with other comorbidities such as chronic hepatitis and/or cirrhosis,(187) as well as coronary artery disease, dysrhythmias, cerebrovascular disease, orthostatic hypotension, asthma, recurrent pneumonia, thermoregulatory problems, advanced age (especially with mentation issues, fall risk, debility), osteopenia, osteoporosis, water retention, renal failure, severe obesity, testosterone deficiency, erectile dysfunction, abdominal pain, gastroparesis, constipation, prostatic hypertrophy, oligomenorrhea, pregnancy, human immunodeficiency virus (HIV), ineffective birth control, herpes, allodynia, dementia, cognitive dysfunction and impairment, gait problems, tremor, concentration problems, insomnia, coordination problems, and slow reaction time. There are considerable drug-drug interactions that have been reported (see Opioids Guideline, Appendices 2-3). Does the injured worker have contraindications for taking opioids as described above?",
          "option-list": [
            {
              "option": "yes",
              "action": "deny"
            },
            {
              "option": "no",
              "action": "approve"
            }
          ]
        }
      ],
      "mtus-text": "Recommended. Judicious use of opioids is recommended for pain management for select patients with severe pain associated with superior labral anterior posterior (SLAP) or other labral tears.\n\nMedications (including topical creams)\n\nStrength of Evidence – Recommended, Insufficient Evidence (I)\n\nIndications: Patients should meet all of the following:\n\n1)         Severe injury with a clear rationale for use (objective functional limitations due to pain resulting from the medical problem.\n\n2)         Other more efficacious treatments should have been instituted, and either:\n\n2a) failed and/or\n\n2b) have reasonable expectations of the immediate need for an opioid to obtain sleep the evening after the injury.\n\n3)         Where available, prescription databases (usually referred to as Prescription Drug Monitoring Program (PDMP)) should be checked and not show evidence for conflicting opioid prescriptions from other providers or evidence of misreporting.\n\n4)         Non-opioid prescriptions (e.g., NSAIDs, acetaminophen) absent contraindication(s) should nearly always be the primary treatment and accompany an opioid prescription.\n\n5)         Low-dose opioids may be needed in the elderly who have greater susceptibility to the adverse risks of opioids. Those of lower body weight may also require lower opioid doses.\n\n6)         Dispensing quantities should be only what is needed to treat the pain. Short-acting opioids are recommended for treatment of acute pain. Long-acting opioids are not recommended.\n\n7)         Due to greater than 10-fold elevated risks of adverse effects and death, considerable caution is warranted among those using other sedating medications and substances including: i) benzodiazepines, ii) anti-histamines (H1-blockers), and/or iii) illicit substances.(105, 109, 167, 168) Patients should not receive opioids if they use illicit substances unless there is objective evidence of significant trauma or moderate to severe injuries. Considerable caution is also warranted among those who are unemployed as the reported risks of death are also greater than 10-fold.(109, 167) Due to elevated risk of death and adverse effects, caution is also warranted when considering prescribing an opioid for patients with any of the following characteristics: depression, anxiety, personality disorder, untreated sleep disorders, substance abuse history, current alcohol use or current tobacco use, attention deficit hyperactivity disorder (ADHD), post-traumatic stress disorder (PTSD), suicidal risk, impulse control problems, thought disorders, psychotropic medication use, chronic obstructive pulmonary disease (COPD), asthma, or recurrent pneumonia.(78, 102, 104, 108, 109, 169-186) Considerable caution is also warranted among those with other comorbidities such as chronic hepatitis and/or cirrhosis,(187) as well as coronary artery disease, dysrhythmias, cerebrovascular disease, orthostatic hypotension, asthma, recurrent pneumonia, thermoregulatory problems, advanced age (especially with mentation issues, fall risk, debility), osteopenia, osteoporosis, water retention, renal failure, severe obesity, testosterone deficiency, erectile dysfunction, abdominal pain, gastroparesis, constipation, prostatic hypertrophy, oligomenorrhea, pregnancy, human immunodeficiency virus (HIV), ineffective birth control, herpes, allodynia, dementia, cognitive dysfunction and impairment, gait problems, tremor, concentration problems, insomnia, coordination problems, and slow reaction time. There are considerable drug-drug interactions that have been reported (see Opioids Guideline, Appendices 2-3).\n\nFrequency/Duration: Generally, opioids should be prescribed at night or while not working.(82) Lowest effective, short-acting opioid doses are preferable as they tend to have the better safety profiles, less risk of escalation,(188) less risk of lost time from work,(112) and faster return to work.(189) Short-acting opioids are recommended for treatment of acute pain and long-acting opioids are not recommended. Recommend opioid use as required by pain, rather than in regularly scheduled dosing.\n\nIf parenteral administration is required, ketorolac has demonstrated superior efficacy compared with opioids for acute severe pain,(190, 191) although ketorolac’s risk profile may limit use for some patients. Parenteral opioid administration outside of obvious acute trauma or surgical emergency conditions is almost never required, and requests for such treatment are clinically viewed as red flags for potential substance abuse.\n\nIndications for Discontinuation: Resolution of pain, sufficient improvement in pain, intolerance or adverse effects, non-compliance, surreptitious medication use, consumption of medications or substances advised to not take concomitantly (e.g., sedating medications, alcohol, benzodiazepines), or use beyond 2 weeks.\n\nHarms: Adverse effects are many (see section below on “Opioids Benefits and Harms”).\n\nBenefits: Improved short-term pain control."
    },
    {
      "source": "mtus",
      "diagnosis": {
        "index-name": "severe-osteoarthrosis",
        "label-name": "Severe Osteoarthrosis"
      },
      "recommendation": "1",
      "questions": [
        {
          "#": "1",
          "question": "Does the injured worker have severe osteoarthrosis?",
          "option-list": [
            {
              "option": "yes",
              "action": "2"
            },
            {
              "option": "no",
              "action": "deny"
            }
          ]
        },
        {
          "#": "2",
          "question": "Does the injured worker have reduced function that is attributable to the pain? Pain or pain scales alone are insufficient reasons.",
          "option-list": [
            {
              "option": "yes",
              "action": "3"
            },
            {
              "option": "no",
              "action": "deny"
            }
          ]
        },
        {
          "#": "3",
          "question": "Does the injured worker have a severe disorder warranting potential opioid treatment? [e.g., advanced degenerative joint disease (DJD)?",
          "option-list": [
            {
              "option": "yes",
              "action": "4"
            },
            {
              "option": "no",
              "action": "deny"
            }
          ]
        },
        {
          "#": "4",
          "question": "Have other more efficacious treatments been documented to have failed? (1) Other approaches that should have been first utilized include physical restorative approaches, behavioral interventions, self-applied modalities, non-opioid medications (including NSAIDs, acetaminophen, topical agents, norepinephrine adrenergic reuptake blocking antidepressants or dual reuptake inhibitors; also antiepileptic medications particularly for neuropathic pain) and functional restoration. For DJD, this includes NSAIDs, weight loss, aerobic and strengthening exercises.",
          "option-list": [
            {
              "option": "yes",
              "action": "5"
            },
            {
              "option": "no",
              "action": "deny"
            }
          ]
        },
        {
          "#": "5",
          "question": "Does the injured worker have an ongoing active exercise program that is prescribed and complied with?",
          "option-list": [
            {
              "option": "yes",
              "action": "6"
            },
            {
              "option": "no",
              "action": "deny"
            }
          ]
        },
        {
          "#": "6",
          "question": "Does the injured worker have non-opioid prescriptions (e.g., NSAIDs, acetaminophen) (absent a contraindication)? These should nearly always be the primary pain medication and accompany an opioid prescription. Other medications to consider include topical agents, norepinephrine adrenergic reuptake blocking antidepressants or dual reuptake inhibitors; also antiepileptic medications particularly for neuropathic pain).",
          "option-list": [
            {
              "option": "yes",
              "action": "7"
            },
            {
              "option": "no",
              "action": "deny"
            }
          ]
        },
        {
          "#": "7",
          "question": "If the user has closely read and understood the following, select option \"Yes\".\n\nThe lowest effective dose should be used.(188) Weaker opioids should be used whenever possible.(112, 189) Meperidine is not recommended for chronic pain due to bioaccumulation and adverse effects.\n1) Low-dose opioids may be needed in the elderly who have greater susceptibility to the adverse risks of opioids. Those of lower body weight may also require lower opioid doses.\n\n2) Dispensing should be only what is needed to treat the pain.\n\n3) Extended-release/long-acting opioids are recommended to be used on a scheduled basis, rather than as needed.(1) As needed opioids should generally be avoided for treatment of chronic pain, although limited use for an acute painful event (e.g., fracture, sprain) is reasonable. Sublingual fentanyl is not recommended for treatment of subacute or chronic pain. Caution is warranted with fentanyl patches due to unpredictable absorption.",
          "option-list": [
            {
              "option": "yes",
              "action": "8"
            },
            {
              "option": "no",
              "action": "deny"
            }
          ]
        },
        {
          "#": "8",
          "question": "Have prescription databases (usually referred to as Prescription Drug Monitoring Program (PDMP)) been checked for conflicting opioid prescriptions from other providers or evidence of misreporting?",
          "option-list": [
            {
              "option": "yes",
              "action": "9"
            },
            {
              "option": "no",
              "action": "deny"
            }
          ]
        },
        {
          "#": "9",
          "question": "Due to greater than 10-fold elevated risks of adverse effects and death, considerable caution is warranted among those using other sedating medications and substances including: i) benzodiazepines, ii) anti-histamines (H1-blockers), and/or iii) illicit substances.(105, 109, 167, 168) Patients should not receive opioids if they use illicit substances unless there is objective evidence of significant trauma or moderate to severe injuries. Considerable caution is also warranted among those who are unemployed as the reported risks of death are also greater than 10-fold. As aforementioned, does the injured worker have contraindications for opioids?",
          "option-list": [
            {
              "option": "yes",
              "action": "deny"
            },
            {
              "option": "no",
              "action": "10"
            }
          ]
        },
        {
          "#": "10",
          "question": "Does the injured worker have any contraindications to opioids as described below?\n\nDue to elevated risk of death and adverse effects, caution is also warranted when considering prescribing an opioid for patients with any of the following characteristics: depression, anxiety, personality disorder, untreated sleep disorders, substance abuse history, current alcohol use or current tobacco use, ADHD, PTSD, suicidal risk, impulse control problems, thought disorders, psychotropic medication use, COPD, asthma, recurrent pneumonia.(79, 102, 104, 108, 109, 169-176, 179-186) Considerable caution is also warranted among those with other comorbidities such as chronic hepatitis and/or cirrhosis,(187) as well as coronary artery disease, dysrhythmias, cerebrovascular disease, orthostatic hypotension, asthma, recurrent pneumonia, thermoregulatory problems, advanced age (especially with mentation issues, fall risk, debility), osteopenia, osteoporosis, water retention, renal failure, severe obesity, testosterone deficiency, erectile dysfunction, abdominal pain, gastroparesis, constipation, prostatic hypertrophy, oligomenorrhea, pregnancy, HIV, ineffective birth control, herpes, allodynia, dementia, cognitive dysfunction and impairment, gait problems, tremor, concentration problems, insomnia, coordination problems, and slow reaction time. There are considerable drug-drug interactions that have been reported (see Appendices 2-3).",
          "option-list": [
            {
              "option": "yes",
              "action": "deny"
            },
            {
              "option": "no",
              "action": "approve"
            }
          ]
        }
      ],
      "mtus-text": "Recommended. Judicious use of opioids is recommended for pain management for select patients with severe osteoarthrosis.\n\nStrength of Evidence – Recommended, Insufficient Evidence (I)\n\nIndications: Patients should meet all of the following:\n\n1)         Reduced function is attributable to the pain. Pain or pain scales alone are insufficient reasons.(1, 118, 120, 167, 208-217)\n\n2)         A severe disorder warranting potential opioid treatment is present [e.g., advanced degenerative joint disease (DJD)].(1)\n\n3)         Other more efficacious treatments have been documented to have failed.(1) Other approaches that should have been first utilized include physical restorative approaches, behavioral interventions, self-applied modalities, non-opioid medications (including NSAIDs, acetaminophen, topical agents, norepinephrine adrenergic reuptake blocking antidepressants or dual reuptake inhibitors; also antiepileptic medications particularly for neuropathic pain) and functional restoration. For DJD, this includes NSAIDs, weight loss, aerobic and strengthening exercises.\n\n4)         An ongoing active exercise program is prescribed and complied with.\n\n5)         Non-opioid prescriptions (e.g., NSAIDs, acetaminophen) absent a contraindication should nearly always be the primary pain medication and accompany an opioid prescription. Other medications to consider include topical agents, norepinephrine adrenergic reuptake blocking antidepressants or dual reuptake inhibitors; also antiepileptic medications particularly for neuropathic pain).\n\n6)         The lowest effective dose should be used.(188) Weaker opioids should be used whenever possible.(112, 189) Meperidine is not recommended for chronic pain due to bioaccumulation and adverse effects.\n\n7)         Low-dose opioids may be needed in the elderly who have greater susceptibility to the adverse risks of opioids. Those of lower body weight may also require lower opioid doses.\n\n8)         Dispensing should be only what is needed to treat the pain.\n\n9)         Extended-release/long-acting opioids are recommended to be used on a scheduled basis, rather than as needed.(1) As needed opioids should generally be avoided for treatment of chronic pain, although limited use for an acute painful event (e.g., fracture, sprain) is reasonable. Sublingual fentanyl is not recommended for treatment of subacute or chronic pain. Caution is warranted with fentanyl patches due to unpredictable absorption.\n\n10)       Where available, prescription databases (usually referred to as Prescription Drug Monitoring Program (PDMP)) should be checked for conflicting opioid prescriptions from other providers or evidence of misreporting.\n\n11)       Due to greater than 10-fold elevated risks of adverse effects and death, considerable caution is warranted among those using other sedating medications and substances including: i) benzodiazepines, ii) anti-histamines (H1-blockers), and/or iii) illicit substances.(105, 109, 167, 168) Patients should not receive opioids if they use illicit substances unless there is objective evidence of significant trauma or moderate to severe injuries. Considerable caution is also warranted among those who are unemployed as the reported risks of death are also greater than 10-fold.(109, 167)\n\nDue to elevated risk of death and adverse effects, caution is also warranted when considering prescribing an opioid for patients with any of the following characteristics: depression, anxiety, personality disorder, untreated sleep disorders, substance abuse history, current alcohol use or current tobacco use, ADHD, PTSD, suicidal risk, impulse control problems, thought disorders, psychotropic medication use, COPD, asthma, recurrent pneumonia.(79, 102, 104, 108, 109, 169-176, 179-186) Considerable caution is also warranted among those with other comorbidities such as chronic hepatitis and/or cirrhosis,(187) as well as coronary artery disease, dysrhythmias, cerebrovascular disease, orthostatic hypotension, asthma, recurrent pneumonia, thermoregulatory problems, advanced age (especially with mentation issues, fall risk, debility), osteopenia, osteoporosis, water retention, renal failure, severe obesity, testosterone deficiency, erectile dysfunction, abdominal pain, gastroparesis, constipation, prostatic hypertrophy, oligomenorrhea, pregnancy, HIV, ineffective birth control, herpes, allodynia, dementia, cognitive dysfunction and impairment, gait problems, tremor, concentration problems, insomnia, coordination problems, and slow reaction time. There are considerable drug-drug interactions that have been reported (see Appendices 2-3).\n\nFrequency/Duration: Opioids use is generally initiated as a “trial” to ascertain whether the selected opioid produces functional improvement (see Appendix 1). Opioid use is generally prescribed on a regular basis,(218) at night or when not at work.(82) Only one opioid is recommended to be prescribed in a trial. More than one opioid should rarely be used. Lower opioid doses are preferable as they tend to have the better safety profiles, less risk of dose escalation,(188) less work loss,(112) and faster return to work.(189) Patients should have ongoing visits to monitor efficacy, adverse effects, compliance and surreptitious medication use. Opioid prescriptions should be shorter rather than longer duration.(219)\n\nIndications for Discontinuation: Opioids should be discontinued based on lack of functional benefit(115) (see Appendix 1), resolution of pain, improvement to the point of not requiring opioids, intolerance or adverse effects, non-compliance, surreptitious medication use, medication misuse (including self-escalation and sharing medication), aberrant drug screening results, diversion, consumption of medications or substances advised to not take concomitantly (e.g., sedating medications, alcohol, benzodiazepines).\n\nHarms: Adverse effects are many (see Opioids Guideline section on “Opioids Benefits and Harms”). May initiate path to opioid dependency.\n\nBenefits: Improved short-term pain ratings. Theoretical potential to improve short-term function impaired by a painful condition.\n\nRationale: There is one moderate-quality trial suggesting equivalent efficacy of nabumetone and diclofenac for treatment of shoulder OA although the trial included patients with other joint OA. (Bellamy 95) There are numerous high- and moderate-quality RCTs and crossover trials documenting the efficacy of NSAIDs and acetaminophen for treatment of osteoarthrosis of the knee and hip, as well as superiority of NSAIDs to acetaminophen for this purpose (see Hip and Groin Disorders Guideline). NSAIDs and acetaminophen are not invasive, have low though appreciable adverse effects particularly among employed populations, are low cost and effective, thus they are recommended (see Hip and Groin Disorders Guideline for comprehensive review of cardiovascular and gastrointestinal protection issues).\n\nThere are no quality studies of opioids for treatment of shoulder osteoarthrosis (see Rotator Cuff Tendinopathies section and Chronic Pain Guideline), and there is a lack of quality evidence of long-term efficacy. Opioids have adverse effects and there is published evidence of high risks of mortality. There are select patients with severe pain in whom NSAIDs appear inadequate, thus limited use of opioids may be a consideration for select shoulder OA patients. Opioids are not invasive, have high adverse effects for a pharmaceutical, although tolerance for many of these develop relatively rapidly, and are low cost when generic formulations are used.\n\nGlucosamine, chondroitin, and methylsulfonylmethane (MSM) are over-the-counter nutraceuticals that are advocated to modify or slow the progression of osteoarthrosis (see Hip and Groin Disorders Guideline). However, there is no quality evidence evaluating their use to treat shoulder osteoarthrosis. There are 13 quality studies that included a comparison of glucosamine sulfate with placebo. Of the five highest quality studies, one (Mazieres 07) was negative, but also trended towards benefits. There are four quality studies that included a comparison of chondroitin sulfate with placebo. (Uebelhart 04; Clegg 06; Mazieres 07; Michel 05) The studies on chondroitin are somewhat mixed – two studies suggest x-ray benefits; however, symptoms were not improved in two other studies (Michel 05; Mazieres 07) although trended towards benefit in one study. (Mazieres 07) One quality study included an assessment of MSM and found that it appeared beneficial. (Usha 04) Overall, studies suggest benefits at rates well above chance associations. These preparations are not invasive, appear safe, and do not result in gastrointestinal erosions or other common side effects of NSAIDS, are relatively inexpensive, and provide modest relief of knee OA pain, particularly in patients with more advanced pain. These medications might also modify or slow the progression of knee OA as measured by slowing of cartilage destruction and joint narrowing, (Pavelka 02; Reginster 01; Michel 05) although the clinical significance of this effect has not be fully identified; the sole study following hip joint spaces was statistically negative though also trending towards efficacy. (Rozendaal 08) There is preferential evidence for the use of the sulfate salt rather than the hydrochloride formulation of glucosamine. There is one quality study involving MSM. (Usha 04) There is some evidence that a single daily dose might be more effective than divided doses. Thus, there is quality evidence that glucosamine with or without chondroitin is efficacious for treatment of osteoarthrosis. There is one trial that included rose hip powder. (Rein 04) However, primarily due to lack of uniformity and standardization in preparations, some inconsistency in studies, most of the studies involve the knee, and no studies involving the shoulder, there is no recommendation for or against the use of these preparations for shoulder OA."
    }
  ],
  "references": {
    "mtus-link": "https://app.mdguidelines.com/acoem-section/state-guidelines%2Fca-mtus%2Fshoulder-disorders%2Ftreatment-recommendations%2Fadhesive-capsulitis%2Fmedications,https://app.mdguidelines.com/acoem-section/state-guidelines%2Fca-mtus%2Fshoulder-disorders%2Ftreatment-recommendations%2Facromioclavicular-sprains-and-dislocations%2Fmedications,https://app.mdguidelines.com/acoem-section/state-guidelines%2Fca-mtus%2Fshoulder-disorders%2Ftreatment-recommendations%2Fshoulder-dislocation%2Fmedications,https://app.mdguidelines.com/acoem-section/state-guidelines%2Fca-mtus%2Fshoulder-disorders%2Ftreatment-recommendations%2Fslap-tears%2Fmedications,https://app.mdguidelines.com/acoem-section/state-guidelines%2Fca-mtus%2Fshoulder-disorders%2Ftreatment-recommendations%2Fshoulder-osteoarthrosis%2Fmedications",
    "odg-link": ""
  }
}