{
  "treatment": {
    "index-name": "oral-glucocorticosteriods",
    "label-name": "Oral Glucocorticosteriods",
    "treatment-type": "other"
  },
  "body-system": {
    "index-name": "shoulder-disorders",
    "label-name": "Shoulder Disorders"
  },
  "version": {
    "mtus": "12/01/17",
    "odg": "",
    "policy-doc": "10/26/22",
    "created-by": "Cade",
    "comments": ""
  },
  "policies": [
    {
      "source": "mtus",
      "diagnosis": {
        "index-name": "adhesive-capsulitis",
        "label-name": "Adhesive Capsulitis"
      },
      "recommendation": "1",
      "questions": [
        {
          "#": "1",
          "question": "Does the injured worker decline injection?",
          "option-list": [
            {
              "option": "yes",
              "action": "approve"
            },
            {
              "option": "no",
              "action": "deny"
            }
          ]
        }
      ],
      "mtus-text": "Recommended. Oral glucocorticosteroids are recommended for treatment of adhesive capsulitis.\n\n Strength of Evidence – Recommended, Evidence (C)\n\nIndications: Adhesive capsulitis patients who decline injection.\n\nFrequency/Dose/Duration: One course of treatment. Medication and course used in the higher quality trial was triamcinolone 4mg PO TID for 1 week, then 4mg BID for 1 week, then 4mg QD for 1 week. (Widiastuti-Samekto 04) Another moderate-quality RCT utilized cortisone acetate 50mg QID for 3 days, then 25mg QID until Day 14. (Blockey 54) There are no head-to-head comparisons in quality studies of different oral medications to ascertain the optimum medication(s) or dose(s).\n\nIndications for Discontinuation: Generally only 1 course administered. Premature discontinuation of medication is usually based on intolerance, although a lower dose is sometimes used to attempt to ascertain whether there is tolerance at a lower dose that might still be potentially effective."
    },
    {
      "source": "mtus",
      "diagnosis": {
        "index-name": "acute-rotator-cuff-tendinopathies",
        "label-name": "Acute Rotator Cuff Tendinopathies"
      },
      "recommendation": "no_recommendation",
      "questions": [],
      "mtus-text": "No Recommendation. There is no recommendation for or against the use of oral glucocorticosteroids for treatment of rotator cuff tendinopathies.\n\n(Note: injections are recommended elsewhere)\n\nStrength of Evidence – No Recommendation, Insufficient Evidence (I)\n\nRationale: There is strong evidence that glucocorticosteroids injected in the subacromial space are effective for treatment of rotator cuff tendinopathies (see below). There are no quality placebo-controlled trials of oral glucocorticoids. There is one moderate quality trial that compared subacromial injection with intramuscular, with some outcomes suggesting injections are superior and no outcomes suggesting intramuscular administrations are superior. (Ekeberg 09) Thus, by further extension from intramuscular glucocorticoids, there is no recommendation for use of oral glucocorticosteroids for treatment of rotator cuff tendinopathies; particularly as there is considerable evidence subacromially injected glucocorticoids are efficacious. It may be reasonable to use oral steroids in those who declined injection, but continue to have an inadequate result with NSAIDs and exercises."
    },
    {
      "source": "mtus",
      "diagnosis": {
        "index-name": "subacute-rotator-cuff-tendinopathies",
        "label-name": "Subacute Rotator Cuff Tendinopathies"
      },
      "recommendation": "no_recommendation",
      "questions": [],
      "mtus-text": "No Recommendation. There is no recommendation for or against the use of oral glucocorticosteroids for treatment of rotator cuff tendinopathies.\n\n(Note: injections are recommended elsewhere)\n\nStrength of Evidence – No Recommendation, Insufficient Evidence (I)\n\nRationale: There is strong evidence that glucocorticosteroids injected in the subacromial space are effective for treatment of rotator cuff tendinopathies (see below). There are no quality placebo-controlled trials of oral glucocorticoids. There is one moderate quality trial that compared subacromial injection with intramuscular, with some outcomes suggesting injections are superior and no outcomes suggesting intramuscular administrations are superior. (Ekeberg 09) Thus, by further extension from intramuscular glucocorticoids, there is no recommendation for use of oral glucocorticosteroids for treatment of rotator cuff tendinopathies; particularly as there is considerable evidence subacromially injected glucocorticoids are efficacious. It may be reasonable to use oral steroids in those who declined injection, but continue to have an inadequate result with NSAIDs and exercises."
    },
    {
      "source": "mtus",
      "diagnosis": {
        "index-name": "chronic-rotator-cuff-tendinopathies",
        "label-name": "Chronic Rotator Cuff Tendinopathies"
      },
      "recommendation": "no_recommendation",
      "questions": [],
      "mtus-text": "No Recommendation. There is no recommendation for or against the use of oral glucocorticosteroids for treatment of rotator cuff tendinopathies.\n\n(Note: injections are recommended elsewhere)\n\nStrength of Evidence – No Recommendation, Insufficient Evidence (I)\n\nRationale: There is strong evidence that glucocorticosteroids injected in the subacromial space are effective for treatment of rotator cuff tendinopathies (see below). There are no quality placebo-controlled trials of oral glucocorticoids. There is one moderate quality trial that compared subacromial injection with intramuscular, with some outcomes suggesting injections are superior and no outcomes suggesting intramuscular administrations are superior. (Ekeberg 09) Thus, by further extension from intramuscular glucocorticoids, there is no recommendation for use of oral glucocorticosteroids for treatment of rotator cuff tendinopathies; particularly as there is considerable evidence subacromially injected glucocorticoids are efficacious. It may be reasonable to use oral steroids in those who declined injection, but continue to have an inadequate result with NSAIDs and exercises."
    }
  ],
  "references": {
    "mtus-link": "https://app.mdguidelines.com/acoem-section/state-guidelines%2Fca-mtus%2Fshoulder-disorders%2Ftreatment-recommendations%2Fadhesive-capsulitis%2Fmedications,https://app.mdguidelines.com/acoem-section/state-guidelines%2Fca-mtus%2Fshoulder-disorders%2Ftreatment-recommendations%2Frotator-cuff%2Fmedications",
    "odg-link": ""
  }
}