{
  "treatment": {
    "index-name": "psychological-evaluation",
    "label-name": "Psychological Evaluation",
    "treatment-type": "other"
  },
  "body-system": {
    "index-name": "shoulder-disorders",
    "label-name": "Shoulder Disorders"
  },
  "version": {
    "mtus": "12/01/17",
    "odg": "",
    "policy-doc": "11/02/22",
    "created-by": "Cade",
    "comments": ""
  },
  "policies": [
    {
      "source": "mtus",
      "diagnosis": {
        "index-name": "trigger-points",
        "label-name": "Trigger Points"
      },
      "recommendation": "approve",
      "questions": [],
      "mtus-text": "Recommended. A psychological evaluation is recommended as part of the evaluation and management of patients with chronic trigger points/myofascial pain to assess whether psychological factors will need to be considered and treated as part of the overall treatment plan.\n\nStrength of Evidence – Recommended, Insufficient Evidence (I)\n\nRationale: There are no quality trials. Psychological assessments are routinely accomplished to evaluate for the existence and impacts of psychological factors. Evaluations are generally low cost and, when done appropriately, present little risk of harm. In patients with chronic pain, psychological evaluation is recommended to evaluate these issues and potentially assist in developing a better treatment plan."
    },
    {
      "source": "mtus",
      "diagnosis": {
        "index-name": "myofascial-pain",
        "label-name": "Myofascial Pain"
      },
      "recommendation": "approve",
      "questions": [],
      "mtus-text": "Recommended. A psychological evaluation is recommended as part of the evaluation and management of patients with chronic trigger points/myofascial pain to assess whether psychological factors will need to be considered and treated as part of the overall treatment plan.\n\nStrength of Evidence – Recommended, Insufficient Evidence (I)\n\nRationale: There are no quality trials. Psychological assessments are routinely accomplished to evaluate for the existence and impacts of psychological factors. Evaluations are generally low cost and, when done appropriately, present little risk of harm. In patients with chronic pain, psychological evaluation is recommended to evaluate these issues and potentially assist in developing a better treatment plan."
    }
  ],
  "references": {
    "mtus-link": "https://app.mdguidelines.com/acoem-section/state-guidelines%2Fca-mtus%2Fshoulder-disorders%2Ftreatment-recommendations%2Ftrigger-points%2Fpsychological-services",
    "odg-link": ""
  }
}