{
  "treatment": {
    "index-name": "pulsed-electromagnetic-frequency",
    "label-name": "Pulsed Electromagnetic Frequency",
    "treatment-type": "other"
  },
  "body-system": {
    "index-name": "shoulder-disorders",
    "label-name": "Shoulder Disorders"
  },
  "version": {
    "mtus": "12/01/17",
    "odg": "",
    "policy-doc": "10/26/22",
    "created-by": "Cade",
    "comments": ""
  },
  "policies": [
    {
      "source": "mtus",
      "diagnosis": {
        "index-name": "adhesive-capsulitis",
        "label-name": "Adhesive Capsulitis"
      },
      "recommendation": "deny",
      "questions": [],
      "mtus-text": "Not Recommended. Taping or pulsed electromagnetic frequency is not recommended for the treatment of adhesive capsulitis.\n\nElectrical Therapies\n\nStrength of Evidence – Not Recommended, Insuffcient Evidence (I)\n\nRationale: There is one moderate-quality trial suggesting that diathermy plus stretching exercises is superior to a heating pad plus stretching exercises or to stretching exercises alone for frozen shoulder. (Leung 08) Diathermy is not invasive, has low adverse effects, and is moderately costly in the regimen used in the quality trial; thus, diathermy is recommended for treatment of patients with adhesive capsulitis. There is one moderate-quality trial of low level laser treatment (LLLT) that suggested benefits. (Stergioulas 08) However, LLLT is not recommended because it is a high-cost intervention for which the overall evidence for LLLT conflicts across numerous trials for various MSDs (see Chronic Pain and Low Back Disorders Guidelines); quality trials suggest other treatments are effective.\n\nOne moderate-quality trial suggests magnets are not effective. (Leclaire 91) Magnets are not recommended because they have been shown to be ineffective for treatment of other musculoskeletal disorders.\n\nThere is no quality evidence and thus no recommendation for the use of infrared, ultrasound, (Hamer 76) high-voltage galvanic, H-wave stimulation, iontophoresis, interferential therapy, (Cheing 08) microcurrent, percutaneous electrical nerve stimulation (PENS), sympathetic electrotherapy, or transcutaneous electrical stimulation (TENS), although several of these have been trialed in adhesive capsulitis patients. (Loew 05) Taping is generally not indicated for chronic conditions."
    },
    {
      "source": "mtus",
      "diagnosis": {
        "index-name": "acromioclavicular-sprain",
        "label-name": "Acromioclavicular Sprain"
      },
      "recommendation": "deny",
      "questions": [],
      "mtus-text": "Not Recommended. Taping, magnets, pulsed electromagnetic frequency, or interferential therapy are not recommended for the treatment of acromioclavicular sprains or dislocations.\n\nStrength of Evidence – Not Recommended, Insuffcient Evidence (I)\n\nRationale: Acupuncture may be effective for treating chronic shoulder pain (see Rotator Cuff Tendinopathies). However, most patients with AC sprains and separations do not have chronic pain. Acupuncture may be indicated for select patients with chronic pain who do not have sufficient control with other interventions.\n\nThere is no quality evidence evaluating the use of diathermy, infrared, ultrasound, laser, manual therapy, mobilization, manipulation, massage, high-voltage galvanic, H-wave® Device Stimulation, iontophoresis, microcurrent, percutaneous electrical nerve stimulation (PENS), sympathetic electrotherapy, or transcutaneous electrical stimulation (TENS) for treatment of AC sprains and separations. Thus, there is no recommendation for their use."
    },
    {
      "source": "mtus",
      "diagnosis": {
        "index-name": "acromioclavicular-dislocation",
        "label-name": "Acromioclavicular Dislocation"
      },
      "recommendation": "deny",
      "questions": [],
      "mtus-text": "Not Recommended. Taping, magnets, pulsed electromagnetic frequency, or interferential therapy are not recommended for the treatment of acromioclavicular sprains or dislocations.\n\nStrength of Evidence – Not Recommended, Insuffcient Evidence (I)\n\nRationale: Acupuncture may be effective for treating chronic shoulder pain (see Rotator Cuff Tendinopathies). However, most patients with AC sprains and separations do not have chronic pain. Acupuncture may be indicated for select patients with chronic pain who do not have sufficient control with other interventions.\n\nThere is no quality evidence evaluating the use of diathermy, infrared, ultrasound, laser, manual therapy, mobilization, manipulation, massage, high-voltage galvanic, H-wave® Device Stimulation, iontophoresis, microcurrent, percutaneous electrical nerve stimulation (PENS), sympathetic electrotherapy, or transcutaneous electrical stimulation (TENS) for treatment of AC sprains and separations. Thus, there is no recommendation for their use."
    },
    {
      "source": "mtus",
      "diagnosis": {
        "index-name": "shoulder-dislocation",
        "label-name": "Shoulder Dislocation"
      },
      "recommendation": "deny",
      "questions": [],
      "mtus-text": "Not Recommended. Taping, magnets, pulsed electromagnetic frequency and interferential therapy are not recommended for the treatment of shoulder dislocation.\n\nStrength of Evidence – Not Recommended, Insuffcient Evidence (I)\n\nRationale:  While there is experimental evidence in cadavers supporting capsular shrinkage with thermal heating, (Hayashi 97) there is no quality evidence and thus there is no recommendation for the use of diathermy, infrared, ultrasound, laser, manual therapy, mobilization, manipulation, massage, high-voltage galvanic, H-wave stimulation, iontophoresis, microcurrent, percutaneous electrical nerve stimulation (PENS), sympathetic electrotherapy, or transcutaneous electrical stimulation (TENS) for treatment of shoulder dislocation or instability."
    },
    {
      "source": "mtus",
      "diagnosis": {
        "index-name": "superior-labral-anterior-posterior/slap-tear",
        "label-name": "Superior Labral Anterior Posterior/SLAP Tear"
      },
      "recommendation": "deny",
      "questions": [],
      "mtus-text": "Not Recommended. Taping, magnets, pulsed electromagnetic frequency and interferential therapy are not recommended for the treatment of superior labral anterior posterior (SLAP) or other labral tears.\n\nStrength of Evidence – Not Recommended, Insuffcient Evidence (I)\n\nRationale: Acupuncture may be effective for treatment of chronic shoulder pain (see Rotator Cuff Tendinopathies above). However, most patients with SLAP and labral tears do not have chronic pain. Acupuncture may be indicated for select patients with chronic pain who do not have sufficient control with other interventions. There is no quality evidence and thus there is no recommendation for the use of diathermy, infrared, ultrasound, laser, manual therapy, mobilization, manipulation, massage, high-voltage galvanic, H-wave stimulation, iontophoresis, microcurrent, percutaneous electrical nerve stimulation (PENS), sympathetic electrotherapy, or transcutaneous electrical stimulation (TENS) to treat labral tears."
    },
    {
      "source": "mtus",
      "diagnosis": {
        "index-name": "other-labral-tears",
        "label-name": "Other Labral Tears"
      },
      "recommendation": "deny",
      "questions": [],
      "mtus-text": "Not Recommended. Taping, magnets, pulsed electromagnetic frequency and interferential therapy are not recommended for the treatment of superior labral anterior posterior (SLAP) or other labral tears.\n\nStrength of Evidence – Not Recommended, Insuffcient Evidence (I)\n\nRationale: Acupuncture may be effective for treatment of chronic shoulder pain (see Rotator Cuff Tendinopathies above). However, most patients with SLAP and labral tears do not have chronic pain. Acupuncture may be indicated for select patients with chronic pain who do not have sufficient control with other interventions. There is no quality evidence and thus there is no recommendation for the use of diathermy, infrared, ultrasound, laser, manual therapy, mobilization, manipulation, massage, high-voltage galvanic, H-wave stimulation, iontophoresis, microcurrent, percutaneous electrical nerve stimulation (PENS), sympathetic electrotherapy, or transcutaneous electrical stimulation (TENS) to treat labral tears."
    }
  ],
  "references": {
    "mtus-link": "https://app.mdguidelines.com/acoem-section/state-guidelines%2Fca-mtus%2Fshoulder-disorders%2Ftreatment-recommendations%2Fadhesive-capsulitis%2Fmobilization,https://app.mdguidelines.com/acoem-section/state-guidelines%2Fca-mtus%2Fshoulder-disorders%2Ftreatment-recommendations%2Facromioclavicular-sprains-and-dislocations%2Fdevices,https://app.mdguidelines.com/acoem-section/state-guidelines%2Fca-mtus%2Fshoulder-disorders%2Ftreatment-recommendations%2Fshoulder-dislocation%2Fdevices,https://app.mdguidelines.com/acoem-section/state-guidelines%2Fca-mtus%2Fshoulder-disorders%2Ftreatment-recommendations%2Fslap-tears%2Fdevices",
    "odg-link": ""
  }
}