{
  "treatment": {
    "index-name": "relocation-with-anesthesia",
    "label-name": "Relocation with Anesthesia",
    "treatment-type": "other"
  },
  "body-system": {
    "index-name": "shoulder-disorders",
    "label-name": "Shoulder Disorders"
  },
  "version": {
    "mtus": "12/01/17",
    "odg": "",
    "policy-doc": "11/01/22",
    "created-by": "Cade",
    "comments": ""
  },
  "policies": [
    {
      "source": "mtus",
      "diagnosis": {
        "index-name": "shoulder-dislocation",
        "label-name": "Shoulder Dislocation"
      },
      "recommendation": "1",
      "questions": [
        {
          "#": "1",
          "question": "Has a relocation without anesthesia been attempted and proved unsuccessful?",
          "option-list": [
            {
              "option": "yes",
              "action": "approve"
            },
            {
              "option": "no",
              "action": "deny"
            }
          ]
        }
      ],
      "mtus-text": "Recommended. Relocation is recommended after dislocation. Relocation under anesthesia is recommended if an attempted relocation without anesthesia is unsuccessful.\n\nStrength of Evidence – Recommended, Insufficient Evidence (I)"
    }
  ],
  "references": {
    "mtus-link": "https://app.mdguidelines.com/acoem-section/state-guidelines%2Fca-mtus%2Fshoulder-disorders%2Ftreatment-recommendations%2Fshoulder-dislocation%2Fsurgical-considerations",
    "odg-link": ""
  }
}