{
  "treatment": {
    "index-name": "selective-serotonin-reuptake-inhibitors-(ssris)",
    "label-name": "Selective Serotonin Reuptake Inhibitors (SSRIs)",
    "treatment-type": "other"
  },
  "body-system": {
    "index-name": "shoulder-disorders",
    "label-name": "Shoulder Disorders"
  },
  "version": {
    "mtus": "12/01/17",
    "odg": "",
    "policy-doc": "10/24/22",
    "created-by": "Cade",
    "comments": ""
  },
  "policies": [
    {
      "source": "mtus",
      "diagnosis": {
        "index-name": "trigger-points",
        "label-name": "Trigger Points"
      },
      "recommendation": "deny",
      "questions": [],
      "mtus-text": "Not Recommended. Selective serotonin reuptake inhibitors, bupropion, or trazodone are not recommended for the treatment of trigger points/myofascial pain.\n\nMedications (including topical creams)\n\nStrength of Evidence – Not Recommended, Insuffcient Evidence (I)"
    },
    {
      "source": "mtus",
      "diagnosis": {
        "index-name": "myofascial-pain",
        "label-name": "Myofascial Pain"
      },
      "recommendation": "deny",
      "questions": [],
      "mtus-text": "Not Recommended. Selective serotonin reuptake inhibitors, bupropion, or trazodone are not recommended for the treatment of trigger points/myofascial pain.\n\nMedications (including topical creams)\n\nStrength of Evidence – Not Recommended, Insuffcient Evidence (I)"
    },
    {
      "source": "mtus",
      "diagnosis": {
        "index-name": "acute-shoulder-pain",
        "label-name": "Acute Shoulder Pain"
      },
      "recommendation": "deny",
      "questions": [],
      "mtus-text": "Not Recommended. Selective serotonin reuptake inhibitors (SSRIs) are not recommended for treatment of acute, subacute, or chronic shoulder pain.\n\nStrength of Evidence – Recommended, Insufficient Evidence (I)\n\nRationale: Norepinephrine reuptake inhibiting anti-depressants (e.g., amitriptyline, doxepin, imipramine, desipramine, nortriptyline, protriptyline, maprotiline, and clomipramine) and mixed norepinephrine and serotonin inhibitors (venlafaxine, bupropion, and duloxetine) have evidence of efficacy for treatment of chronic low back pain and some other chronic pain conditions (see Low Back Disorders Guideline). There is no quality evidence evaluating these medications for treatment of shoulder pain; however, they appear likely to be mildly effective for some shoulder pain patients, especially involving shoulder girdle and myofascial pain. Selective serotonin reuptake inhibitors (SSRIs) are not recommended for treatment of acute, subacute, or chronic shoulder pain as there is strong evidence of their lack of efficacy for treatment of chronic low back pain, thus they appear unlikely to successfully treat acute, subacute, or chronic shoulder pain."
    },
    {
      "source": "mtus",
      "diagnosis": {
        "index-name": "subacute-shoulder-pain",
        "label-name": "Subacute Shoulder Pain"
      },
      "recommendation": "deny",
      "questions": [],
      "mtus-text": "Not Recommended. Selective serotonin reuptake inhibitors (SSRIs) are not recommended for treatment of acute, subacute, or chronic shoulder pain.\n\nStrength of Evidence – Recommended, Insufficient Evidence (I)\n\nRationale: Norepinephrine reuptake inhibiting anti-depressants (e.g., amitriptyline, doxepin, imipramine, desipramine, nortriptyline, protriptyline, maprotiline, and clomipramine) and mixed norepinephrine and serotonin inhibitors (venlafaxine, bupropion, and duloxetine) have evidence of efficacy for treatment of chronic low back pain and some other chronic pain conditions (see Low Back Disorders Guideline). There is no quality evidence evaluating these medications for treatment of shoulder pain; however, they appear likely to be mildly effective for some shoulder pain patients, especially involving shoulder girdle and myofascial pain. Selective serotonin reuptake inhibitors (SSRIs) are not recommended for treatment of acute, subacute, or chronic shoulder pain as there is strong evidence of their lack of efficacy for treatment of chronic low back pain, thus they appear unlikely to successfully treat acute, subacute, or chronic shoulder pain."
    },
    {
      "source": "mtus",
      "diagnosis": {
        "index-name": "chronic-shoulder-pain",
        "label-name": "Chronic Shoulder Pain"
      },
      "recommendation": "deny",
      "questions": [],
      "mtus-text": "Not Recommended. Selective serotonin reuptake inhibitors (SSRIs) are not recommended for treatment of acute, subacute, or chronic shoulder pain.\n\nStrength of Evidence – Recommended, Insufficient Evidence (I)\n\nRationale: Norepinephrine reuptake inhibiting anti-depressants (e.g., amitriptyline, doxepin, imipramine, desipramine, nortriptyline, protriptyline, maprotiline, and clomipramine) and mixed norepinephrine and serotonin inhibitors (venlafaxine, bupropion, and duloxetine) have evidence of efficacy for treatment of chronic low back pain and some other chronic pain conditions (see Low Back Disorders Guideline). There is no quality evidence evaluating these medications for treatment of shoulder pain; however, they appear likely to be mildly effective for some shoulder pain patients, especially involving shoulder girdle and myofascial pain. Selective serotonin reuptake inhibitors (SSRIs) are not recommended for treatment of acute, subacute, or chronic shoulder pain as there is strong evidence of their lack of efficacy for treatment of chronic low back pain, thus they appear unlikely to successfully treat acute, subacute, or chronic shoulder pain."
    }
  ],
  "references": {
    "mtus-link": "https://app.mdguidelines.com/acoem-section/state-guidelines%2Fca-mtus%2Fshoulder-disorders%2Ftreatment-recommendations%2Ftrigger-points%2Fmedications,https://app.mdguidelines.com/acoem-section/state-guidelines%2Fca-mtus%2Fshoulder-disorders%2Ftreatment-recommendations%2Frotator-cuff%2Fmedications",
    "odg-link": ""
  }
}