{
  "treatment": {
    "index-name": "shortwave-diathermy",
    "label-name": "Shortwave Diathermy",
    "treatment-type": "other"
  },
  "body-system": {
    "index-name": "shoulder-disorders",
    "label-name": "Shoulder Disorders"
  },
  "version": {
    "mtus": "12/01/17",
    "odg": "",
    "policy-doc": "10/26/22",
    "created-by": "Cade",
    "comments": ""
  },
  "policies": [
    {
      "source": "mtus",
      "diagnosis": {
        "index-name": "adhesive-capsulitis",
        "label-name": "Adhesive Capsulitis"
      },
      "recommendation": "1",
      "questions": [
        {
          "#": "1",
          "question": "Has the injured worker had adhesive capsulitis of at least 8 weeks duration?",
          "option-list": [
            {
              "option": "yes",
              "action": "approve"
            },
            {
              "option": "no",
              "action": "deny"
            }
          ]
        }
      ],
      "mtus-text": "Recommended. Shortwave diathermy is recommended for the treatment of adhesive capsulitis.\n\nHot and Cold Therapies\n\nStrength of Evidence – Recommended, Evidence (C)\n\nIndications: Adhesive capsulitis of at least 8 weeks duration; (Leung 08) consideration but not a requirement of inadequate response to injection.\n\nFrequency/Dose/Duration: Three times a week up to 4 weeks (Leung 08) combined with exercises. (Leung 08)\n\nIndications for Discontinuation: Resolution, sufficient improvement, intolerance, noncompliance with exercises."
    }
  ],
  "references": {
    "mtus-link": "https://app.mdguidelines.com/acoem-section/state-guidelines%2Fca-mtus%2Fshoulder-disorders%2Ftreatment-recommendations%2Fadhesive-capsulitis%2Fmobilization",
    "odg-link": ""
  }
}