{
  "treatment": {
    "index-name": "stretching-exercises",
    "label-name": "Stretching Exercises",
    "treatment-type": "other"
  },
  "body-system": {
    "index-name": "shoulder-disorders",
    "label-name": "Shoulder Disorders"
  },
  "version": {
    "mtus": "12/01/17",
    "odg": "",
    "policy-doc": "10/26/22",
    "created-by": "Cade",
    "comments": ""
  },
  "policies": [
    {
      "source": "mtus",
      "diagnosis": {
        "index-name": "trigger-points",
        "label-name": "Trigger Points"
      },
      "recommendation": "1",
      "questions": [
        {
          "#": "1",
          "question": "Does the injured worker have mild, moderate, or severe pain?",
          "option-list": [
            {
              "option": "yes",
              "action": "approve"
            },
            {
              "option": "no",
              "action": "deny"
            }
          ]
        }
      ],
      "mtus-text": "Recommended. Stretching exercises are recommended for treatment of trigger points/myofascial pain, accompanied by a loss of joint range of motion, to increase connective and muscle tissue extensibility and to attempt to increase overall capacity and activity tolerance.\n\nActivity Modification and Exercise\n\nStrength of Evidence – Recommended, Insufficient Evidence (I)\n\nIndications: Mild, moderate, severe pain.\n\nFrequency/Dose/Duration: Stretching exercises with transition to home exercise program.\n\nIndications for Discontinuation: Restoration of full joint ROM that is pain free or fails to improve."
    },
    {
      "source": "mtus",
      "diagnosis": {
        "index-name": "myofascial-pain",
        "label-name": "Myofascial Pain"
      },
      "recommendation": "1",
      "questions": [
        {
          "#": "1",
          "question": "Does the injured worker have mild, moderate, or severe pain?",
          "option-list": [
            {
              "option": "yes",
              "action": "approve"
            },
            {
              "option": "no",
              "action": "deny"
            }
          ]
        }
      ],
      "mtus-text": "Recommended. Stretching exercises are recommended for treatment of trigger points/myofascial pain, accompanied by a loss of joint range of motion, to increase connective and muscle tissue extensibility and to attempt to increase overall capacity and activity tolerance.\n\nActivity Modification and Exercise\n\nStrength of Evidence – Recommended, Insufficient Evidence (I)\n\nIndications: Mild, moderate, severe pain.\n\nFrequency/Dose/Duration: Stretching exercises with transition to home exercise program.\n\nIndications for Discontinuation: Restoration of full joint ROM that is pain free or fails to improve."
    }
  ],
  "references": {
    "mtus-link": "https://app.mdguidelines.com/acoem-section/state-guidelines%2Fca-mtus%2Fshoulder-disorders%2Ftreatment-recommendations%2Ftrigger-points%2Factivities-and-activity-alteration",
    "odg-link": ""
  }
}