{
  "treatment": {
    "index-name": "subacromial-viscosupplementation-injection",
    "label-name": "Subacromial Viscosupplementation Injection",
    "treatment-type": "other"
  },
  "body-system": {
    "index-name": "shoulder-disorders",
    "label-name": "Shoulder Disorders"
  },
  "version": {
    "mtus": "12/01/17",
    "odg": "",
    "policy-doc": "10/27/22",
    "created-by": "Cade",
    "comments": ""
  },
  "policies": [
    {
      "source": "mtus",
      "diagnosis": {
        "index-name": "rotator-cuff-tendinopathies",
        "label-name": "Rotator Cuff Tendinopathies"
      },
      "recommendation": "no_recommendation",
      "questions": [],
      "mtus-text": "No Recommendation. There is no recommendation for or against the use of subacromial viscosupplementation injections for the treatment of chronic rotator cuff tendinopathies (including rotator cuff tendinoses, supraspinatus tendinitis, impingement syndrome, and subacromial bursitis).\n\nInjection Therapy\n\nStrength of Evidence – No Recommendation, Insuffcient Evidence (I)\n\nRationale: There are no quality trials. There is one low-quality trial without a placebo-control suggesting few differences between hyaluronate injections and local modalities. (Sengul 08) Thus, there is no recommendation for or against these injections for rotator cuff tendinopathies. "
    }
  ],
  "references": {
    "mtus-link": "https://app.mdguidelines.com/acoem-section/state-guidelines%2Fca-mtus%2Fshoulder-disorders%2Ftreatment-recommendations%2Frotator-cuff%2Finjections",
    "odg-link": ""
  }
}