{
  "treatment": {
    "index-name": "sucralfate-with-nsaids",
    "label-name": "Sucralfate with NSAIDs",
    "treatment-type": "other"
  },
  "body-system": {
    "index-name": "shoulder-disorders",
    "label-name": "Shoulder Disorders"
  },
  "version": {
    "mtus": "12/01/17",
    "odg": "",
    "policy-doc": "11/07/22",
    "created-by": "Cade",
    "comments": ""
  },
  "policies": [
    {
      "source": "mtus",
      "diagnosis": {
        "index-name": "shoulder-pain",
        "label-name": "Shoulder Pain"
      },
      "recommendation": "1",
      "questions": [
        {
          "#": "1",
          "question": "Does the injured worker have a high-risk factor profile (prior gastrointestinal bleeding, elderly, diabetic, cigarette smoker) who also has indications for NSAIDs?",
          "option-list": [
            {
              "option": "yes",
              "action": "approve"
            },
            {
              "option": "no",
              "action": "deny"
            }
          ]
        }
      ],
      "mtus-text": "Strength of Evidence (Sucralfate) – Moderately Recommended, Evidence (B)\n\nIndications: Patients with a high-risk factor profile who also have indications for NSAIDs, cytoprotective medications should be considered, particularly if longer term treatment is contemplated. At-risk patients include those with a history of prior gastrointestinal bleeding, elderly, diabetics, and cigarette smokers. Providers are cautioned that H2 blockers might not protect from gastric ulcers. (Robinson 89, 91; Ehsanullah 88)\n\nFrequency/Dose/Duration: Dose and frequency per manufacturer recommendations. Duration is either length of the NSAID therapy, or permanent for those with recurrent bleeds or other complications.\n\nIndications for Discontinuation: Intolerance, development of adverse effects, or discontinuation of NSAID."
    }
  ],
  "references": {
    "mtus-link": "https://app.mdguidelines.com/acoem-section/state-guidelines%2Fca-mtus%2Fshoulder-disorders%2Ftreatment-recommendations%2Ftrigger-points%2Fmedications",
    "odg-link": ""
  }
}