{
  "treatment": {
    "index-name": "therapy",
    "label-name": "Therapy",
    "treatment-type": "other"
  },
  "body-system": {
    "index-name": "shoulder-disorders",
    "label-name": "Shoulder Disorders"
  },
  "version": {
    "mtus": "12/01/17",
    "odg": "",
    "policy-doc": "10/26/22",
    "created-by": "Cade",
    "comments": ""
  },
  "policies": [
    {
      "source": "mtus",
      "diagnosis": {
        "index-name": "adhesive-capsulitis",
        "label-name": "Adhesive Capsulitis"
      },
      "recommendation": "approve",
      "questions": [],
      "mtus-text": "Recommended. Education, exercise, and therapy are recommended for treatment of adhesive capsulitis.\n\nActivity Modification and Exercise\n\nStrength of Evidence – Recommended, Evidence (C)\n\nIndications: All adhesive capsulitis, especially moderate to severely affected patients. (Loew 05; Lee 73, 74)\n\nFrequency/Dose/Duration: Education is needed, particularly to provide longer-term perspective regarding the need for persistent advances in ROM and participation in activities, especially meaningful employment, as a method for improving motion. Progressive passive ROM exercises, (Nicholson 85; van der Windt 98) including a home exercise program (HEP) are thought to be essential. Frequency of appointments varies based on condition severity, compliance, need for encouragement, comorbid conditions, and prior patient experiences. ROM exercises are the primary exercises for this disorder, although they are typically followed by isometric strengthening program, then isotonic strengthening and endurance exercises. Options include weekly appointments to oversee and advance a home exercise program for several weeks until sufficient recovered for lower grade injuries and self-motivated patients. Patients with a more severe disorder or need of supervision may require appointments 2 to 3 per week to initiate program exercises, tapering to 1 per week in approximately 4 weeks before being discharged to a home exercise program in approximately 2 months for more severe injuries.\n\nIndications for Discontinuation: Recovery, plateau in recovery, noncompliance, or intolerance."
    },
    {
      "source": "mtus",
      "diagnosis": {
        "index-name": "acromioclavicular-dislocation",
        "label-name": "Acromioclavicular Dislocation"
      },
      "recommendation": "approve",
      "questions": [],
      "mtus-text": "Recommended. Therapy, including exercises and education, is recommended for patients with severe acromioclavicular sprains or dislocations or who are in need of surgery.\n\nActivity Modification and Exercise\n\nStrength of Evidence – Recommended, Insufficient Evidence (I)\n\nIndications: Acromioclavicular sprains and separations, as well as post-operative use. (Lemos 98; Nuber 97)\n\nFrequency/Dose/Duration: Pendulum exercises are generally initiated, along with other ROM exercises and education. These are typically followed by isometric strengthening program, then isotonic strengthening and endurance exercises. Programs require individualization based on factors such as patient’s injury severity, age, experience, comorbid conditions, and compliance. A range of options includes weekly appointments to oversee and advance a home exercise program for several weeks until sufficiently recovered for lower grade injuries and self-motivated patients. Patients with more severe injuries or need for supervision may require appointments 2 to 3 a week to initiate program exercises, tapering to 1 a week in approximately 4 weeks before being discharged to a home-exercise program in approximately 2 months for more severe injuries.\n\nRationale: Education is often helpful for patient understanding of the condition and to facilitate exercises, especially in the post-operative period.\n\nAcupuncture may be effective for treating chronic shoulder pain (see Rotator Cuff Tendinopathies). However, most patients with AC sprains and separations do not have chronic pain. Acupuncture may be indicated for select patients with chronic pain who do not have sufficient control with other interventions.\n\nThere is no quality evidence evaluating the use of diathermy, infrared, ultrasound, laser, manual therapy, mobilization, manipulation, massage, high-voltage galvanic, H-wave® Device Stimulation, iontophoresis, microcurrent, percutaneous electrical nerve stimulation (PENS), sympathetic electrotherapy, or transcutaneous electrical stimulation (TENS) for treatment of AC sprains and separations. Thus, there is no recommendation for their use."
    },
    {
      "source": "mtus",
      "diagnosis": {
        "index-name": "acromioclavicular-sprain",
        "label-name": "Acromioclavicular Sprain"
      },
      "recommendation": "approve",
      "questions": [],
      "mtus-text": "Recommended. Therapy, including exercises and education, is recommended for patients with severe acromioclavicular sprains or dislocations or who are in need of surgery.\n\nActivity Modification and Exercise\n\nStrength of Evidence – Recommended, Insufficient Evidence (I)\n\nIndications: Acromioclavicular sprains and separations, as well as post-operative use. (Lemos 98; Nuber 97)\n\nFrequency/Dose/Duration: Pendulum exercises are generally initiated, along with other ROM exercises and education. These are typically followed by isometric strengthening program, then isotonic strengthening and endurance exercises. Programs require individualization based on factors such as patient’s injury severity, age, experience, comorbid conditions, and compliance. A range of options includes weekly appointments to oversee and advance a home exercise program for several weeks until sufficiently recovered for lower grade injuries and self-motivated patients. Patients with more severe injuries or need for supervision may require appointments 2 to 3 a week to initiate program exercises, tapering to 1 a week in approximately 4 weeks before being discharged to a home-exercise program in approximately 2 months for more severe injuries.\n\nRationale: Education is often helpful for patient understanding of the condition and to facilitate exercises, especially in the post-operative period.\n\nAcupuncture may be effective for treating chronic shoulder pain (see Rotator Cuff Tendinopathies). However, most patients with AC sprains and separations do not have chronic pain. Acupuncture may be indicated for select patients with chronic pain who do not have sufficient control with other interventions.\n\nThere is no quality evidence evaluating the use of diathermy, infrared, ultrasound, laser, manual therapy, mobilization, manipulation, massage, high-voltage galvanic, H-wave® Device Stimulation, iontophoresis, microcurrent, percutaneous electrical nerve stimulation (PENS), sympathetic electrotherapy, or transcutaneous electrical stimulation (TENS) for treatment of AC sprains and separations. Thus, there is no recommendation for their use."
    }
  ],
  "references": {
    "mtus-link": "https://app.mdguidelines.com/acoem-section/state-guidelines%2Fca-mtus%2Fshoulder-disorders%2Ftreatment-recommendations%2Fadhesive-capsulitis%2Fdevices,https://app.mdguidelines.com/acoem-section/state-guidelines%2Fca-mtus%2Fshoulder-disorders%2Ftreatment-recommendations%2Facromioclavicular-sprains-and-dislocations%2Fdevices",
    "odg-link": ""
  }
}